Place,Sex,Name,CyrillicName,BodyweightKg,Squat1Kg,Squat2Kg,Squat3Kg,Best3SquatKg,Squat4Kg,Bench1Kg,Bench2Kg,Bench3Kg,Best3BenchKg,Bench4Kg,Deadlift1Kg,Deadlift2Kg,Deadlift3Kg,Best3DeadliftKg,Deadlift4Kg,TotalKg,WeightClassKg,Event,Equipment,Tested,Division,Age,BirthDate
1,F,Olga Vinichenko,Ольга Виниченко,45.6,55,62.5,-70,62.5,,32.5,37.5,-40,37.5,,60,65,70,70,,170,48,SBD,Raw,Yes,Amateur Open,24,1996-08-08
1,F,Olga Istratkina,Ольга Истраткина,52,85,95,-105,95,,45,-50,-50,45,,80,90,95,95,,235,52,SBD,Raw,Yes,Amateur Sub-Juniors 17-19,19,2000-12-29
1,F,Natalya Aksyonova,Наталья Аксёнова,55.7,80,85,-90,85,,45,47.5,50,50,,80,85,90,90,,225,56,SBD,Raw,Yes,Amateur Juniors 20-23,21,1998-10-31
1,F,Rena Novruzova,Рена Новрузова,54.7,100,110,120,120,,60,-65,-65,60,,110,117.5,127.5,127.5,,307.5,56,SBD,Raw,Yes,Amateur Open,32,1987-12-17
1,F,Elena Ostapenko,Елена Остапенко,66.4,80,-90,90,90,,50,55,-60,55,,90,100,110,110,,255,67.5,SBD,Raw,Yes,Amateur Open,27,1993-04-21
2,F,Irina Kotenko,Ирина Котенко,66.1,80,85,90,90,,-42.5,45,47.5,47.5,,80,85,90,90,,227.5,67.5,SBD,Raw,Yes,Amateur Open,32,1987-11-18
1,F,Ekaterina Yaroshenko,Екатерина Ярошенко,94.6,125,130,135,135,,50,52.5,-55,52.5,,135,142.5,150,150,,337.5,90+,SBD,Raw,Yes,Amateur Open,27,1993-04-15
1,M,Vladislav Bogodist,Владислав Богодист,65.6,110,120,130,130,,90,95,100,100,,130,140,150,150,,380,67.5,SBD,Raw,Yes,Amateur Teen 14-16,16,2004-01-20
1,M,Daniil Voronin,Даниил Воронин,86,180,190,-200,190,,120,130,-135,130,,200,210,-220,210,,530,90,SBD,Raw,Yes,Amateur Sub-Juniors 17-19,18,2002-03-07
1,M,Nikolay Mikhaylutin,Николай Михайлутин,86.9,180,190,200,200,,120,-130,130,130,,240,260,270,270,,600,90,SBD,Raw,Yes,Amateur Open,32,1988-03-08
1,M,Nikolay Gordienko,Николай Гордиенко,94.1,165,175,180,180,,125,-130,135,135,,230,240,-252.5,240,,555,100,SBD,Raw,Yes,Amateur Open,28,1992-01-13
2,M,Yuriy Nikishov,Юрий Никишов,99.4,-185,190,,190,,135,-140,-140,135,,210,-220,,210,,535,100,SBD,Raw,Yes,Amateur Open,36,1984-02-29
1,M,Khayser Seyt-Arifov,Хайсер Сейт-Арифов,123,200,-220,220,220,,132.5,140,-145,140,,235,-250,250,250,,610,125,SBD,Raw,Yes,Amateur Open,33,1987-06-10
1,F,Yuliya Antonova #1,Юлія Антонова,64,-150,150,157.5,157.5,,90,95,97.5,97.5,,155,165,175,175,,430,67.5,SBD,Raw,No,Pro Open,40,1980-02-01
1,M,Ivan Cheremnykh,Иван Черемных,69.3,100,107.5,115,115,,80,85,-90,85,,110,120,130,130,,330,75,SBD,Raw,No,Pro Teen 14-16,14,2005-11-04
1,M,Kirill Korotich,Кирилл Коротич,89,200,215,220,220,,135,145,-150,145,,220,237.5,-247.5,237.5,,602.5,90,SBD,Raw,No,Pro Juniors 20-23,23,1997-08-15
1,M,Kirill Korotich,Кирилл Коротич,89,200,215,220,220,,135,145,-150,145,,220,237.5,-247.5,237.5,,602.5,90,SBD,Raw,No,Pro Open,23,1997-08-15
1,M,Andrey Buryachenko,Андрей Буряченко,120.3,225,235,-245,235,,190,200,205,205,,240,255,270,270,,710,125,SBD,Raw,No,Pro Open,43,1976-12-30
1,M,Anton Klyuka,Антон Клюка,157,310,335,350,350,,170,-180,,170,,300,325,350,350,,870,140+,SBD,Raw,No,Pro Open,36,1983-10-30
1,F,Elena Pecherskaya,Елена Печерская,75,170,180,-190,180,,90,95,100,100,,170,180,-187.5,180,,460,75,SBD,Wraps,No,Pro Open,29,1991-02-08
1,M,Lenur Kataev,Ленур Катаев,90,-250,250,265,265,,192.5,-197.5,-197.5,192.5,,-260,260,270,270,,727.5,90,SBD,Wraps,No,Pro Open,25,1994-10-11
1,F,Svetlana Deyneko,Светлана Дейнеко,53.8,,,,,,55,60,-62.5,60,,,,,,,60,56,B,Raw,Yes,Amateur Open,34,1986-05-25
DQ,F,Natalya Razumova,Наталья Разумова,56,,,,,,-70,-72.5,-72.5,,,,,,,,,56,B,Raw,Yes,Amateur Open,44,1976-07-05
DQ,F,Natalya Razumova,Наталья Разумова,56,,,,,,-70,-72.5,-72.5,,,,,,,,,56,B,Raw,Yes,Amateur Masters 40-49,44,1976-07-05
1,F,Oksana Maruk,Оксана Марук,66,,,,,,75,-80,-80,75,,,,,,,75,67.5,B,Raw,Yes,Amateur Open,47,1973-02-06
1,M,Nikita Soldatkin,Никита Солдаткин,81.6,,,,,,130,-140,-140,130,,,,,,,130,82.5,B,Raw,Yes,Amateur Sub-Juniors 17-19,17,2003-08-31
1,M,Nikita Soldatkin,Никита Солдаткин,81.6,,,,,,130,-140,-140,130,,,,,,,130,82.5,B,Raw,Yes,Amateur Open,17,2003-08-31
1,M,Andrey Rogov,Андрей Рогов,89.1,,,,,,-145,155,160,160,,,,,,,160,90,B,Raw,Yes,Amateur Open,32,1987-12-26
2,M,Dmitriy Khukhrin,Дмитрий Хухрин,86.8,,,,,,125,132.5,135,135,,,,,,,135,90,B,Raw,Yes,Amateur Open,31,1988-11-30
1,M,Andrey Yakushev,Андрей Якушев,96,,,,,,95,105,110,110,,,,,,,110,100,B,Raw,Yes,Amateur Teen 14-16,16,2004-07-22
1,M,Anton Tsisnetskiy,Антон Циснецкий,98.1,,,,,,160,165,-170,165,,,,,,,165,100,B,Raw,Yes,Amateur Open,29,1991-05-06
1,M,Oleg Shulga,Олег Шульга,98.7,,,,,,135,-142.5,142.5,142.5,,,,,,,142.5,100,B,Raw,Yes,Amateur Masters 50-59,51,1969-03-31
1,M,Yuriy Matyushenko,Юрий Матюшенко,108.7,,,,,,150,-160,-160,150,,,,,,,150,110,B,Raw,Yes,Amateur Masters 50-59,51,1969-01-18
1,M,Aleksandr Buyanov,Александр Буянов,131.6,,,,,,170,177.5,-182.5,177.5,,,,,,,177.5,140,B,Raw,Yes,Amateur Open,39,1981-05-18
1,F,Natalya Sukhovey,Наталья Суховей,57.3,,,,,,42.5,45,47.5,47.5,,,,,,,47.5,60,B,Raw,No,Pro Masters 50-59,59,1960-11-25
1,F,Yuliya Antonova #1,Юлія Антонова,64,,,,,,90,95,97.5,97.5,,,,,,,97.5,67.5,B,Raw,No,Pro Open,40,1980-02-01
2,F,Anna Nikishova,Анна Никишова,67.5,,,,,,-80,-80,80,80,,,,,,,80,67.5,B,Raw,No,Pro Open,30,1989-12-26
1,F,Aleksandra Oreshchuk,Александра Орещук,71.7,,,,,,45,47.5,50,50,,,,,,,50,75,B,Raw,No,Pro Open,39,1981-08-14
DQ,M,Daniil Chzhan,Даниил Чжан,76.9,,,,,,-87.5,-87.5,-87.5,,,,,,,,,82.5,B,Raw,No,Pro Teen 14-16,16,2003-12-08
1,M,Artyom Vinogradskiy,Артём Виноградский,87.5,,,,,,170,175,-180,175,,,,,,,175,90,B,Raw,No,Pro Open,34,1986-08-15
1,M,Viktor Kiriyak,Виктор Кирияк,98,,,,,,180,190,-195,190,,,,,,,190,100,B,Raw,No,Pro Open,24,1996-06-22
1,M,Denis Pavlenko,Денис Павленко,104.6,,,,,,217.5,222.5,230,230,,,,,,,230,110,B,Raw,No,Pro Open,27,1993-03-11
2,M,Maksim Agafonov,Максим Агафонов,106.9,,,,,,180,-187.5,-187.5,180,,,,,,,180,110,B,Raw,No,Pro Open,40,1980-08-17
1,M,Maksim Agafonov,Максим Агафонов,106.9,,,,,,180,-187.5,-187.5,180,,,,,,,180,110,B,Raw,No,Pro Masters 40-49,40,1980-08-17
1,M,Sergey Pedosyuk,Сергей Педосюк,116,,,,,,125,130,132.5,132.5,,,,,,,132.5,125,B,Raw,No,Pro Masters 50-59,54,1966-07-18
1,M,Eduard Grigoryan,Эдуард Григорян,79.4,,,,,,-220,220,-235,220,,,,,,,220,82.5,B,Unlimited,Yes,Amateur Open,43,1977-05-12
1,M,Eduard Grigoryan,Эдуард Григорян,79.4,,,,,,-220,220,-235,220,,,,,,,220,82.5,B,Unlimited,Yes,Amateur Masters 40-49,43,1977-05-12
1,M,Vasiliy Leonenko,Василий Леоненко,94.1,,,,,,200,212.5,,212.5,,,,,,,212.5,100,B,Unlimited,Yes,Amateur Masters 50-59,53,1967-04-06
1,M,Lenur Kataev,Ленур Катаев,90,,,,,,260,-270,-270,260,,,,,,,260,90,B,Unlimited,No,Pro Open,25,1994-10-11
1,M,Denis Stasyuk,Денис Стасюк,90.9,,,,,,210,225,235,235,,,,,,,235,100,B,Unlimited,No,Pro Open,27,1993-05-30
1,M,Sergey Bagach,Сергей Багач,96.7,,,,,,202.5,-212.5,-215,202.5,,,,,,,202.5,100,B,Unlimited,No,Pro Masters 40-49,47,1973-05-01
1,M,Vasiliy Leonenko,Василий Леоненко,94.1,,,,,,200,212.5,,212.5,,,,,,,212.5,100,B,Unlimited,No,Pro Masters 50-59,53,1967-04-06
1,M,Artem Stasyuk,Артем Стасюк,102.35,,,,,,290,300,-310,300,,,,,,,300,110,B,Unlimited,No,Pro Open,27,1993-05-30
1,M,Ruslan Mamutov,Руслан Мамутов,81.9,,,,,,70,-72.5,72.5,72.5,,,,,,,72.5,82.5,B,Raw,No,Pro Open,27,1993-08-12
1,M,Idris Khaybullaev,Идрис Хайбуллаев,66,,,,,,,,,,,220,240,250,250,,250,67.5,D,Raw,Yes,Amateur Open,27,1993-08-23
1,M,Mikhail Kotnyshev,Михаил Котнышев,78.6,,,,,,,,,,,175,187.5,200,200,,200,82.5,D,Raw,Yes,Amateur Juniors 20-23,23,1997-03-25
1,M,Nikolay Pisarev,Николай Писарев,80.8,,,,,,,,,,,180,-190,-190,180,,180,82.5,D,Raw,Yes,Amateur Open,32,1988-06-30
1,M,Andrey Yakushev,Андрей Якушев,96,,,,,,,,,,,180,200,-210,200,,200,100,D,Raw,Yes,Amateur Teen 14-16,16,2004-07-22
1,M,Vasiliy Leonenko,Василий Леоненко,94.1,,,,,,,,,,,230,247.5,,247.5,,247.5,100,D,Raw,Yes,Amateur Open,53,1967-04-06
2,M,Nikolay Gordienko,Николай Гордиенко,94.1,,,,,,,,,,,230,240,-252.5,240,,240,100,D,Raw,Yes,Amateur Open,28,1992-01-13
1,M,Vasiliy Leonenko,Василий Леоненко,94.1,,,,,,,,,,,230,247.5,,247.5,,247.5,100,D,Raw,Yes,Amateur Masters 50-59,53,1967-04-06
1,M,Vadim Levchenko,Вадим Левченко,100.1,,,,,,,,,,,200,215,-230,215,,215,110,D,Raw,Yes,Amateur Open,20,2000-01-23
1,F,Lyudmila Khromenkova,Людмила Хроменкова,55.9,,,,,,,,,,,130,140,150,150,,150,56,D,Raw,No,Pro Open,59,1961-09-20
1,F,Anna Nikishova,Анна Никишова,67.5,,,,,,,,,,,-145,155,162.5,162.5,,162.5,67.5,D,Raw,No,Pro Open,30,1989-12-26
1,F,Aleksandra Oreshchuk,Александра Орещук,71.7,,,,,,,,,,,85,90,95,95,,95,75,D,Raw,No,Pro Open,39,1981-08-14
1,M,Daniil Chzhan,Даниил Чжан,82.5,,,,,,,,,,,150,162.5,170,170,,170,82.5,D,Raw,No,Pro Teen 14-16,16,2003-12-08
1,M,Kirill Korotich,Кирилл Коротич,89,,,,,,,,,,,220,237.5,-247.5,237.5,,237.5,90,D,Raw,No,Pro Open,23,1997-08-15
1,M,Aleksey Khromenkov,Алексей Хроменков,100,,,,,,,,,,,185,200,-215,200,,200,100,D,Raw,No,Pro Masters 60-69,62,1957-10-02
1,M,Rustem Eredzhepov,Рустем Эреджепов,107.5,,,,,,,,,,,255,265,-280,265,,265,110,D,Raw,No,Pro Open,38,1982-08-05
