Place,Sex,Name,CyrillicName,BodyweightKg,Squat1Kg,Squat2Kg,Squat3Kg,Best3SquatKg,Squat4Kg,Bench1Kg,Bench2Kg,Bench3Kg,Best3BenchKg,Bench4Kg,Deadlift1Kg,Deadlift2Kg,Deadlift3Kg,Best3DeadliftKg,Deadlift4Kg,TotalKg,WeightClassKg,Event,Equipment,Tested,Division,Age,BirthDate
1,F,Anna Martsinovskaya,Анна Марциновская,51.4,85,90,-95,90,,47.5,50,52.5,52.5,,80,87.5,90,90,,232.5,52,SBD,Raw,Yes,Amateur Open,29,1991-03-12
1,F,Elizaveta Voloshchuk,Елизавета Волощук,61.8,97.5,-105,105,105,,57.5,60,-62.5,60,,97.5,105,112.5,112.5,,277.5,67.5,SBD,Raw,Yes,Amateur Open,25,1995-07-30
1,F,Olga Shibaeva,Ольга Шибаева,74,110,115,120,120,,65,70,72.5,72.5,,120,-125,125,125,,317.5,75,SBD,Raw,Yes,Amateur Open,44,1976-06-11
1,M,Dmitriy Sheykin,Дмитрий Шейкин,55.1,115,122.5,-130,122.5,,95,-102.5,-102.5,95,,150,160,165,165,,382.5,56,SBD,Raw,Yes,Amateur Open,21,1999-05-24
1,M,Ivan Cherednichenko,Иван Чередниченко,73.4,155,165,172.5,172.5,,125,135,-140,135,,200,215,-235,215,,522.5,75,SBD,Raw,Yes,Amateur Open,25,1995-09-11
DQ,M,Anton Slepnyov,Антон Слепнёв,74.6,170,-190,-190,170,,-120,-125,-125,,,,,,,,,75,SBD,Raw,Yes,Amateur Open,26,1993-11-15
1,M,Dmitriy Lyanguzov,Дмитрий Лянгузов,80.7,190,-200,200,200,,-140,140,-150,140,,220,235,-245,235,,575,82.5,SBD,Raw,Yes,Amateur Open,31,1988-11-15
1,M,Yuriy Fisenko,Юрий Фисенко,86.5,160,172.5,-177.5,172.5,,100,110,115,115,,185,202.5,212.5,212.5,,500,90,SBD,Raw,Yes,Amateur Open,33,1987-07-19
1,M,Maksim Gorb,Максим Горб,98.4,195,210,220,220,,145,155,160,160,,270,285,-300,285,,665,100,SBD,Raw,Yes,Amateur Open,30,1990-05-23
1,M,Vladimir Avdzhyan,Владимир Авджян,109.5,-220,-240,240,240,,150,-160,160,160,,250,282.5,-290,282.5,,682.5,110,SBD,Raw,Yes,Amateur Open,27,1993-02-16
1,M,Semyon Shlyakhov,Семён Шляхов,114.9,175,190,-200,190,,115,-117.5,-120,115,,-210,210,240,240,,545,125,SBD,Raw,Yes,Amateur Juniors 20-23,23,1997-07-04
1,M,Aleksandr Cherednichenko,Александр Чередниченко,89.5,255,-262.5,262.5,262.5,,185,192.5,-197.5,192.5,,295,305,-315,305,,760,90,SBD,Raw,No,Pro Open,29,1991-02-04
1,M,Aleksey Blagodyrev,Алексей Благодырев,98.9,-230,230,-240,230,,145,160,-175,160,,265,275,-282.5,275,,665,100,SBD,Raw,No,Pro Open,29,1991-07-03
1,M,Vladimir Makarov,Владимир Макаров,93,-125,125,130,130,,85,92.5,-97.5,92.5,,150,155,-160,155,,377.5,100,SBD,Raw,No,Pro Masters 70-79,74,1946-07-25
1,M,Ilya Korsunov,Илья Корсунов,82.5,250,-270,-270,250,,135,145,-152.5,145,,250,-270,275,275,,670,82.5,SBD,Wraps,No,Pro Open,30,1990-06-27
1,M,Aleksey Proskuryakov,Алексей Проскуряков,96.1,-225,225,-240,225,,125,135,-140,135,,220,230,-250,230,,590,100,SBD,Wraps,No,Pro Open,36,1984-06-19
1,M,Aslambek Abaev,Асламбек Абаев,94.2,240,260,,260,,175,185,-192.5,185,,240,-255,,240,,685,100,SBD,Wraps,No,Pro Masters 60-69,61,1959-06-28
1,F,Margarita Cherkasova,Маргарита Черкасова,46.5,,,,,,35,37.5,40,40,,,,,,,40,48,B,Raw,Yes,Youth,12,2008-01-27
1,F,Polina Turygina,Полина Турыгина,61.3,,,,,,75,77.5,-80,77.5,,,,,,,77.5,67.5,B,Raw,Yes,Amateur Open,34,1985-10-19
1,F,Tatyana Barysheva,Татьяна Барышева,73,,,,,,45,-50,-50,45,,,,,,,45,75,B,Raw,Yes,Amateur Open,33,1986-11-10
1,M,Dmitriy Sheykin,Дмитрий Шейкин,55.1,,,,,,95,-102.5,-102.5,95,,,,,,,95,56,B,Raw,Yes,Amateur Open,21,1999-05-24
1,M,Vagan Akopyan,Ваган Акопян,72.6,,,,,,105,107.5,-110,107.5,,,,,,,107.5,75,B,Raw,Yes,Amateur Masters 40-49,41,1978-12-22
1,M,Aleksandr Podkopaev,Александр Подкопаев,81.3,,,,,,165,-170,-170,165,,,,,,,165,82.5,B,Raw,Yes,Amateur Open,24,1996-08-30
2,M,Egor Petrov,Егор Петров,79.6,,,,,,117.5,-122.5,-122.5,117.5,,,,,,,117.5,82.5,B,Raw,Yes,Amateur Open,23,1997-06-25
DQ,M,Sergey Nesterov,Сергей Нестеров,81.2,,,,,,-120,-120,-120,,,,,,,,,82.5,B,Raw,Yes,Amateur Masters 50-59,54,1966-06-03
1,M,Artem Kozyaev,Артем Козяев,88.5,,,,,,-155,155,-160,155,,,,,,,155,90,B,Raw,Yes,Amateur Juniors 20-23,23,1996-10-08
1,M,Artem Kozyaev,Артем Козяев,88.5,,,,,,-155,155,-160,155,,,,,,,155,90,B,Raw,Yes,Amateur Open,23,1996-10-08
DQ,M,Antranik Yalanuzyan,Антраник Яланузян,90,,,,,,-140,-152.5,-152.5,,,,,,,,,90,B,Raw,Yes,Amateur Open,28,1992-03-18
1,M,Sarkis Avakimyants,Саркис Авакимянц,99.4,,,,,,140,-162.5,-162.5,140,,,,,,,140,100,B,Raw,Yes,Amateur Open,27,1993-01-05
2,M,Vladislav Korunets,Владислав Корунец,95.4,,,,,,105,115,-120,115,,,,,,,115,100,B,Raw,Yes,Amateur Open,28,1992-09-01
1,M,Aleksey Bezverbnyy,Алексей Безвербный,96.4,,,,,,175,177.5,180,180,,,,,,,180,100,B,Raw,Yes,Amateur Masters 40-49,47,1973-03-18
1,M,Igor Usachev,Игорь Усачев,94.2,,,,,,130,135,-140,135,,,,,,,135,100,B,Raw,Yes,Amateur Masters 50-59,55,1965-06-06
1,M,Dzhemal Vaniev,Джемал Ваниев,87.6,,,,,,180,-185,-185,180,,,,,,,180,90,B,Raw,No,Pro Open,40,1979-12-26
2,M,Anton Bitkov,Антон Битков,88.9,,,,,,180,-185,-185,180,,,,,,,180,90,B,Raw,No,Pro Open,36,1984-05-26
1,M,Aleksey Bezverbnyy,Алексей Безвербный,96.4,,,,,,175,177.5,180,180,,,,,,,180,100,B,Raw,No,Pro Open,47,1973-03-18
2,M,Aleksandr Palyonov,Александр Палёнов,95,,,,,,-170,175,-182.5,175,,,,,,,175,100,B,Raw,No,Pro Open,33,1987-02-11
1,M,Armen Sarkisyan,Армен Саркисян,97.8,,,,,,-160,160,-170,160,,,,,,,160,100,B,Raw,No,Pro Masters 40-49,44,1976-07-08
1,M,Igor Chernikov,Игорь Черников,123.6,,,,,,215,225,,225,,,,,,,225,125,B,Raw,No,Pro Open,37,1983-06-25
2,M,Denis Sumenkov,Денис Суменков,119.2,,,,,,180,192.5,-202.5,192.5,,,,,,,192.5,125,B,Raw,No,Pro Open,38,1982-05-19
1,M,Anton Makarov,Антон Макаров,125.3,,,,,,182.5,190,-200,190,,,,,,,190,140,B,Raw,No,Pro Open,31,1989-05-09
1,M,Ilya Fomin,Илья Фомин,143.1,,,,,,180,-190,200,200,,,,,,,200,140+,B,Raw,No,Pro Open,26,1994-08-04
1,F,Diana Kuzmenko,Диана Кузьменко,55.9,,,,,,,,,,,80,87.5,-97.5,87.5,,87.5,56,D,Raw,Yes,Amateur Open,30,1990-04-24
1,F,Tatyana Barysheva,Татьяна Барышева,73,,,,,,,,,,,120,125,130,130,,130,75,D,Raw,Yes,Amateur Open,33,1986-11-10
1,M,Dmitriy Sheykin,Дмитрий Шейкин,55.1,,,,,,,,,,,150,160,165,165,,165,56,D,Raw,Yes,Amateur Open,21,1999-05-24
1,M,Anton Slepnyov,Антон Слепнёв,74.6,,,,,,,,,,,200,210,225,225,,225,75,D,Raw,Yes,Amateur Open,26,1993-11-15
2,M,Viktor Mayorov,Виктор Маёров,72.4,,,,,,,,,,,190,-207.5,207.5,207.5,,207.5,75,D,Raw,Yes,Amateur Open,22,1998-08-27
1,M,Dmitriy Lyanguzov,Дмитрий Лянгузов,80.7,,,,,,,,,,,220,235,-245,235,,235,82.5,D,Raw,Yes,Amateur Open,31,1988-11-15
2,M,Nikolay Krysko,Николай Крысько,82.3,,,,,,,,,,,215,227.5,235,235,,235,82.5,D,Raw,Yes,Amateur Open,29,1991-07-27
3,M,Dmitriy Pershin,Дмитрий Першин,79.9,,,,,,,,,,,190,-202.5,-207.5,190,,190,82.5,D,Raw,Yes,Amateur Open,31,1988-12-07
1,M,Sergey Arkaniya,Сергей Аркания,89.2,,,,,,,,,,,210,230,-240,230,,230,90,D,Raw,Yes,Amateur Open,30,1989-10-17
1,M,Igor Usachev,Игорь Усачев,94.2,,,,,,,,,,,210,220,-230,220,,220,100,D,Raw,Yes,Amateur Open,55,1965-06-06
1,M,Igor Usachev,Игорь Усачев,94.2,,,,,,,,,,,210,220,-230,220,,220,100,D,Raw,Yes,Amateur Masters 50-59,55,1965-06-06
1,M,Vladimir Avdzhyan,Владимир Авджян,109.5,,,,,,,,,,,250,282.5,-290,282.5,,282.5,110,D,Raw,Yes,Amateur Open,27,1993-02-16
1,M,Aleksandr Cherednichenko,Александр Чередниченко,89.5,,,,,,,,,,,295,305,-315,305,,305,90,D,Raw,No,Pro Open,29,1991-02-04
1,M,Aleksandr Ilyutkin,Александр Илюткин,94.5,,,,,,,,,,,325,345,-360,345,,345,100,D,Raw,No,Pro Open,27,1993-02-03
1,M,Aleksandr Medvedev,Александр Медведев,98.7,,,,,,,,,,,245,255,265,265,,265,100,D,Raw,No,Pro Masters 50-59,53,1967-01-19
