Division,WeightClassKg,Place,Name,Team,BodyweightKg,Best3SquatKg,Best3BenchKg,Best3DeadliftKg,TotalKg,Equipment,Event,Sex
Girls,44.23,1,Mari Lopez,Corpus Christi West Oso,41.37,113.4,49.9,127.01,290.3,Single-ply,SBD,F
Girls,44.23,2,Alexis Herrera,Alice,39.96,108.86,45.36,102.06,256.28,Single-ply,SBD,F
Girls,44.23,DQ,Leanna Rodriguez,Alice,43.91,,,,,Single-ply,SBD,F
Girls,44.23,DQ,Alexis Benavides,Alice,44.04,,,,,Single-ply,SBD,F
Girls,47.85,1,Bri Hernandez,Corpus Christi West Oso,47.45,124.74,65.77,124.74,315.25,Single-ply,SBD,F
Girls,47.85,2,Mariah Alaniz,Freer,47.26,117.93,52.16,117.93,288.03,Single-ply,SBD,F
Girls,47.85,3,Alyssa Canales #1,Corpus Christi West Oso,47.08,108.86,54.43,113.4,276.69,Single-ply,SBD,F
Girls,47.85,4,Mia Macias,Alice,46.81,108.86,52.16,111.13,272.16,Single-ply,SBD,F
Girls,47.85,5,Ayssa Hinojosa,Hebbronville,47.54,90.72,36.29,111.13,238.14,Single-ply,SBD,F
Girls,47.85,6,Kaitlyn Gonzalez,Robstown,44.91,68.04,43.09,102.06,213.19,Single-ply,SBD,F
Girls,47.85,7,Emma Garza,Freer,45.27,77.11,36.29,79.38,192.78,Single-ply,SBD,F
Girls,47.85,DQ,Jamie Nail,Beeville Jones,46.99,106.59,47.63,,,Single-ply,SBD,F
Girls,47.85,DQ,Savanna Sanchez,Benavides,46.72,,,,,Single-ply,SBD,F
Girls,51.94,1,Mya Estrada,Beeville Jones,48.72,113.4,58.97,127.01,299.37,Single-ply,SBD,F
Girls,51.94,2,Mireya Cantu,Hebbronville,51.94,115.67,56.7,106.59,278.96,Single-ply,SBD,F
Girls,51.94,3,Dashae Atkinson,Hebbronville,51.44,99.79,52.16,106.59,258.55,Single-ply,SBD,F
Girls,51.94,4,Alisha Flores,Beeville Jones,50.26,104.33,43.09,97.52,244.94,Single-ply,SBD,F
Girls,51.94,5,Bethany Dorantes,Corpus Christi West Oso,51.53,88.45,36.29,104.33,229.06,Single-ply,SBD,F
Girls,51.94,6,Katie Martinez,Corpus Christi London,49.99,83.91,31.75,95.25,210.92,Single-ply,SBD,F
Girls,51.94,DQ,Miranda Lopez,Alice,51.35,95.25,,,,Single-ply,SBD,F
Girls,51.94,DQ,Ashley Arroyo,Alice,51.62,83.91,,,,Single-ply,SBD,F
Girls,56.02,1,Carolina Flores,Hebbronville,55.52,122.47,63.5,133.81,319.78,Single-ply,SBD,F
Girls,56.02,2,Madison Salinas,Hebbronville,56.02,117.93,61.23,124.74,303.91,Single-ply,SBD,F
Girls,56.02,3,Lauren Garza,Freer,53.52,106.59,54.43,111.13,272.16,Single-ply,SBD,F
Girls,56.02,4,Amberlynn Ortega,Agua Dulce,55.97,117.93,47.63,102.06,267.62,Single-ply,SBD,F
Girls,56.02,5,Noemi Ruiz,Alice,55.02,92.99,45.36,108.86,247.21,Single-ply,SBD,F
Girls,56.02,6,Daniela Aguilar,Hebbronville,54.61,104.33,49.9,90.72,244.94,Single-ply,SBD,F
Girls,56.02,7,Melina Vela,Alice,54.61,88.45,45.36,92.99,226.8,Single-ply,SBD,F
Girls,56.02,8,Cheyenne Clarke,Freer,54.88,79.38,38.56,88.45,206.38,Single-ply,SBD,F
Girls,56.02,9,Kyla Beard,Corpus Christi London,55.61,65.77,29.48,81.65,176.9,Single-ply,SBD,F
Girls,56.02,10,Hailey Bueno,Banquete,55.88,61.23,31.75,79.38,172.37,Single-ply,SBD,F
Girls,56.02,11,Zoey Diaz,Robstown,52.34,56.7,31.75,70.31,158.76,Single-ply,SBD,F
Girls,56.02,DQ,Heather Rios,Corpus Christi London,53.52,,,,,Single-ply,SBD,F
Girls,60.1,1,Sadie Salazar,Beeville Jones,58.42,131.54,58.97,120.2,310.71,Single-ply,SBD,F
Girls,60.1,2,Christi'ani Ybarra,Beeville Jones,60.06,122.47,58.97,127.01,308.44,Single-ply,SBD,F
Girls,60.1,3,Evelyn Guerra,Benavides,58.97,104.33,47.63,113.4,265.35,Single-ply,SBD,F
Girls,60.1,4,Lauren Cortez,Beeville Jones,59.15,97.52,56.7,104.33,258.55,Single-ply,SBD,F
Girls,60.1,5,Rebecca Sanchez,Robstown,58.6,90.72,43.09,95.25,229.06,Single-ply,SBD,F
Girls,60.1,6,Kirstyn Garza,Agua Dulce,56.97,86.18,31.75,102.06,219.99,Single-ply,SBD,F
Girls,60.1,7,Abbryell Garcia,Agua Dulce,57.97,90.72,36.29,74.84,201.85,Single-ply,SBD,F
Girls,60.1,8,Savanah Diaz,Three Rivers,58.42,61.23,31.75,70.31,163.29,Single-ply,SBD,F
Girls,60.1,DQ,Jordan Wilkins,Beeville Jones,59.42,63.5,,,,Single-ply,SBD,F
Girls,60.1,DQ,McKenzie O'Neal,Corpus Christi London,59.69,113.4,,,,Single-ply,SBD,F
Girls,67.36,1,Gabby Canales,Alice,66.36,167.83,83.91,172.37,424.11,Single-ply,SBD,F
Girls,67.36,2,Cassandra Rangel,Corpus Christi West Oso,66.13,138.35,70.31,140.61,349.27,Single-ply,SBD,F
Girls,67.36,3,Jolynn Moreno,Hebbronville,66.22,142.88,70.31,124.74,337.93,Single-ply,SBD,F
Girls,67.36,4,Makayla Markham,Alice,67.22,129.27,70.31,122.47,322.05,Single-ply,SBD,F
Girls,67.36,5,Sarina Trevino,Corpus Christi West Oso,66.22,113.4,58.97,127.01,299.37,Single-ply,SBD,F
Girls,67.36,6,Olivia Ortega,Falfurrias,65.14,120.2,52.16,120.2,292.57,Single-ply,SBD,F
Girls,67.36,7,Sadie Lopez,Corpus Christi West Oso,66.5,104.33,47.63,113.4,265.35,Single-ply,SBD,F
Girls,67.36,8,Maddie Lopez,Hebbronville,63.05,99.79,47.63,113.4,260.82,Single-ply,SBD,F
Girls,67.36,9,Aylin Navarro,Ben Bolt-Palito Blanco,65.32,88.45,47.63,111.13,247.21,Single-ply,SBD,F
Girls,67.36,10,Grace Johnston,Corpus Christi London,62.87,61.23,27.22,81.65,170.1,Single-ply,SBD,F
Girls,67.36,DQ,Victoria Lasos,Alice,65.95,,,,,Single-ply,SBD,F
Girls,75.07,1,Desiree Gonzales,Beeville Jones,74.84,142.88,79.38,151.95,374.21,Single-ply,SBD,F
Girls,75.07,2,Tori Contreras,Beeville Jones,73.66,147.42,70.31,149.69,367.41,Single-ply,SBD,F
Girls,75.07,3,Kendall Straube,Three Rivers,70.49,142.88,68.04,142.88,353.8,Single-ply,SBD,F
Girls,75.07,4,Allyson Rangel,Freer,74.12,151.95,58.97,142.88,353.8,Single-ply,SBD,F
Girls,75.07,5,Soledad Cuellar,Beeville Jones,74.39,99.79,54.43,106.59,260.82,Single-ply,SBD,F
Girls,75.07,6,Analeigha Salinas,Freer,74.48,86.18,52.16,86.18,224.53,Single-ply,SBD,F
Girls,75.07,7,Kassi Ramon,Banquete,68.67,90.72,40.82,86.18,217.72,Single-ply,SBD,F
Girls,75.07,DQ,Megan Brest,Agua Dulce,73.21,,,,,Single-ply,SBD,F
Girls,75.07,DQ,Ashley Vargas,Corpus Christi West Oso,73.94,,,,,Single-ply,SBD,F
Girls,75.07,DQ,Amberly Vasquez,Alice,72.17,,,,,Single-ply,SBD,F
Girls,75.07,DQ,Kellie Martinez,Freer,75.02,,,,,Single-ply,SBD,F
Girls,82.33,1,Jackie Guerra,Alice,81.33,185.97,83.91,172.37,442.25,Single-ply,SBD,F
Girls,82.33,2,Brittney Stafford,Hebbronville,82.33,154.22,86.18,136.08,376.48,Single-ply,SBD,F
Girls,82.33,3,Clariza Moreno,Freer,79.2,133.81,58.97,138.35,331.12,Single-ply,SBD,F
Girls,82.33,4,Briana Leal,Freer,82.19,129.27,65.77,122.47,317.51,Single-ply,SBD,F
Girls,82.33,5,Melissa Almaraz,Alice,78.56,106.59,49.9,111.13,267.62,Single-ply,SBD,F
Girls,82.33,6,Zoe Urrea,Banquete,76.38,97.52,49.9,117.93,265.35,Single-ply,SBD,F
Girls,82.33,7,Gabby Moreno,Freer,78.47,72.57,38.56,108.86,219.99,Single-ply,SBD,F
Girls,82.33,8,Aleis Estringel,Alice,81.33,170.1,,,170.1,Single-ply,S,F
Girls,82.33,DQ,Lauryn Botello,Beeville Jones,82.28,176.9,,,,Single-ply,SBD,F
Girls,82.33,DQ,Karina Avila,Hebbronville,76.93,,,,,Single-ply,SBD,F
Girls,90.04,1,Rianna Gonzalez,Alice,88.99,104.33,65.77,113.4,283.5,Single-ply,SBD,F
Girls,90.04,DQ,Gabby Gomez,Agua Dulce,84.1,113.4,,,,Single-ply,SBD,F
Girls,100.02,1,Sierra Caro,Falfurrias,97.98,174.63,83.91,151.95,410.5,Single-ply,SBD,F
Girls,100.02,2,Jackie Salazar,Ben Bolt-Palito Blanco,97.79,154.22,56.7,142.88,353.8,Single-ply,SBD,F
Girls,100.02,3,Jalynn Rodriguez,Ben Bolt-Palito Blanco,94.71,102.06,47.63,127.01,276.69,Single-ply,SBD,F
Girls,100.02,4,Aislinn Gonzalez,Alice,97.2,115.67,52.16,97.52,265.35,Single-ply,SBD,F
Girls,117.71,1,Amber Ramirez,Beeville Jones,101.33,183.7,124.74,156.49,464.93,Single-ply,SBD,F
Girls,117.71,2,Marissa Garcia,Alice,103.6,149.69,58.97,147.42,356.07,Single-ply,SBD,F
Girls,117.71,3,Mykayla Stehle,Ben Bolt-Palito Blanco,104.42,136.08,83.91,131.54,351.53,Single-ply,SBD,F
Girls,117.71,4,Jodi Linscomb,Freer,107.23,131.54,54.43,129.27,315.25,Single-ply,SBD,F
Girls,117.71,5,Kendra Garcia,Three Rivers,111.4,117.93,61.23,117.93,297.1,Single-ply,SBD,F
Girls,117.71,6,Davae Martinez,Corpus Christi West Oso,108.86,108.86,52.16,122.47,283.5,Single-ply,SBD,F
Girls,117.71,DQ,Jovanna Guzman,Benavides,107.77,113.4,,,,Single-ply,SBD,F
Girls,117.71+,1,Shania Zapata,Benavides,122.11,145.15,63.5,133.81,342.46,Single-ply,SBD,F
Girls,117.71+,2,Aleese Adams,Ben Bolt-Palito Blanco,122.92,83.91,45.36,97.52,226.8,Single-ply,SBD,F
Girls,,NS,Taylor Espinoza,Corpus Christi London,,,,,,Single-ply,SBD,F
Girls,,NS,Aylin Saenz,Falfurrias,,,,,,Single-ply,SBD,F
Girls,,NS,Gabby Garcia,Corpus Christi London,,,,,,Single-ply,SBD,F
Girls,,NS,Arianna Falfan,Corpus Christi West Oso,,,,,,Single-ply,SBD,F
Girls,,NS,Marina Ramirez,Agua Dulce,,,,,,Single-ply,SBD,F
Girls,,NS,Jamie Colle,Agua Dulce,,,,,,Single-ply,SBD,F
Girls,,NS,Marissa Flores,Agua Dulce,,,,,,Single-ply,SBD,F
Girls,,NS,Ysabella Munoz,Alice,,,,,,Single-ply,SBD,F
Girls,,NS,Zoe Garza,Alice,,,,,,Single-ply,SBD,F
Girls,,NS,Destiny Orona,Banquete,,,,,,Single-ply,SBD,F
Girls,,NS,Julie Sepulveda,Alice,,,,,,Single-ply,SBD,F
Girls,,NS,Miranda Zuniga,Robstown,,,,,,Single-ply,SBD,F
Girls,,NS,Nyelli Garza,Hebbronville,,,,,,Single-ply,SBD,F
