Place,Name,Division,BirthYear,Country,BodyweightKg,Bench1Kg,Bench2Kg,Bench3Kg,Best3BenchKg,Bench4Kg,WeightClassKg,Sex,CyrillicName,Event,TotalKg,Equipment
1,Olena Burnat,T1,1994,Ukraine,51,,45,50,50,,52,F,Олена Бурнат,B,50,Raw
2,Tatyana Nimirovskaya,J,1985,Ukraine,50.2,20,-25,-25,20,,52,F,Татьяна Нимировская,B,20,Raw
1,Viktoriya Ataeva,M1,1965,Ukraine,59.7,60,65,70,70,,60,F,Вікторія Атаєва,B,70,Raw
4,Yuliya Diordiyeva,J,1986,Ukraine,64.5,60,-67.5,-67.5,60,,67.5,F,Юлія Діордієва,B,60,Raw
2,Olesya Grinenko,O,1980,Ukraine,65.2,75,80,85,85,87.5,67.5,F,Олеся Гриненко,B,85,Raw
3,Liliya Venglovskaya,O,1979,Moldova,65.9,80,-87.5,-87.5,80,,67.5,F,,B,80,Raw
1,Maryna Khristoforova,M1,1966,Ukraine,66.1,87.5,90,92.5,92.5,95,67.5,F,Марина Христофорова,B,92.5,Raw
1,Evgeniy Belyy,T1,1993,Ukraine,51.9,60,65,70,70,,52,M,,B,70,Raw
1,Denys Dyadchenko,T3,1990,Ukraine,53.3,80,90,92.5,92.5,,56,M,Денис Дядченко,B,92.5,Raw
1,Eduard Chernat,T3,1989,,58.5,100,115,120,120,,60,M,,B,120,Raw
2,Kyrylo Pidgorodetskyy,T2,1991,Ukraine,64.62,75,80,85,85,,67.5,M,Кирило Підгородецький,B,85,Raw
1,Sergiy Stanev,O,1976,Ukraine,65.8,110,115,120,120,125.5,67.5,M,Сергій Станєв,B,120,Raw
3,Dmitriy Guliy,O,1978,Ukraine,63,40,45,50,50,,67.5,M,Дмитрий Гулий,B,50,Raw
5,Nikita Nedostup,T1,1994,Ukraine,70.94,40,45,-50,45,,75,M,Никита Недоступ,B,45,Raw
3,Roman Devishek,T3,1989,Ukraine,71.6,90,-100,-107.5,90,,75,M,Роман Девишек,B,90,Raw
4,Kostyantyn Pidgorodetskyy,T3,1989,Ukraine,73,80,85,-92.5,85,,75,M,Костянтин Підгородецький,B,85,Raw
2,Arkadiy Shevchuk,J,1987,Ukraine,70.9,110,-112.5,-112.5,110,,75,M,Аркадий Шевчук,B,110,Raw
1,Roman Zuzuk,O,1971,Ukraine,71.76,170,180,187.5,187.5,190,75,M,Роман Зузук,B,187.5,Raw
3,Taras Redka,J,1986,,81.6,125,135,142.5,142.5,,82.5,M,Тарас Редька,B,142.5,Raw
4,Aleksandr Neboga,J,1985,Ukraine,81.9,-115,125,127.5,127.5,,82.5,M,Александр Небога,B,127.5,Raw
5,Aleksandr Borisenko,J,1988,Ukraine,78.5,80,85,-90,85,,82.5,M,Александр Борисенко,B,85,Raw
2,Aleksandr Soborov,O,1984,,82.5,140,160,-170,160,,82.5,M,,B,160,Raw
1,Aleksandr Scherbakov,M1,1966,,82.5,175,190,-200,190,,82.5,M,,B,190,Raw
2,Roman Stefanchishen,J,1987,Ukraine,89.3,170,180,190,190,,90,M,Роман Стефанчишен,B,190,Raw
1,Nikolay Sanin,O,1983,Ukraine,89.4,190,200,207.5,207.5,,90,M,Микола Санін,B,207.5,Raw
4,Kostyantyn Chunikhovskyy,J,1987,Ukraine,95.9,160,170,-180,170,,100,M,Костянтин Чуніховський,B,170,Raw
5,Yevgen Godyna,J,1987,Ukraine,96,150,160,170,170,,100,M,Євген Година,B,170,Raw
9,Sergiy Zvyagin,J,1985,Ukraine,94.9,115,,,115,,100,M,Сергій Звягін,B,115,Raw
1,Sergiy Polutin,O,1975,Ukraine,99.5,210,222.5,230,230,,100,M,Сергій Полутін,B,230,Raw
2,Andrey Kisel,O,1975,Ukraine,98.2,220,225,227.5,227.5,,100,M,Андрей Кисель,B,227.5,Raw
3,Vitaliy Burnat,O,1974,Ukraine,98,185,-187.5,-187.5,185,,100,M,Віталій Бурнат,B,185,Raw
6,Oleg Plashkov,O,1980,Ukraine,96.2,150,155,160,160,,100,M,Олег Плашков,B,160,Raw
7,Oleksiy Myroshnychenko,O,1985,Ukraine,96.1,135,140,145,145,,100,M,Олексій Мирошниченко,B,145,Raw
8,Andriy Bakhchivandzhi,O,1984,Ukraine,98.86,140,145,-152.5,145,,100,M,Андрій Бахчіванджі,B,145,Raw
10,Andrey Kravtsov,O,1982,Ukraine,96.9,60,-75,75,75,,100,M,Андрей Кравцов,B,75,Raw
5,Stanislav Smolyanyk,T3,1989,Ukraine,106.84,-180,180,,180,,110,M,Станіслав Смоляник,B,180,Raw
2,Petro Onishchuk,J,1988,Ukraine,110,200,212.5,222.5,222.5,,110,M,Петро Онищук,B,222.5,Raw
6,Roman Gontar,J,1985,Ukraine,101.3,70,75,80,80,,110,M,Роман Гонтарь,B,80,Raw
1,Oleksiy Solovyov,O,1975,Ukraine,104.4,240,250,-255,250,,110,M,Олексій Соловйов,B,250,Raw
3,Andrey Luchkov,M1,1965,Russia,109.6,202.5,212.5,220,220,,110,M,Андрей Лучков,B,220,Raw
4,Yuriy Romanivskiy,M1,1964,Ukraine,106.54,160,175,185,185,,110,M,Юрий Романивский,B,185,Raw
1,Dmitriy Kasatov,O,1977,Russia,120.5,242.5,252.5,280,280,,125,M,Дмитрий Касатов,B,280,Raw
2,Sergiy Karnaukhov,O,1978,Ukraine,123.48,230,242.5,-250,242.5,,125,M,Сергій Карнаухов,B,242.5,Raw
3,Mykola Koltakov,O,1983,Ukraine,119.64,220,232.5,-242.5,232.5,,125,M,Микола Колтаков,B,232.5,Raw
4,Oleg Dolzhenko,O,1973,Ukraine,115.8,200,210,-220,210,,125,M,Олег Долженко,B,210,Raw
1,Aleksandr Snisarenko,O,1975,Ukraine,126.6,200,215,222.5,222.5,,140,M,Александр Снисаренко,B,222.5,Raw
2,Sergiy Veselovskiy,M1,1967,Ukraine,139.1,200,210,220,220,,140,M,Сергій Веселовський,B,220,Raw
3,Andrey Galtsov,M1,1965,Russia,126.8,180,200,,200,,140,M,Андрей Гальцов,B,200,Raw
1,Aleksey Lisogor,O,1986,Ukraine,151.32,190,201,,201,,140+,M,Алексей Лисогор,B,201,Raw
1,Lyudmyla Bobchenko,O,1979,Ukraine,58.9,151,157.5,162.5,162.5,-165,60,F,Людмила Бобченко,B,162.5,Multi-ply
3,Yuliya Diordiyeva,J,1986,Ukraine,64.5,55,60,65,65,,67.5,F,Юлія Діордієва,B,65,Multi-ply
1,Liliya Venglovskaya,O,1979,Moldova,65.9,110,120,,120,,67.5,F,,B,120,Multi-ply
2,Olesya Grinenko,O,1980,Ukraine,65.2,80,-85,90,90,,67.5,F,Олеся Гриненко,B,90,Multi-ply
1,Evgeniy Belyy,T1,1993,Ukraine,51.9,60,65,70,70,,52,M,,B,70,Multi-ply
2,Olexiy Gornyy,T2,1992,Ukraine,54.9,80,90,-92.5,90,,56,M,Олексій Горний,B,90,Multi-ply
1,Denys Dyadchenko,T3,1990,Ukraine,53.3,90,105,-110,105,,56,M,Денис Дядченко,B,105,Multi-ply
1,Oleksandr Kovalenko,O,1983,Ukraine,64.78,-150,150,160,160,,67.5,M,Олександр Коваленко,B,160,Multi-ply
2,Svyatoslav Ogrenchuk,O,1978,Ukraine,67.3,155,160,-165,160,,67.5,M,Святослав Огренчук,B,160,Multi-ply
3,Sergiy Stanev,O,1976,Ukraine,65.8,-132.5,132.5,-140,132.5,,67.5,M,Сергій Станєв,B,132.5,Multi-ply
3,Anton Kudryashov,J,1986,Ukraine,71.6,170,180,190,190,,75,M,Антон Кудряшов,B,190,Multi-ply
4,Igor Ivanov #2,J,1985,Ukraine,73.2,130,140,147.5,147.5,,75,M,Ігор Іванов,B,147.5,Multi-ply
1,Roman Zuzuk,O,1971,Ukraine,71.76,220,230,-240,230,,75,M,Роман Зузук,B,230,Multi-ply
2,Dmytro Solovyov,O,1970,Ukraine,74.95,200,210,-220,210,,75,M,Дмитро Соловйов,B,210,Multi-ply
2,Yevgen Fomin,J,1988,Ukraine,81.4,160,172.5,180,180,,82.5,M,Євген Фомін,B,180,Multi-ply
4,Roman Plakhotnyuk,J,1986,Ukraine,76.3,-160,160,170,170,,82.5,M,Роман Плахотнюк,B,170,Multi-ply
1,Aleksandr Soborov,O,1984,,82.5,200,-220,-220,200,,82.5,M,,B,200,Multi-ply
3,Volodymyr Starchenko,O,1975,Ukraine,82.12,175,-180,-182.5,175,,82.5,M,Володимир Старченко,B,175,Multi-ply
4,Oleksandr Dorgobuzov,J,1988,Ukraine,88.68,251,-265,-270,251,,90,M,Олександр Доргобузов,B,251,Multi-ply
1,Sergiy Naleykin,O,1981,Ukraine,89.35,305,312.5,,312.5,,90,M,Сергій Налейкін,B,312.5,Multi-ply
2,Nikolay Sanin,O,1983,Ukraine,89.4,250,260,-267.5,260,,90,M,Микола Санін,B,260,Multi-ply
3,Oleksiy Ivchenko,O,1980,Ukraine,89.5,250,260,-267.5,260,,90,M,Олексій Івченко,B,260,Multi-ply
2,Oleksandr Kucher,J,1985,Ukraine,93.94,240,250,-252.5,250,,100,M,Олександр Кучер,B,250,Multi-ply
3,Anton Khramov,J,1986,Ukraine,95,200,210,-220,210,,100,M,Антон Храмов,B,210,Multi-ply
4,Sergiy Zvyagin,J,1985,Ukraine,94.9,135,-140,-140,135,,100,M,Сергій Звягін,B,135,Multi-ply
1,Sergiy Polutin,O,1975,Ukraine,99.5,270,-280,,270,,100,M,Сергій Полутін,B,270,Multi-ply
3,Denys Kovalyov,O,1978,Ukraine,95.36,-180,180,190,190,,100,M,Денис Ковальов,B,190,Multi-ply
1,Yevgen Savchenko,T3,1989,Ukraine,101.5,220,230,235,235,,110,M,Євген Савченко,B,235,Multi-ply
3,Stanislav Smolyanyk,T3,1989,Ukraine,106.84,200,215,-220,215,,110,M,Станіслав Смоляник,B,215,Multi-ply
4,Sergiy Oliynyk,J,1987,Ukraine,106.6,210,-230,-230,210,,110,M,Сергій Олійник,B,210,Multi-ply
2,Oleksandr Blagovidov,O,1971,Ukraine,109.6,200,215,230,230,,110,M,Олександр Благовидов,B,230,Multi-ply
5,Yevgen Golovchenko,M5,1946,Ukraine,109.3,140,-150,150,150,,110,M,Євген Головченко,B,150,Multi-ply
3,Valeriy Scherbina,J,1985,Ukraine,115,271,280,285,285,,125,M,Валерій Щербина,B,285,Multi-ply
1,Vitaliy Chorniy,O,1984,Ukraine,120.44,320,-331,-331,320,,125,M,Віталій Чорний,B,320,Multi-ply
2,Mykola Koltakov,O,1983,Ukraine,119.64,280,300,-320,300,,125,M,Микола Колтаков,B,300,Multi-ply
4,Fedir Verboviy,O,1973,Ukraine,111.74,-260,-265,265,265,,125,M,Федір Вербовий,B,265,Multi-ply
1,Oleksandr Gonchar,O,1978,Ukraine,128.25,330,340,350,350,,140,M,Олександр Гончар,B,350,Multi-ply
3,Aleksandr Snisarenko,O,1975,Ukraine,126.6,225,240,250,250,,140,M,Александр Снисаренко,B,250,Multi-ply
2,Sergiy Veselovskiy,M1,1967,Ukraine,139.1,240,250,260,260,,140,M,Сергій Веселовський,B,260,Multi-ply
1,Aleksey Lisogor,J,1986,Ukraine,151.32,240,-280,-285,240,,140+,M,Алексей Лисогор,B,240,Multi-ply
