Place,Name,BirthYear,Country,BodyweightKg,Squat1Kg,Squat2Kg,Squat3Kg,Best3SquatKg,Bench1Kg,Bench2Kg,Bench3Kg,Best3BenchKg,Deadlift1Kg,Deadlift2Kg,Deadlift3Kg,Best3DeadliftKg,TotalKg,WeightClassKg,Sex,CyrillicName,Event,Equipment,Division
1,Natalia I,1978,Russia,44,140,-145,-145,140,65,70,75,75,-140,140,-150,140,355,44,F,Наталья И,SBD,Single-ply,Juniors
2,Vera Kokhanchik,1986,Russia,44,102.5,107.5,112.5,112.5,50,55,57.5,57.5,97.5,-102.5,102.5,102.5,272.5,44,F,Вера Коханчик,SBD,Single-ply,Juniors
3,Svetlana Shulzhenko,1980,Russia,44,75,-80,80,80,40,45,50,50,100,110,-142.5,110,240,44,F,Светлана Шульженко,SBD,Single-ply,Juniors
1,Natalya Shapovalova,1983,Russia,47.74,140,150,160,160,70,75,80,80,-160,160,170,170,410,48,F,Наталья Шаповалова,SBD,Single-ply,Juniors
2,Natalya Tokareva,1984,Russia,47.54,130,137.5,140,140,55,60,-62.5,60,120,127.5,130,130,330,48,F,Наталья Токарева,SBD,Single-ply,Juniors
3,Natalya Mazilova,1986,Russia,48,-115,122.5,127.5,127.5,55,-60,-60,55,120,130,135,135,317.5,48,F,Наталья Мазилова,SBD,Single-ply,Juniors
4,Olga Nikolaeva,1982,Russia,48,110,120,-122.5,120,60,67.5,-70,67.5,115,125,130,130,317.5,48,F,Ольга Николаева,SBD,Single-ply,Juniors
5,Ekaterina Glinkina,1984,Russia,48,-110,110,-125,110,55,-60,-60,55,107.5,115,,115,280,48,F,Екатерина Глинкина,SBD,Single-ply,Juniors
6,Yana Mironova,1984,Russia,47.44,100,110,-120,110,-40,40,-45,40,95,105,110,110,260,48,F,Яна Миронова,SBD,Single-ply,Juniors
7,Asiya Abdulova,1981,Russia,47.36,90,-100,-100,90,37.5,40,-42.5,40,100,107.5,112.5,112.5,242.5,48,F,Асия Абдулова,SBD,Single-ply,Juniors
1,Svetlana Nikolaenko,1981,Russia,50.5,170,177.5,183,183,100,107.5,110.5,110.5,155,-165,170,170,463.5,52,F,Светлана Николаенко,SBD,Single-ply,Juniors
2,Olga Oparina,1979,Russia,51.28,125,-135,135,135,67.5,72.5,-75,72.5,130,137.5,142.5,142.5,350,52,F,Ольга Опарина,SBD,Single-ply,Juniors
3,Evgeniya Temnyakova,1980,Russia,52,122.5,-127.5,-127.5,122.5,80,-85,-85,80,115,120,-122.5,120,322.5,52,F,Евгения Темнякова,SBD,Single-ply,Juniors
4,Elena Terskova,1978,Russia,50.5,110,117.5,-120,117.5,57.5,62.5,-65,62.5,122.5,137.5,-142.5,137.5,317.5,52,F,Елена Терскова,SBD,Single-ply,Juniors
5,Anastasiya Abasova,1984,Russia,51.06,100,-120,130,130,50,60,-65,60,-110,110,120,120,310,52,F,Анастасия Абасова,SBD,Single-ply,Juniors
6,Elena Yarygina,1981,Russia,52,105,115,-117.5,115,-67.5,-67.5,67.5,67.5,105,115,-125,115,297.5,52,F,Елена Ярыгина,SBD,Single-ply,Juniors
7,Tatyana Taushkanova,1985,Russia,51.48,110,120,-125,120,-47.5,50,-55,50,110,120,125,125,295,52,F,Татьяна Таушканова,SBD,Single-ply,Juniors
8,Kseniya Zaripova,1984,Russia,51.2,100,110,-125,110,-50,50,-55,50,120,130,-140,130,290,52,F,Ксения Зарипова,SBD,Single-ply,Juniors
9,Valentina Fefelova,1983,Russia,52,100,107.5,-112.5,107.5,52.5,57.5,-62.5,57.5,105,115,-125,115,280,52,F,Валентина Фефелова,SBD,Single-ply,Juniors
10,Nadezhda Kalmykova,1978,Russia,51.42,90,95,-100,95,50,-52.5,52.5,52.5,125,130,-135,130,277.5,52,F,Надежда Калмыкова,SBD,Single-ply,Juniors
11,Tatyana Akimova,1980,Russia,51.54,90,95,-97.5,95,52.5,57.5,60,60,120,-127.5,-127.5,120,275,52,F,Татьяна Акимова,SBD,Single-ply,Juniors
12,Larisa Pogolitsina,1981,Russia,52,95,102.5,107.5,107.5,52.5,-57.5,-57.5,52.5,110,-120,-120,110,270,52,F,Лариса Поголицина,SBD,Single-ply,Juniors
1,Anzhelika Smirnova,1982,Russia,52.15,155,162.5,-170,162.5,70,77.5,82.5,82.5,150,165,167.5,167.5,412.5,56,F,Анжелика Смирнова,SBD,Single-ply,Juniors
2,Anna Lobanova,1980,Russia,53.3,160,170,172.5,172.5,75,80,-85,80,150,-157.5,-160,150,402.5,56,F,Анна Лобанова,SBD,Single-ply,Juniors
3,Natalya Igosheva,1981,Russia,56,137.5,147.5,155,155,82.5,90,92.5,92.5,135,145,150,150,397.5,56,F,Наталья Игошева,SBD,Single-ply,Juniors
4,Irina Poletaeva,1982,Russia,55.5,135,142.5,150,150,92.5,-97.5,97.5,97.5,140,147.5,-150,147.5,395,56,F,Ирина Полетаева,SBD,Single-ply,Juniors
5,Vera Kholyavina,1984,Russia,56,160,-170,,160,80,90,-95,90,135,-142.5,145,145,395,56,F,Вера Холявина,SBD,Single-ply,Juniors
6,Tatyana Kovalenko,1982,Russia,56,150,160,-165,160,80,-85,-85,80,145,-150,-150,145,385,56,F,Татьяна Коваленко,SBD,Single-ply,Juniors
7,Olga Belyaeva,1981,Russia,56,142.5,152.5,-157.5,152.5,70,75,77.5,77.5,140,150,155,155,385,56,F,Ольга Беляева,SBD,Single-ply,Juniors
8,Kira Pavlovskaya,1983,Russia,52.2,135,145,150,150,80,-82.5,-85,80,150,-160,-165,150,380,56,F,Кира Павловская,SBD,Single-ply,Juniors
9,Irina Kryukova,1979,Russia,52.05,-140,140,-150,140,-80,80,-90,80,130,-140,,130,350,56,F,Ирина Крюкова,SBD,Single-ply,Juniors
10,Alena Ryzhkova,1979,Russia,56,117.5,-125,-125,117.5,62.5,-70,70,70,120,-122.5,-132.5,120,307.5,56,F,Алена Рыжкова,SBD,Single-ply,Juniors
11,Elena Suslova,1980,Russia,55.32,-102.5,102.5,-107.5,102.5,72.5,75,-77.5,75,122.5,-125,-125,122.5,300,56,F,Елена Суслова,SBD,Single-ply,Juniors
12,Oksana Soboleva,1984,Russia,56,110,115,-120,115,55,60,-62.5,60,120,125,-130,125,300,56,F,Оксана Соболева,SBD,Single-ply,Juniors
13,Oksana Lakhtychkina,1985,Russia,55.44,110,115,117.5,117.5,47.5,50,52.5,52.5,115,120,125,125,295,56,F,Оксана Лахтычкина,SBD,Single-ply,Juniors
14,Yuliya Arsentyeva,1981,Russia,56,90,-100,100,100,42.5,-50,50,50,130,-135,135,135,285,56,F,Юлия Арсентьева,SBD,Single-ply,Juniors
15,Lyudmila Sviridova,1983,Russia,54.9,110,115,-120,115,45,-50,-50,45,-115,-115,115,115,275,56,F,Людмила Свиридова,SBD,Single-ply,Juniors
16,Valentina Ilishkina,1980,Russia,54.48,100,-107.5,-107.5,100,50,-52.5,-52.5,50,120,-130,-130,120,270,56,F,Валентина Ильишкина,SBD,Single-ply,Juniors
DQ,Oksana Pavlova,1983,Russia,55.9,-110,120,-125,120,65,-70,-70,65,-115,-115,-115,,,56,F,Оксана Павлова,SBD,Single-ply,Juniors
1,Elena Shadrina,1982,Russia,59.16,180,200,-205,200,102.5,-110,110,110,180,190,-200,190,500,60,F,Елена Шадрина,SBD,Single-ply,Juniors
2,Anastasia Sukhacheva,1980,Russia,59.86,177.5,185,190,190,85,90,-95,90,-182.5,187.5,-192.5,187.5,467.5,60,F,Анастасия Сухачева,SBD,Single-ply,Juniors
3,Anastasia Yakovleva,1983,Russia,59.98,170,177.5,182.5,182.5,87.5,92.5,95,95,170,180,182.5,182.5,460,60,F,Анастасия Яковлева,SBD,Single-ply,Juniors
4,Yelena Perfilyeva,1978,Russia,59.36,180,-190,195,195,87.5,92.5,-97.5,92.5,160,167.5,-170,167.5,455,60,F,Елена Перфильева,SBD,Single-ply,Juniors
5,Svetlana Samar,1979,Russia,58.32,165,175,-182.5,175,90,-97.5,97.5,97.5,160,-170,-170,160,432.5,60,F,Светлана Самар,SBD,Single-ply,Juniors
6,Tatyana Elistratova,1983,Russia,58.64,145,-152.5,152.5,152.5,85,90,92.5,92.5,145,152.5,157.5,157.5,402.5,60,F,Татьяна Елистратова,SBD,Single-ply,Juniors
7,Irina Buraya,1982,Russia,58.02,130,137.5,140,140,-60,-60,60,60,145,152.5,-160,152.5,352.5,60,F,Ирина Бурая,SBD,Single-ply,Juniors
8,Natalya Barybina,1983,Russia,59.8,120,130,140,140,55,-57.5,57.5,57.5,130,137.5,147.5,147.5,345,60,F,Наталья Барыбина,SBD,Single-ply,Juniors
9,Marina Nikolaeva,1983,Russia,59.86,120,130,-135,130,65,70,75,75,125,135,140,140,345,60,F,Марина Николаева,SBD,Single-ply,Juniors
10,Olga Kostyukova,1982,Russia,58.66,122.5,-130,-130,122.5,65,-67.5,67.5,67.5,-145,145,150,150,340,60,F,Ольга Костюкова,SBD,Single-ply,Juniors
DQ,Veronika Kanutkina,1979,Russia,57.58,-177.5,-177.5,-177.5,,,,,,,,,,,60,F,Вероника Кануткина,SBD,Single-ply,Juniors
DQ,Marina Kriger,1984,Russia,59.76,,,,,,,,,,,,,,60,F,Марина Кригер,SBD,Single-ply,Juniors
1,Yulia Chepushtanova,1980,Russia,67.05,170,177.5,182.5,182.5,107.5,115,-120,115,167.5,175,182.5,182.5,480,67.5,F,Юлия Чепуштанова,SBD,Single-ply,Juniors
2,Victoria Borodkina,1979,Russia,65.8,180,195,205,205,-90,90,-97.5,90,167.5,-177.5,-177.5,167.5,462.5,67.5,F,Виктория Бородкина,SBD,Single-ply,Juniors
3,Marina Ananieva,1981,Russia,66.65,165,175,182.5,182.5,87.5,92.5,-95,92.5,185,-197.5,-197.5,185,460,67.5,F,Марина Ананьева,SBD,Single-ply,Juniors
4,Svetlana Tsvetkova,1980,Russia,66.65,155,165,-170,165,77.5,-82.5,-82.5,77.5,165,172.5,-175,172.5,415,67.5,F,Светлана Цветкова,SBD,Single-ply,Juniors
5,Yuliya Medvedeva #1,1979,Russia,67.05,150,160,-170,160,77.5,82.5,-90,82.5,160,170,-192.5,170,412.5,67.5,F,Юлия Медведева,SBD,Single-ply,Juniors
6,Galina Melekhova,1978,Russia,64.5,150,-152.5,155,155,-85,85,90,90,150,155,-160,155,400,67.5,F,Галина Мелехова,SBD,Single-ply,Juniors
7,Olga Chuvileva,1979,Russia,66.6,147.5,157.5,167.5,167.5,70,77.5,80,80,140,150,-157.5,150,397.5,67.5,F,Ольга Чувилева,SBD,Single-ply,Juniors
8,Olga Pantina,1979,Russia,66.2,165,-175,-175,165,-80,80,-97.5,80,140,150,-155,150,395,67.5,F,Ольга Пантина,SBD,Single-ply,Juniors
9,Ekaterina Zhukovskaya,1984,Russia,67.5,135,147.5,155,155,65,70,-72.5,70,135,145,-150,145,370,67.5,F,Екатерина Жуковская,SBD,Single-ply,Juniors
10,Olga Bakhtyonova,1980,,63.45,135,140,145,145,65,70,72.5,72.5,140,150,-155,150,367.5,67.5,F,Ольга Бахтёнова,SBD,Single-ply,Juniors
11,Yuliya Svinova,1980,Russia,67.05,-140,140,147.5,147.5,57.5,60,-62.5,60,135,142.5,-152.5,142.5,350,67.5,F,Юлия Свинова,SBD,Single-ply,Juniors
12,Lyudmila Tsarkova,1981,Russia,65.9,125,132.5,137.5,137.5,55,57.5,60,60,135,-145,145,145,342.5,67.5,F,Людмила Царькова,SBD,Single-ply,Juniors
13,Tatyana Kozhevnikova,1978,Russia,66.85,130,-140,140,140,62.5,67.5,-70,67.5,120,130,-152.5,130,337.5,67.5,F,Татьяна Кожевникова,SBD,Single-ply,Juniors
14,Elena Yazeva,1980,Russia,66.9,-130,-130,130,130,-65,67.5,72.5,72.5,120,-140,-140,120,322.5,67.5,F,Елена Язева,SBD,Single-ply,Juniors
15,Oksana Vanyukhina,1983,Russia,63.85,-100,-100,100,100,50,55,60,60,125,130,-135,130,290,67.5,F,Оксана Ванюхина,SBD,Single-ply,Juniors
DQ,Evgeniya Tomilovskaya,1982,Russia,61.7,175,182.5,185,185,-87.5,-87.5,-87.5,,,,,,,67.5,F,Евгения Томиловская,SBD,Single-ply,Juniors
DQ,Elena Startseva,1981,Russia,63.95,140,145,-150,145,-70,-70,-70,,,,,,,67.5,F,Елена Старцева,SBD,Single-ply,Juniors
1,Svetlana Ivannikova,1982,Russia,73.6,180,-197.5,197.5,197.5,100,107.5,110,110,160,175,182.5,182.5,490,75,F,Светлана Иванникова,SBD,Single-ply,Juniors
2,Svetlana Korobeynikova,1979,Russia,72.25,165,175,180,180,-100,100,-110,100,165,177.5,-182.5,177.5,457.5,75,F,Светлана Коробейникова,SBD,Single-ply,Juniors
3,Evgeniya Mazaylova,1982,Russia,72.65,175,-182.5,182.5,182.5,85,90,-92.5,90,175,-187.5,-187.5,175,447.5,75,F,Евгения Мазайлова,SBD,Single-ply,Juniors
4,Mariya Kazakova,1982,Russia,69.8,150,160,165,165,85,92.5,97.5,97.5,150,162.5,-167.5,162.5,425,75,F,Мария Казакова,SBD,Single-ply,Juniors
5,Olga Salyukova,1983,Russia,71.9,-160,160,172.5,172.5,77.5,82.5,85,85,150,162.5,167,167,424.5,75,F,Ольга Салюкова,SBD,Single-ply,Juniors
6,Aleksandra Zaychenko,1981,Russia,74.75,150,160,170,170,-90,90,-95,90,-150,150,-167.5,150,410,75,F,Александра Зайченко,SBD,Single-ply,Juniors
7,Oksana Ageeva,1979,Russia,75,165,-170,-170,165,70,80,-87.5,80,165,170,-172.5,170,415,75,F,Оксана Агеева,SBD,Single-ply,Juniors
8,Alexandra Murashova,1982,Russia,74.85,160,172.5,180,180,70,-77.5,-77.5,70,-150,150,160,160,410,75,F,Александра Мурашова,SBD,Single-ply,Juniors
9,Yuliya Epikhina,1978,Russia,70.45,-152.5,-152.5,152.5,152.5,70,-72.5,75,75,162.5,175,-185,175,402.5,75,F,Юлия Епихина,SBD,Single-ply,Juniors
10,Anna Sheina,1978,Russia,73.75,145,-155,-155,145,65,72.5,-77.5,72.5,140,150,-155,150,367.5,75,F,Анна Шеина,SBD,Single-ply,Juniors
11,Yana Kosyak,1978,Russia,68.7,90,100,105,105,-50,-50,50,50,110,-120,,110,265,75,F,Яна Косяк,SBD,Single-ply,Juniors
1,Antonina Krivenko,1981,Russia,81.9,175,185,192.5,192.5,95,-100,-102.5,95,180,190,197.5,197.5,485,82.5,F,Антонина Кривенко,SBD,Single-ply,Juniors
2,Svetlana Gorbacheva,1981,Russia,76.7,150,160,-170,160,90,95,100,100,160,170,-175,170,430,82.5,F,Светлана Горбачева,SBD,Single-ply,Juniors
3,Tamara Nekoshnova,1982,Russia,77.15,120,125,130,130,70,75,-80,75,120,130,-135,130,335,82.5,F,Тамара Некошнова,SBD,Single-ply,Juniors
4,Evgeniya Orlova,1985,Russia,81.45,110,-120,-125,110,-50,50,-55,50,130,137.5,-140,137.5,297.5,82.5,F,Евгения Орлова,SBD,Single-ply,Juniors
1,Valeriya Kholodova,1983,Russia,82.55,170,190,200,200,100,115,117,117,160,-170,-172.5,160,477,90,F,Валерия Щеглова,SBD,Single-ply,Juniors
2,Alexandra Rogova,1984,Russia,87.95,125,135,142.5,142.5,65,70,-75,70,125,135,142.5,142.5,355,90,F,Александра Рогова,SBD,Single-ply,Juniors
3,Kseniya Zhvanskaya,1978,Russia,82.95,95,105,110,110,52.5,55,57.5,57.5,102.5,107.5,112.5,112.5,280,90,F,Ксения Жванская,SBD,Single-ply,Juniors
4,Olga Rezvaya,1983,Russia,86.95,-100,102.5,107.5,107.5,52.5,57.5,60,60,95,102.5,110,110,277.5,90,F,Ольга Резвая,SBD,Single-ply,Juniors
1,Svetlana Lysenko,1978,Russia,90.95,135,140,150,150,67.5,72.5,75,75,140,150,157.5,157.5,382.5,90+,F,Светлана Лысенко,SBD,Single-ply,Juniors
2,Elena Anischenko,1984,Russia,90.2,130,-145,150,150,65,72.5,77,77,110,135,152.5,152.5,379.5,90+,F,Елена Анищенко,SBD,Single-ply,Juniors
1,Dmitriy Alekseev,1983,Russia,51.18,200,215,-225,215,95,105,-110,105,180,187.5,190,190,510,52,M,Дмитрий Алексеев,SBD,Single-ply,Juniors
2,Ivan Grekhov,1982,Russia,51,170,-180,180,180,80,85,-87.5,85,165,175,-185,175,440,52,M,Иван Грехов,SBD,Single-ply,Juniors
3,Aleksey Bachanov,1982,Russia,51.14,-165,-165,170,170,82.5,87.5,90,90,150,155,-162.5,155,415,52,M,Алексей Бачанов,SBD,Single-ply,Juniors
4,Aset Abaydulin,1983,Russia,52,155,-165,-165,155,-97.5,97.5,-100,97.5,160,-170,-170,160,412.5,52,M,Асет Абайдулин,SBD,Single-ply,Juniors
5,Evgeniy Pozhilov,1985,Russia,51.3,147.5,152.5,157.5,157.5,-72.5,75,77.5,77.5,145,152.5,-155,152.5,387.5,52,M,Евгений Пожилов,SBD,Single-ply,Juniors
6,Viktor Bazhukov,1982,Russia,51.84,130,140,145,145,-92.5,92.5,-95,92.5,-140,140,-152.5,140,377.5,52,M,Виктор Бажуков,SBD,Single-ply,Juniors
7,Nikolay Pochinkin,1985,Russia,51.1,140,147.5,152.5,152.5,72.5,77.5,-82.5,77.5,135,145,-150,145,375,52,M,Николай Починкин,SBD,Single-ply,Juniors
8,Evgeniy Karimov,1983,Russia,50.2,-140,140,-155,140,-75,75,80,80,140,-150,150,150,370,52,M,Евгений Каримов,SBD,Single-ply,Juniors
1,Sergey Savinykh,1983,Russia,55.06,210,-215,220,220,135,-140,-140,135,210,-222.5,-222.5,210,565,56,M,Сергей Савиных,SBD,Single-ply,Juniors
2,Dmitriy Panin,1980,Russia,55.3,195,205,210,210,-115,115,120,120,200,210,-220,210,540,56,M,Дмитрий Панин,SBD,Single-ply,Juniors
3,Vitaliy Petrochenko,1982,Russia,55.8,175,182.5,187.5,187.5,117.5,122.5,127.5,127.5,-167.5,167.5,180,180,495,56,M,Виталий Петроченко,SBD,Single-ply,Juniors
4,Evgeniy Melekhov,1984,Russia,56,185,-202.5,-202.5,185,110,117.5,-122.5,117.5,180,192.5,-195,192.5,495,56,M,Евгений Мелехов,SBD,Single-ply,Juniors
5,Roman Kazanin,1982,Russia,55,172.5,177.5,-185,177.5,-110,110,112.5,112.5,180,192.5,-205,192.5,482.5,56,M,Роман Казанин,SBD,Single-ply,Juniors
6,Andrey Polkanov,1983,Russia,55.9,170,180,190,190,90,100,105,105,175,185,-195,185,480,56,M,Андрей Польканов,SBD,Single-ply,Juniors
7,Vitaliy Borisov,1984,Russia,55.46,170,180,192.5,192.5,95,-100,100,100,175,-180,180,180,472.5,56,M,Виталий Борисов,SBD,Single-ply,Juniors
8,Aleksey Lopatin,1983,Russia,56,155,165,-170,165,100,110,-112.5,110,-175,175,185,185,460,56,M,Алексей Лопатин,SBD,Single-ply,Juniors
9,Sergey Lazarev,1983,Russia,55.36,175,-182.5,182.5,182.5,100,102.5,105,105,155,165,-170,165,452.5,56,M,Сергей Лазарев,SBD,Single-ply,Juniors
10,Kirill Naumenko,1982,Russia,54.06,170,180,-190,180,100,105,-107.5,105,165,-175,-175,165,450,56,M,Кирилл Науменко,SBD,Single-ply,Juniors
11,Andrey Nikitin,1984,Russia,56,-135,135,-140,135,85,-90,90,90,-165,170,-177.5,170,395,56,M,Андрей Никитин,SBD,Single-ply,Juniors
DQ,Maksim Romanov,1982,Russia,54.6,-175,-175,-175,,,,,,,,,,,56,M,Максим Романов,SBD,Single-ply,Juniors
1,Aleksandr Gromov,1981,Russia,59.84,237.5,245,-250,245,140,147.5,-150,147.5,190,202.5,207.5,207.5,600,60,M,Александр Громов,SBD,Single-ply,Juniors
2,Vladimir Sundikov,1984,Russia,59.8,210,225,235,235,117.5,127.5,-132.5,127.5,210,225,-237.5,225,587.5,60,M,Владимир Сундиков,SBD,Single-ply,Juniors
3,Maxim Nurutdinov,1982,Russia,59.54,230,235,-240,235,115,120,122.5,122.5,195,205,-215,205,562.5,60,M,Максим Нурутдинов,SBD,Single-ply,Juniors
4,Maksim Beloborodov,1983,Russia,59.84,210,215,-220,215,-120,120,-135,120,210,220,-230,220,555,60,M,Максим Белобородов,SBD,Single-ply,Juniors
5,Aleksandr Kim,1981,Russia,59.4,205,-215,-215,205,-130,130,135,135,190,210,-230,210,550,60,M,Александр Ким,SBD,Single-ply,Juniors
6,Igor Teplykh,,Russia,59.64,212.5,-220,225,225,112.5,117.5,-122.5,117.5,195,205,207.5,207.5,550,60,M,Игорь Теплых,SBD,Single-ply,Juniors
7,Yuriy Karasev,1981,Russia,59.64,195,205,212.5,212.5,107.5,-112.5,112.5,112.5,220,-230,-230,220,545,60,M,Юрий Карасов,SBD,Single-ply,Juniors
8,Aleksey Khovanskiy,1979,Russia,59.62,200,-210,-210,200,120,125,130,130,200,210,-215,210,540,60,M,Алексей Хованский,SBD,Single-ply,Juniors
9,Evgeniy Ushakov,1982,Russia,59.78,-205,-205,205,205,102.5,107.5,-112.5,107.5,-210,210,-225,210,522.5,60,M,Евгений Ушаков,SBD,Single-ply,Juniors
10,Viktor Cherpinskiy,1982,Russia,59.74,180,190,200,200,110,-115,-115,110,190,200,-207.5,200,510,60,M,Виктор Черпинский,SBD,Single-ply,Juniors
11,Denis Rasskazov,1982,Russia,59.92,-180,192.5,-197.5,192.5,110,-120,-120,110,180,-195,-195,180,482.5,60,M,Денис Рассказов,SBD,Single-ply,Juniors
12,Sergey Baklanov,1983,Russia,59,145,152.5,155,155,-102.5,-102.5,102.5,102.5,-160,160,-170,160,417.5,60,M,Сергей Бакланов,SBD,Single-ply,Juniors
DQ,Andrey Lazutkin,1985,Russia,58.74,130,140,-150,140,65,-70,-70,65,-120,,,,,60,M,Андрей Лазуткин,SBD,Single-ply,Juniors
1,Alexey Osokin,1979,Russia,67.45,235,-245,250,250,165,177.5,187.5,187.5,-240,245,255,255,692.5,67.5,M,Алексей Осокин,SBD,Single-ply,Juniors
2,Anatoly Zvyagintsev,1978,Russia,67.3,240,-250,257.5,257.5,170,180,182.5,182.5,-230,240,-247.5,240,680,67.5,M,Анатолий Звягинцев,SBD,Single-ply,Juniors
3,Denis Tsebeka,1978,Russia,67.4,245,252.5,-257.5,252.5,125,132.5,137.5,137.5,-265,265,277.5,277.5,667.5,67.5,M,Денис Цебека,SBD,Single-ply,Juniors
4,Ruslan Guliev,1981,Russia,67.1,-230,230,250,250,165,-175,-175,165,235,245,250,250,665,67.5,M,Руслан Гулиев,SBD,Single-ply,Juniors
5,Nikolay Sokolov,1979,Russia,64,240,255,-267.5,255,150,-160,160,160,245,-255,,245,660,67.5,M,Николай Соколов,SBD,Single-ply,Juniors
6,Dmitriy Dudnik,1979,Russia,67.5,235,247.5,-255,247.5,157.5,162.5,-165,162.5,-230,240,-250,240,650,67.5,M,Дмитрий Дудник,SBD,Single-ply,Juniors
7,Aleksey Artemev,1979,Russia,66.9,-242.5,-242.5,242.5,242.5,140,145,-147.5,145,250,-260,-262.5,250,637.5,67.5,M,Алексей Артемьев,SBD,Single-ply,Juniors
8,Aleksandr Kan,1979,Russia,67.45,240,247.5,-252.5,247.5,140,150,155,155,-235,-235,235,235,637.5,67.5,M,Александр Кан,SBD,Single-ply,Juniors
9,Igor Bogachenko,1979,Russia,67.2,225,230,235,235,130,-135,-135,130,240,247.5,-250,247.5,612.5,67.5,M,Игорь Богаченко,SBD,Single-ply,Juniors
10,Evgeniy Atroshkin,1984,Russia,67.25,200,230,247.5,247.5,110,130,132.5,132.5,220,232.5,-235,232.5,612.5,67.5,M,Евгений Атрошкин,SBD,Single-ply,Juniors
11,Artem Korotygin,1980,Russia,67.25,235,-240,240,240,135,140,145,145,-225,225,-235,225,610,67.5,M,Артем Коротыгин,SBD,Single-ply,Juniors
12,Mikhail Felgron,1979,Russia,66.6,215,225,-230,225,140,-150,-150,140,-240,240,-250,240,605,67.5,M,Михаил Фельгрон,SBD,Single-ply,Juniors
13,Evgeniy Efimov,1982,Russia,66.3,220,227.5,-235,227.5,120,-125,125,125,225,-232.5,232.5,232.5,585,67.5,M,Евгений Ефимов,SBD,Single-ply,Juniors
14,Georgiy Sherman,1981,Russia,65.6,195,205,210,210,115,-125,-125,115,225,240,255,255,580,67.5,M,Георгий Шерман,SBD,Single-ply,Juniors
15,Ivan Yurchenko,1981,Russia,67.35,215,225,-230,225,-120,120,-125,120,225,235,-240,235,580,67.5,M,Иван Юрченко,SBD,Single-ply,Juniors
16,Mikhail Beloslyudtsev,1983,Russia,66.85,220,240,-252.5,240,110,117.5,-120,117.5,200,210,-220,210,567.5,67.5,M,Михаил Белослюдцев,SBD,Single-ply,Juniors
17,Dmitriy Fursik,1980,Russia,67.5,240,-247.5,-247.5,240,110,-115,-115,110,200,-220,,200,550,67.5,M,Дмитрий Фурсик,SBD,Single-ply,Juniors
18,Alexey Merkulov,1983,Russia,64.35,-215,215,-225,215,140,147.5,-152.5,147.5,165,175,-180,175,537.5,67.5,M,Алексей Меркулов,SBD,Single-ply,Juniors
19,Aleksandr Blinov,1979,Russia,67.3,190,200,-205,200,115,-120,-120,115,190,202.5,210,210,525,67.5,M,Александр Блинов,SBD,Single-ply,Juniors
20,Konstantin Kuznetsov,1981,Russia,66.2,185,195,-205,195,-125,125,-130,125,190,200,-205,200,520,67.5,M,Константин Кузнецов,SBD,Single-ply,Juniors
21,Vadim Kazakov,1984,Russia,67.05,155,170,180,180,80,85,87.5,87.5,200,220,222.5,222.5,490,67.5,M,Вадим Казаков,SBD,Single-ply,Juniors
22,Egor Padiy,1983,Russia,66.9,180,-190,-195,180,80,90,95,95,200,-212.5,212.5,212.5,487.5,67.5,M,Егор Падий,SBD,Single-ply,Juniors
23,Vladimir Balov,1984,Russia,65.2,140,150,-160,150,85,92.5,-95,92.5,170,175,-180,175,417.5,67.5,M,Владимир Балов,SBD,Single-ply,Juniors
DQ,Sergey Rudevich,1984,Russia,66.95,-165,-165,-165,,,,,,,,,,,67.5,M,Сергей Рудевич,SBD,Single-ply,Juniors
DQ,Artem Shipilov,1980,Russia,67.1,-230,-230,-230,,,,,,,,,,,67.5,M,Артем Шипилов,SBD,Single-ply,Juniors
1,Eduard Krainov,1978,Russia,74.75,270,280,-290,280,165,172.5,-175,172.5,280,290,-295,290,742.5,75,M,Едуард Крайнов,SBD,Single-ply,Juniors
2,Aleksandr Sokolov,1978,Russia,74.95,250,265,-270,265,175,185,187.5,187.5,240,260,-265,260,712.5,75,M,Александр Соколов,SBD,Single-ply,Juniors
3,Oleg Ryabinnikov,1978,Russia,73.4,255,262.5,,262.5,155,165,-170,165,-270,270,280,280,707.5,75,M,Олег Рябинников,SBD,Single-ply,Juniors
4,Vitaliy Boyko,1980,Russia,74.85,250,265,-272.5,265,160,-165,-165,160,270,-282.5,282.5,282.5,707.5,75,M,Виталий Бойко,SBD,Single-ply,Juniors
5,Aleksey Kuleshov,1980,Russia,75,255,270,277.5,277.5,150,-160,165,165,245,260,-265,260,702.5,75,M,Алексей Кулешов,SBD,Single-ply,Juniors
6,Evgeniy Burtsev,1982,Russia,75,245,255,-260,255,160,167.5,-172.5,167.5,257.5,267.5,-270,267.5,690,75,M,Евгений Бурцев,SBD,Single-ply,Juniors
7,Maksim Anikin,1978,Russia,74,240,250,260,260,165,172.5,-177.5,172.5,250,-255,-255,250,682.5,75,M,Максим Аникин,SBD,Single-ply,Juniors
8,Aleksandr Podrugin,1981,Russia,71.85,265,280,290,290,140,147.5,-152.5,147.5,245,252.5,-257.5,252.5,690,75,M,Александр Подругин,SBD,Single-ply,Juniors
9,Anton Agashkov,1979,Russia,74.95,-230,240,250,250,147.5,152.5,157.5,157.5,225,242.5,252.5,252.5,660,75,M,Антон Агашков,SBD,Single-ply,Juniors
10,Alexey Ryabkov,1983,Russia,74.2,245,255,-260,255,150,155,160,160,220,235,242.5,242.5,657.5,75,M,Алексей Рябков,SBD,Single-ply,Juniors
11,Viktor Bey,1979,Russia,73.5,-245,255,-265,255,150,155,160,160,220,235,242.5,242.5,657.5,75,M,Виктор Бей,SBD,Single-ply,Juniors
12,Evgeniy Ivanov,1981,Russia,74.55,225,235,245,245,147.5,-155,155,155,212.5,222.5,-225,222.5,622.5,75,M,Евгений Иванов,SBD,Single-ply,Juniors
13,Vadim Doronin,1981,Russia,74.3,220,230,240,240,130,140,-150,140,190,210,-222.5,210,590,75,M,Вадим Доронин,SBD,Single-ply,Juniors
14,Evgeniy Popando,1980,Russia,72.4,200,210,215,215,145,150,-152.5,150,210,222.5,-230,222.5,587.5,75,M,Евгений Попандо,SBD,Single-ply,Juniors
15,Maksim Zubarev #1,1981,Russia,74.4,210,220,-225,220,135,140,-145,140,215,,,215,575,75,M,Максим Зубарев,SBD,Single-ply,Juniors
16,Anatoliy Turtsin,1982,Russia,74.4,-210,-210,210,210,110,120,-127.5,120,220,230,-235,230,560,75,M,Анатолий Турцин,SBD,Single-ply,Juniors
17,Maksim Chigaev,1983,Russia,75,190,-210,210,210,100,-107.5,-107.5,100,180,-205,-205,180,490,75,M,Максим Чигаев,SBD,Single-ply,Juniors
DQ,Evgeniy Biktagirov,1979,Russia,72.75,250,-260,260,260,-175,175,-180,175,-265,-265,-265,,,75,M,Евгений Биктагиров,SBD,Single-ply,Juniors
DQ,Sergey Shulepov,1982,Russia,74.35,,,,,,,,,,,,,,75,M,Сергей Шулепов,SBD,Single-ply,Juniors
DQ,Yuriy Zadorozhnyy,1981,Russia,74.1,-265,265,-272.5,265,-150,,,,,,,,,75,M,Юрий Задорожный,SBD,Single-ply,Juniors
DQ,Denis Ryabov,1983,Russia,74.6,245,257.5,-262.5,257.5,135,142.5,145,145,-265,-265,-265,,,75,M,Денис Рябов,SBD,Single-ply,Juniors
1,Roman Bychenko,1979,Russia,80.55,285,300,310,310,180,187.5,192.5,192.5,305,315,320,320,822.5,82.5,M,Роман Быченко,SBD,Single-ply,Juniors
2,Pavel Ozerov,1980,Russia,80.8,290,302.5,312.5,312.5,197.5,205,207.5,207.5,282.5,292.5,300,300,820,82.5,M,Павел Озеров,SBD,Single-ply,Juniors
3,Aleksey Zvarykin,1979,Russia,81.75,270,290,300,300,170,177.5,180,180,270,295,310,310,790,82.5,M,Алексей Зварыкин,SBD,Single-ply,Juniors
4,Dmitriy Shvetsov,1979,Russia,82.1,305,325,-330,325,172.5,180,185,185,260,280,-287.5,280,790,82.5,M,Дмитрий Швецов,SBD,Single-ply,Juniors
5,Aleksandr Alekseev,,Russia,80.75,265,275,285,285,170,180,190,190,265,275,-285,275,750,82.5,M,Александр Алексеев,SBD,Single-ply,Juniors
6,Evgeniy Kolesnikov,,Russia,81.2,270,285,290,290,170,177.5,180,180,255,265,270,270,740,82.5,M,Евгений Колесников,SBD,Single-ply,Juniors
7,Stepan Bolshak,1980,Russia,81.9,260,272.5,282.5,282.5,170,180,-182.5,180,250,265,275,275,737.5,82.5,M,Степан Большак,SBD,Single-ply,Juniors
8,Dmitriy Otmorskiy,1978,Russia,81.7,280,-290,-290,280,160,165,-170,165,260,-275,275,275,720,82.5,M,Дмитрий Отморский,SBD,Single-ply,Juniors
9,Maksim Zubok,1980,Russia,82.35,280,290,-300,290,160,170,180,180,-250,250,-260,250,720,82.5,M,Максим Зубок,SBD,Single-ply,Juniors
10,Ruslan Voronko,1981,Russia,82.5,270,280,290,290,140,150,-152.5,150,260,270,-280,270,710,82.5,M,Руслан Воронко,SBD,Single-ply,Juniors
11,Vladimir Shipot,1980,Russia,81.8,250,265,-280,265,170,175,180,180,240,250,255,255,700,82.5,M,Владимир Шипот,SBD,Single-ply,Juniors
12,Dmitriy Pervukhin,1979,Russia,79.8,245,260,267.5,267.5,155,-162.5,-162.5,155,255,265,272.5,272.5,695,82.5,M,Дмитрий Первухин,SBD,Single-ply,Juniors
13,Maksim Unt,1981,Russia,81.1,230,260,270,270,140,-150,-150,140,230,,285,285,695,82.5,M,Максим Унт,SBD,Single-ply,Juniors
14,Vitaliy Popov,1979,Russia,81.35,240,260,267.5,267.5,130,145,150,150,-260,277.5,-282.5,277.5,695,82.5,M,Виталий Попов,SBD,Single-ply,Juniors
15,Sergey Zudin,1979,Russia,81.95,255,265,-275,265,-160,160,167.5,167.5,-250,-262.5,262.5,262.5,695,82.5,M,Сергей Зудин,SBD,Single-ply,Juniors
16,Mikhail Lavrov,1980,Russia,82,250,265,270,270,150,155,-160,155,250,-265,265,265,690,82.5,M,Михаил Лавров,SBD,Single-ply,Juniors
17,Aleksandr Tomilov,1980,Russia,82.35,245,257.5,262.5,262.5,155,162.5,165,165,245,260,267.5,267.5,695,82.5,M,Александр Томилов,SBD,Single-ply,Juniors
18,Denis Mashnyov,1979,Russia,81.7,240,-250,250,250,165,-175,-175,165,240,250,260,260,675,82.5,M,Денис Машнёв,SBD,Single-ply,Juniors
19,Andrey Gavrilov,1979,Russia,82.35,225,240,250,250,160,-167.5,-167.5,160,240,250,255,255,665,82.5,M,Андрей Гаврилов,SBD,Single-ply,Juniors
20,Sergey Igolkin,1983,Russia,82,250,-265,265,265,120,-130,-130,120,260,-270,-270,260,645,82.5,M,Сергей Иголкин,SBD,Single-ply,Juniors
21,Nikolay Kozlovskiy,1981,Russia,79.6,240,250,260,260,140,150,260,260,220,,,220,740,82.5,M,Николай Козловский,SBD,Single-ply,Juniors
22,Aleksandr Kiyan,1981,Russia,76.9,195,205,-210,205,120,135,140,140,210,220,-230,220,565,82.5,M,Александр Киян,SBD,Single-ply,Juniors
23,Aleksandr Patrakov,1979,Russia,77.9,-205,210,-215,210,110,-115,115,115,200,-210,-210,200,525,82.5,M,Александр Патраков,SBD,Single-ply,Juniors
DQ,Viktor Koltakov,1981,Russia,81.5,-205,-205,-205,,,,,,,,,,,82.5,M,Виктор Колтаков,SBD,Single-ply,Juniors
1,Maxim Barkhatov,1981,Russia,89.75,295,310,320,320,-195,195,200,200,300,315,320,320,840,90,M,Максим Бархатов,SBD,Single-ply,Juniors
2,Dmitriy Likhanov,1979,Russia,89.65,295,310,-317.5,310,185,192.5,-195,192.5,305,320,-322.5,320,822.5,90,M,Дмитрий Лиханов,SBD,Single-ply,Juniors
3,Aleksey Malunin,1978,Russia,87.8,280,295,305,305,205,-215,-215,205,290,305,-310,305,815,90,M,Алексей Малунин,SBD,Single-ply,Juniors
4,Alexey Baluev,1978,Russia,89.75,295,310,317.5,317.5,187.5,192.5,195,195,302.5,-307.5,-310,302.5,815,90,M,Алексей Балуев,SBD,Single-ply,Juniors
5,Vladimir Rudenko,1981,Russia,89.8,-315,-315,315,315,190,-195,195,195,-295,-295,295,295,805,90,M,Владимир Руденко,SBD,Single-ply,Juniors
6,Aleksey Lenkin,1982,Russia,89,285,295,302.5,302.5,190,197.5,200,200,265,272.5,282.5,282.5,785,90,M,Алексей Ленкин,SBD,Single-ply,Juniors
7,Lev Levchenko,1981,Russia,89.1,270,-300,300,300,170,180,185,185,300,-320,-320,300,785,90,M,Лев Левченко,SBD,Single-ply,Juniors
8,Konstantin Shuchkovskiy,1978,Russia,88.7,285,295,305,305,185,195,-200,195,280,-295,-295,280,780,90,M,Константин Шучковский,SBD,Single-ply,Juniors
9,Viktor Manishin,1979,Russia,88,270,-280,280,280,185,195,-202.5,195,-275,275,302.5,302.5,777.5,90,M,Виктор Манишин,SBD,Single-ply,Juniors
10,Dmitriy Bendichenko,1979,Russia,89.8,270,285,-295,285,185,195,-200,195,270,295,-305,295,775,90,M,Дмитрий Бендиченко,SBD,Single-ply,Juniors
11,Stanislav Chernyshov,1979,Russia,88.5,280,290,-300,290,190,-197.5,197.5,197.5,270,-275,-275,270,757.5,90,M,Станислав Чернышов,SBD,Single-ply,Juniors
12,Sergey Semakin,1978,Russia,89.05,285,-295,295,295,165,-167.5,167.5,167.5,295,-310,-310,295,757.5,90,M,Сергей Семакин,SBD,Single-ply,Juniors
13,Vladimir Sedov,1978,Russia,88.8,260,275,-282.5,275,177.5,185,-187.5,185,270,290,-295,290,750,90,M,Владимир Седов,SBD,Single-ply,Juniors
14,Evgeniy Ryabokrys,1980,Russia,89,270,280,-290,280,165,170,-175,170,-300,-300,300,300,750,90,M,Евгений Рябокрыс,SBD,Single-ply,Juniors
15,Vladimir Kuvaev,1980,Russia,89.2,275,287.5,292.5,292.5,170,-180,-180,170,275,-285,-285,275,737.5,90,M,Владимир Куваев,SBD,Single-ply,Juniors
16,Ildar Gilfanov,1982,,88.55,265,275,282.5,282.5,162.5,-170,-170,162.5,-262.5,-275,275,275,720,90,M,Ильдар Гильфанов,SBD,Single-ply,Juniors
17,Aleksandr Baskarev,1981,Russia,89.2,255,275,282.5,282.5,155,165,170,170,-267.5,267.5,-277.5,267.5,720,90,M,Александр Баскарев,SBD,Single-ply,Juniors
18,Valeriy Nikitin,1980,Russia,90,270,280,-285,280,150,160,-165,160,270,-280,280,280,720,90,M,Валерий Никитин,SBD,Single-ply,Juniors
19,Konstantin Ganovsky,1982,Russia,89.25,-265,270,-275,270,170,-180,-180,170,-265,265,270,270,710,90,M,Константин Гановский,SBD,Single-ply,Juniors
20,Pavel Isakov,1980,Russia,89.35,260,-280,-280,260,170,190,-200,190,260,-280,-280,260,710,90,M,Павел Исаков,SBD,Single-ply,Juniors
21,Dmitriy Pavlov,1980,Russia,87.4,-255,255,260,260,140,145,-150,145,240,250,265,265,670,90,M,Дмитрий Павлов,SBD,Single-ply,Juniors
22,Sergey Doroshenko,1982,Russia,90,-240,240,250,250,-160,160,165,165,240,250,-260,250,665,90,M,Сергей Дорошенко,SBD,Single-ply,Juniors
23,Yaroslav Kashirskiy,1978,Russia,90,250,260,-270,260,130,-140,-140,130,-255,-260,260,260,650,90,M,Ярослав Каширский,SBD,Single-ply,Juniors
DQ,Pavel Filippov,1981,Russia,86.2,245,255,260,260,160,170,-172.5,170,-280,-280,-280,,,90,M,Павел Филиппов,SBD,Single-ply,Juniors
DQ,Alexander Butov,1981,Russia,89.55,310,320,327.5,327.5,180,190,-192.5,190,-300,-407.5,-515,,,90,M,Александр Бутов,SBD,Single-ply,Juniors
DQ,Alexei Sharovatov,1979,Russia,86.3,-290,-295,-295,,,,,,,,,,,90,M,Алексей Шароватов,SBD,Single-ply,Juniors
1,Vladimir Kotkov,1980,Russia,100,320,330,340,340,190,200,-205,200,312.5,317.5,322.5,322.5,862.5,100,M,Владимир Котков,SBD,Single-ply,Juniors
2,Mikhail Frolov,1979,Russia,99.75,320,340,-345,340,197.5,205,210,210,-300,302.5,310,310,860,100,M,Михаил Фролов,SBD,Single-ply,Juniors
3,Konstantin Filippov,1978,Russia,99.9,-290,-290,300,300,190,200,,200,290,-300,-300,290,790,100,M,Константин Филиппов,SBD,Single-ply,Juniors
4,Mikhail Suchkov,1980,Russia,96.5,285,300,315,315,155,165,172.5,172.5,270,282.5,290,290,777.5,100,M,Михаил Сучков,SBD,Single-ply,Juniors
5,Roman Gavrusik,1982,Russia,96.45,275,290,-295,290,175,187.5,190,190,275,-290,290,290,770,100,M,Роман Гаврусик,SBD,Single-ply,Juniors
6,Andrey Vasilev,1979,Russia,98.15,285,295,-300,295,180,187.5,-190,187.5,275,282.5,-290,282.5,765,100,M,Андрей Васильев,SBD,Single-ply,Juniors
7,Denis Poddubnyy,1979,Russia,98.85,290,305,315,315,160,-180,-180,160,-290,290,-305,290,765,100,M,Денис Поддубный,SBD,Single-ply,Juniors
8,Aleksey Chistyakov,1980,Russia,98,280,300,320,320,175,182.5,190,190,260,270,-280,270,780,100,M,Алексей Чистяков,SBD,Single-ply,Juniors
9,Dmitriy Khangazheev,1978,Russia,96.75,265,275,285,285,155,165,170,170,255,275,280,280,735,100,M,Дмитрий Хангажеев,SBD,Single-ply,Juniors
10,Marat Chirkov,1984,Russia,98.55,275,-285,-285,275,155,160,165,165,275,-282.5,-282.5,275,715,100,M,Марат Чирков,SBD,Single-ply,Juniors
11,Vyacheslav Panyushkin,1981,Russia,97.75,240,-255,255,255,-175,175,182.5,182.5,260,-272.5,-272.5,260,697.5,100,M,Вячеслав Панюшкин,SBD,Single-ply,Juniors
12,Aleksandr Musokhranov,1980,Russia,91.85,210,220,245,245,135,145,-150,145,210,230,-240,230,620,100,M,Александр Мусохранов,SBD,Single-ply,Juniors
13,Konstantin Libraikh,1981,Russia,97.55,210,220,-240,220,140,145,-150,145,210,220,-230,220,585,100,M,Константин Либраих,SBD,Single-ply,Juniors
DQ,Denis Borisenko,1978,Russia,95.15,-265,-265,-265,,,,,,,,,,,100,M,Денис Борисенко,SBD,Single-ply,Juniors
1,Nikolay Suslov,1979,Russia,101.7,330,350,360,360,205,220,-230,220,320,330,340,340,920,110,M,Николай Суслов,SBD,Single-ply,Juniors
2,Sergei Marinin,1979,Russia,109.05,300,320,340,340,180,190,195,195,322.5,350,-387.5,350,885,110,M,Сергей Маринин,SBD,Single-ply,Juniors
3,Yuriy Savenko,1981,Russia,107.85,270,-280,-280,270,170,180,190,190,250,260,-280,260,720,110,M,Юрий Савенко,SBD,Single-ply,Juniors
4,Artem Budura,1981,Russia,109.25,265,275,280,280,155,-162.5,-162.5,155,250,260,-265,260,695,110,M,Артем Будура,SBD,Single-ply,Juniors
5,Dmitriy Vlasov,1982,Russia,106.3,260,-270,-270,260,180,190,195,195,200,230,-240,230,685,110,M,Дмитрий Власов,SBD,Single-ply,Juniors
DQ,Aleksey Porsin,1981,Russia,104.8,-220,-220,-230,,,,,,,,,,,110,M,Алексей Порсин,SBD,Single-ply,Juniors
DQ,Aleksey Chebotarev,1978,Russia,108.3,-310,-310,,,,,,,,,,,,110,M,Алексей Чеботарев,SBD,Single-ply,Juniors
1,Igor Medvedev,1980,Russia,110.05,-340,340,350,350,215,225,235,235,300,315,-330,315,900,125,M,Игорь Медведев,SBD,Single-ply,Juniors
2,Mikhail Grishin,1978,Russia,117.2,320,330,350,350,180,190,200,200,240,-260,260,260,810,125,M,Михаил Гришин,SBD,Single-ply,Juniors
3,Dmitriy Rakhimov,1980,Russia,112.4,240,-250,-250,240,140,150,-155,150,230,245,-255,245,635,125,M,Дмитрий Рахимов,SBD,Single-ply,Juniors
DQ,Artem Pokusaev,1978,Russia,125,-345,-345,-345,,,,,,,,,,,125,M,Артем Покусаев,SBD,Single-ply,Juniors
DQ,Aleksey Zolotukhin,1978,Russia,124.9,290,300,310,310,-205,-205,-205,,,,,,,125,M,Алексей Золотухин,SBD,Single-ply,Juniors
1,Vladimir Bondarenko,1978,Russia,136.75,360,380,390,390,230,240,250,250,360,-370,,360,1000,125+,M,Владимир Бондаренко,SBD,Single-ply,Juniors
2,Konstantin Zelenin,1977,Russia,160.2,320,-335,-335,320,250,260,272.5,272.5,300,332.5,-337.5,332.5,925,125+,M,Константин Зеленин,SBD,Single-ply,Juniors
3,Aleksandr Oleynik,1978,Russia,127.7,300,330,350,350,200,210,212.5,212.5,290,305,-310,305,867.5,125+,M,Александр Олейник,SBD,Single-ply,Juniors
4,Nikolay Ufimtsev,1980,Russia,153.2,310,335,340,340,-190,195,-202.5,195,250,265,275,275,810,125+,M,Николай Уфимцев,SBD,Single-ply,Juniors
DQ,Ivan Vinogradov,1981,Russia,139.3,-150,-150,-150,,,,,,,,,,,125+,M,Иван Виноградов,SBD,Single-ply,Juniors
