Tested,Equipment,Place,Name,Division,BirthYear,BodyweightKg,Squat1Kg,Squat2Kg,Squat3Kg,Best3SquatKg,Bench1Kg,Bench2Kg,Bench3Kg,Best3BenchKg,Bench4Kg,Deadlift1Kg,Deadlift2Kg,Deadlift3Kg,Best3DeadliftKg,TotalKg,WeightClassKg,Sex,CyrillicName,Event
Yes,Raw,1,Aleksandra Sovkova,Amateur Juniors 20-23,1988,54.8,-50,55,60,60,35,37.5,40,40,,75,80,85,85,185,56,F,Александра Совкова,SBD
Yes,Raw,1,Svetlana Maletskaya,Amateur Open,1983,55.8,92.5,97.5,-100,97.5,55,57.5,60,60,,122.5,-130,-130,122.5,280,56,F,Светлана Малецкая,SBD
Yes,Raw,2,Olesya Dronova,Amateur Open,1975,55.9,80,-85,-85,80,35,37.5,-42.5,37.5,,110,120,-127.5,120,237.5,56,F,Олеся Дронова,SBD
Yes,Raw,1,Galina Kalinina,Amateur Open,1981,70.3,80,85,-90,85,50,55,57.5,57.5,,105,115,125,125,267.5,75,F,Галина Калинина,SBD
Yes,Raw,1,Elizaveta Sprogis,Amateur Open,1977,78.4,90,-100,-100,90,65,70,-72.5,70,,130,137.5,140,140,300,82.5,F,Елизавета Спрогис,SBD
Yes,Raw,1,Denis Volkov,Amateur Teen 16-17,1993,67,112.5,117.5,120,120,80,87.5,90,90,,125,135,150,150,360,67.5,M,Денис Волков,SBD
Yes,Raw,1,Georgiy Chotokliev,Amateur Teen 18-19,1992,64,-90,90,-95,90,50,-57.5,,50,,100,110,120,120,260,67.5,M,Георгий Чотоклиев,SBD
Yes,Raw,1,Nikita Marin,Amateur Juniors 20-23,1990,65.8,120,130,140,140,-95,95,-105,95,,130,140,147.5,147.5,382.5,67.5,M,Никита Марьин,SBD
Yes,Raw,1,Vladimir Bakaysa,Amateur Open,1985,67.5,140,145,,145,105,110,115,115,,200,210,,210,470,67.5,M,Владимир Бакайса,SBD
Yes,Raw,2,Vitaliy Timofeev,Amateur Open,1982,65,120,130,,130,90,100,,100,,140,155,,155,385,67.5,M,Виталий Тимофеев,SBD
Yes,Raw,1,Maksim Sukhobok,Amateur Masters 45-49,1965,61.5,140,150,160,160,92.5,97.5,100,100,,180,192.5,-200,192.5,452.5,67.5,M,Максим Сухобок,SBD
Yes,Raw,1,Timur Abasov,Amateur Juniors 20-23,1988,69.5,155,-165,-167.5,155,115,125,130,130,,200,210,-230,210,495,75,M,Тимур Абасов,SBD
Yes,Raw,2,Anton Bessonov,Amateur Juniors 20-23,1988,74.3,155,-165,-170,155,125,130,135,135,,160,175,190,190,480,75,M,Антон Бессонов,SBD
Yes,Raw,3,Ashot Meyroyan,Amateur Juniors 20-23,1989,72.2,100,115,132.5,132.5,95,107.5,120,120,,120,135,150,150,402.5,75,M,Ашот Мейроян,SBD
Yes,Raw,1,Andrey Konovalenko,Amateur Open,1982,74.3,200,-207.5,207.5,207.5,135,140,-145,140,,220,230,-235,230,577.5,75,M,Андрей Коноваленко,SBD
Yes,Raw,2,Aleksey Kuleshov,Amateur Open,1977,75,170,180,190,190,-150,160,165,165,,200,215,-225,215,570,75,M,Алексей Кулешов,SBD
Yes,Raw,3,Aleksandr Sadovnikov,Amateur Open,1983,73.3,-160,160,170,170,105,112.5,-117.5,112.5,,195,-207.5,207.5,207.5,490,75,M,Александр Садовников,SBD
Yes,Raw,4,Aleksey Anisimov,Amateur Open,1981,69.1,120,140,152.5,152.5,90,95,-100,95,,160,180,-200,180,427.5,75,M,Алексей Анисимов,SBD
Yes,Raw,1,Vladimir Grayvoronskiy,Amateur Teen 13-15,1995,79.5,80,-90,97.5,97.5,65,-70,72.5,72.5,,107.5,112.5,117.5,117.5,287.5,82.5,M,Владимир Грайворонский,SBD
Yes,Raw,1,Sergey Laptev,Amateur Teen 18-19,1991,79.2,140,150,-160,150,105,115,-120,115,,-175,175,190,190,455,82.5,M,Сергей Лаптев,SBD
Yes,Raw,1,Nikolay Balugin,Amateur Juniors 20-23,1987,76.6,180,185,190,190,125,130,-132.5,130,,210,225,-235,225,545,82.5,M,Николай Балугин,SBD
Yes,Raw,2,Aleksandr Kurtsaev,Amateur Juniors 20-23,1989,80.4,160,170,-180,170,110,120,130,130,,190,200,210,210,510,82.5,M,Александр Курцаев,SBD
Yes,Raw,1,Aleksey Kraynichuk,Amateur Open,1988,81.1,195,205,-210,205,145,150,-155,150,,230,237.5,-245,237.5,592.5,82.5,M,Алексей Крайничук,SBD
Yes,Raw,2,Aleksandr Leonidov,Amateur Open,1981,81.7,180,192.5,200,200,130,135,140,140,,215,227.5,235,235,575,82.5,M,Александр Леонидов,SBD
Yes,Raw,3,Konstantin Zhekov,Amateur Open,1972,81.7,-175,182.5,187.5,187.5,125,130,135,135,,205,215,220,220,542.5,82.5,M,Константин Жеков,SBD
Yes,Raw,4,Aleksey Koshuba,Amateur Open,1980,82.3,150,160,170,170,110,115,122.5,122.5,,200,-210,210,210,502.5,82.5,M,Алексей Кошуба,SBD
Yes,Raw,5,Sergey Karpov,Amateur Open,1985,81.8,150,-162.5,162.5,162.5,-95,105,-110,105,,-160,165,180,180,447.5,82.5,M,Сергей Карпов,SBD
Yes,Raw,DQ,Dmitriy Bogdanov,Amateur Teen 18-19,1992,85.3,-180,-180,-180,,,,,,,,,,,,90,M,Дмитрий Богданов,SBD
Yes,Raw,1,Evgeniy Pivovarov,Amateur Juniors 20-23,1988,86,180,190,200,200,120,150,160,160,,200,210,220,220,580,90,M,Евгений Пивоваров,SBD
Yes,Raw,2,Roman Kozlov,Amateur Juniors 20-23,1987,88.4,130,-135,135,135,-95,97.5,100,100,,180,190,-200,190,425,90,M,Роман Козлов,SBD
Yes,Raw,3,Konstantin Kozlov,Amateur Juniors 20-23,1990,89.4,135,142.5,-145,142.5,95,100,102.5,102.5,,170,180,-185,180,425,90,M,Константин Козлов,SBD
Yes,Raw,1,Georgiy Gatitskiy,Amateur Open,1982,87.8,180,-200,200,200,135,145,150,150,,200,220,-230,220,570,90,M,Георгий Гатицкий,SBD
Yes,Raw,2,Andrey Yuroev,Amateur Open,1980,87.6,200,207.5,212,212,-130,130,-137.5,130,,-225,-225,225,225,567,90,M,Андрей Юроев,SBD
Yes,Raw,3,Denis Feofanov,Amateur Open,1980,86.7,170,180,187.5,187.5,127.5,135,-140,135,,220,232.5,-237.5,232.5,555,90,M,Денис Феофанов,SBD
Yes,Raw,4,Aleksandr Drozdov,Amateur Open,1980,85.9,170,180,-185,180,130,-140,-140,130,,220,-237.5,-237.5,220,530,90,M,Александр Дроздов,SBD
Yes,Raw,5,Nikita Zhavoronkov,Amateur Open,1985,86,-160,160,170,170,-110,110,120,120,,200,210,220,220,510,90,M,Никита Жаворонков,SBD
Yes,Raw,6,Dmitriy Khaylov,Amateur Open,1983,88.7,135,145,155,155,95,105,110,110,,160,175,185,185,450,90,M,Дмитрий Хайлов,SBD
Yes,Raw,1,Andrey Zhilin,Amateur Masters 40-44,1971,89.9,165,180,185,185,130,-137.5,140,140,,200,215,-222.5,215,540,90,M,Андрей Жилин,SBD
Yes,Raw,1,Igor Khrustalev,Amateur Masters 45-49,1964,88.8,155,162.5,-167.5,162.5,115,122.5,-127.5,122.5,,177.5,190,197.5,197.5,482.5,90,M,Игорь Хрусталев,SBD
Yes,Raw,1,Evgeniy Shibaev,Amateur Teen 16-17,1994,98.4,-100,110,115,115,67.5,-72.5,-75,67.5,,-145,145,150,150,332.5,100,M,Евгений Шибаев,SBD
Yes,Raw,1,Georgy Zaborovsky,Amateur Teen 18-19,1992,92.3,180,190,200,200,140,150,-155,150,,190,212.5,237.5,237.5,587.5,100,M,Георгий Заборовский,SBD
Yes,Raw,DD,Artem Kobanov,Amateur Teen 18-19,1992,96.7,185,-195,200,200,140,145,150,150,,210,225,235,235,,100,M,Артем Кобанов,SBD
Yes,Raw,1,Mikhail Bochkov,Amateur Juniors 20-23,1988,91.6,-200,210,220,220,155,165,170,170,,262.5,275,280,280,670,100,M,Михаил Бочков,SBD
Yes,Raw,2,Ilya Likhachev,Amateur Juniors 20-23,1989,92.6,-140,140,155,155,120,125,132.5,132.5,,165,175,185,185,472.5,100,M,Илья Лихачев,SBD
Yes,Raw,2,Denis Astakhov,Amateur Open,1984,99.6,270,275,282.5,282.5,155,160,-162.5,160,,280,292.5,-300,292.5,735,100,M,Денис Астахов,SBD
Yes,Raw,3,Dmitriy Kurinov,Amateur Open,1974,96,-210,215,-225,215,-137.5,137.5,145,145,,240,252.5,267.5,267.5,627.5,100,M,Дмитрий Куринов,SBD
Yes,Raw,4,Andrey Sukharev,Amateur Open,1974,98.3,220,230,235,235,-150,150,157.5,157.5,,220,230,235,235,627.5,100,M,Андрей Сухарев,SBD
Yes,Raw,5,Aleksandr Gorshkov,Amateur Open,1979,97.7,-180,180,-190,180,140,150,-157.5,150,,190,205,210,210,540,100,M,Александр Горшков,SBD
Yes,Raw,6,Magomed Gasiev,Amateur Open,1983,92.4,-150,162.5,175,175,125,137.5,145,145,,175,187.5,205,205,525,100,M,Магомед Гасиев,SBD
Yes,Raw,7,Sergey Gulidov,Amateur Open,1985,93.4,150,-160,160,160,115,-120,125,125,,170,190,215,215,500,100,M,Сергей Гулидов,SBD
Yes,Raw,8,Denis Boklachev,Amateur Open,1981,93.8,150,160,170,170,110,115,120,120,,165,180,190,190,480,100,M,Денис Боклачев,SBD
Yes,Raw,1,Valeriy Sytnikov,Amateur Masters 40-44,1970,91,145,-155,-155,145,115,125,130,130,,195,205,215,215,490,100,M,Валерий Сытников,SBD
Yes,Raw,2,Sergey Mavrenkov,Amateur Masters 40-44,1966,94.8,150,160,167.5,167.5,127.5,130,132.5,132.5,,170,180,190,190,490,100,M,Сергей Мавренков,SBD
Yes,Raw,1,Aleksandr Mishustin,Amateur Masters 45-49,1964,97.3,155,-165,165,165,130,140,-145,140,,175,195,-202.5,195,500,100,M,Александр Мишустин,SBD
Yes,Raw,1,Bogdan Boyko,Amateur Teen 18-19,1992,100.4,120,-140,140,140,120,130,-135,130,,200,220,-230,220,490,110,M,Богдан Бойко,SBD
Yes,Raw,1,Andrey Shmorgun,Amateur Open,1984,104.4,190,210,-220,210,160,170,175,175,,220,235,240,240,625,110,M,Андрей Шморгун,SBD
Yes,Raw,2,Igor Golovanov,Amateur Open,1983,109,195,205,210,210,150,155,160,160,,235,-245,250,250,620,110,M,Игорь Голованов,SBD
Yes,Raw,1,Igor Ziganchin,Amateur Open,1960,118.3,250,260,265,265,170,177.5,180,180,,260,275,282.5,282.5,727.5,125,M,Игорь Зиганчин,SBD
Yes,Raw,2,Evgeniy Baranov,Amateur Open,1982,112.5,230,245,255,255,160,-170,-170,160,,260,275,-285,275,690,125,M,Евгений Баранов,SBD
Yes,Raw,3,Igor Eltsov,Amateur Open,1978,116.9,225,232.5,235,235,160,167.5,175,175,,250,260,-267.5,260,670,125,M,Игорь Ельцов,SBD
Yes,Raw,4,Konstantin Agureev,Amateur Open,1975,118.2,210,230,-250,230,157.5,165,-172.5,165,,-230,245,260,260,655,125,M,Константин Агуреев,SBD
Yes,Raw,DQ,Dmitry Smirnov,Amateur Open,1978,115.7,-245,-245,-245,,,,,,,,,,,,125,M,Дмитрий Смирнов,SBD
Yes,Raw,1,Aleksandr Scherbak,Amateur Masters 40-44,1966,116,200,212.5,215,215,155,160,163,163,,220,240,-245,240,618,125,M,Александр Щербак,SBD
Yes,Raw,1,Igor Ziganchin,Amateur Masters 50-54,1960,118.3,240,255,267.5,267.5,165,175,180,180,,250,267.5,280,280,727.5,125,M,Игорь Зиганчин,SBD
Yes,Raw,1,Pavel Mishin,Amateur Open,1973,127.5,-205,210,220,220,142.5,150,-155,150,,230,245,-255,245,615,140,M,Павел Мишин,SBD
Yes,Multi-ply,1,Irina Dudyreva,Amateur Open,1990,46.5,105,-112.5,-112.5,105,-65,65,-70,65,,100,-110,,100,270,48,F,Ирина Дудырева,SBD
Yes,Multi-ply,1,Natalya Blinkova,Amateur Juniors 20-23,1991,56,110,-115,-115,110,60,67.5,70,70,,120,130,135,135,315,56,F,Наталья Блинкова,SBD
Yes,Multi-ply,2,Igor Filippov,Amateur Open,1984,73,-180,180,-200,180,110,120,127.5,127.5,,200,215,230,230,537.5,75,M,Игорь Филиппов,SBD
Yes,Multi-ply,1,Egor Lebedev,Amateur Teen 18-19,1992,79.3,150,-160,-165,150,100,105,110,110,,180,190,200,200,460,82.5,M,Егор Лебедев,SBD
Yes,Multi-ply,1,Georgiy Lazaridi,Amateur Masters 75-79,1933,81.4,-180,180,190,190,85,90,-92.5,90,,180,190,,190,470,82.5,M,Георгий Лазариди,SBD
Yes,Multi-ply,1,Aleksandr Evsyutkin,Amateur Juniors 20-23,1988,100,-230,230,-240,230,-150,155,-170,155,,200,-210,-210,200,585,100,M,Александр Евсюткин,SBD
Yes,Multi-ply,1,Dmitriy Solovyev #3,Amateur Open,1983,97.5,265,280,-290,280,-175,175,-185,175,,265,280,290,290,745,100,M,Дмитрий Соловьёв,SBD
Yes,Multi-ply,2,Denis Piklyaev,Amateur Open,1980,95.4,-250,250,270,270,180,200,210,210,,220,240,-255,240,720,100,M,Денис Пикляев,SBD
Yes,Multi-ply,3,Aleksey Samburov,Amateur Open,1975,98.7,230,245,-255,245,145,152.5,-157.5,152.5,,220,232.5,245,245,642.5,100,M,Алексей Самбуров,SBD
Yes,Multi-ply,1,Ruslan Pustovoy,Amateur Open,1979,102.6,-270,270,-300,270,160,175,-200,175,,240,260,-280,260,705,110,M,Руслан Пустовой,SBD
No,Raw,1,Sergey Yasnetsov,Pro Open,1981,68.6,170,-180,-180,170,120,130,-132.5,130,,180,200,-210,200,500,75,M,Сергей Яснецов,SBD
No,Raw,1,Aleksandr Kononov,Pro Juniors 20-23,1990,81.9,150,-160,-170,150,110,120,-130,120,,170,180,-190,180,450,82.5,M,Александр Кононов,SBD
No,Raw,1,Roman Durnov,Pro Open,1986,80.9,-215,215,-230,215,150,157.5,-162.5,157.5,,210,230,242.5,242.5,615,82.5,M,Роман Дурнов,SBD
No,Raw,2,Evgeniy Gorshkov,Pro Open,1981,78.4,180,190,,190,115,-120,-120,115,,230,240,245,245,550,82.5,M,Евгений Горшков,SBD
No,Raw,3,Aleksandr Kozin,Pro Open,1973,80.3,180,185,,185,127.5,-130,-130,127.5,,200,212.5,220,220,532.5,82.5,M,Александр Козин,SBD
No,Raw,4,Denis Lobanov,Pro Open,1986,80.8,130,140,-150,140,-110,110,-120,110,,200,-210,-210,200,450,82.5,M,Денис Лобанов,SBD
No,Raw,1,Kirill Zamyshlyaychenko,Pro Teen 16-17,1993,89.4,-160,160,165,165,110,115,-120,115,,-160,165,175,175,455,90,M,Кирилл Замышляйченко,SBD
No,Raw,1,Igor Paramonov,Pro Open,1983,87.8,-220,-230,230,230,150,160,-170,160,,240,260,-270,260,650,90,M,Игорь Парамонов,SBD
No,Raw,2,Andrey Latushkin,Pro Open,1976,90,195,205,212.5,212.5,140,-150,150,150,,240,-250,252.5,252.5,615,90,M,Андрей Латушкин,SBD
No,Raw,1,Andrey Zakhartsev,Pro Masters 40-44,1966,88.2,180,190,202.5,202.5,140,150,-160,150,,180,-195,210,210,562.5,90,M,Андрей Захарцев,SBD
No,Raw,1,Evgeniy Blinkov,Pro Juniors 20-23,1987,96.6,222.5,240,250,250,167.5,180,187.5,187.5,,252.5,267.5,-275,267.5,705,100,M,Евгений Блинков,SBD
No,Raw,1,Viktor Kalugin,Pro Open,1978,94.9,-230,230,-240,230,165,170,175,175,,300,315,325,325,730,100,M,Виктор Калугин,SBD
No,Raw,2,Vladimir Grevtsov,Pro Open,1985,99.1,220,230,250,250,-170,180,190,190,,270,280,287.5,287.5,727.5,100,M,Владимир Гревцов,SBD
No,Raw,3,Denis Matyushin,Pro Open,1984,95.9,215,-232.5,-232.5,215,170,177.5,185,185,,-242.5,250,260,260,660,100,M,Денис Матюшин,SBD
No,Raw,4,Aleksey Zhirnov,Pro Open,1981,96.6,-180,180,185,185,155,160,165,165,,-250,255,265,265,615,100,M,Алексей Жирнов,SBD
No,Raw,5,Dmitriy Melikhov,Pro Open,1979,98.1,195,-205,205,205,142.5,150,155,155,,215,225,235,235,595,100,M,Дмитрий Мелихов,SBD
No,Raw,1,Mikhail Tsatsulin,Pro Juniors 20-23,1988,108.1,235,250,260,260,155,162.5,170,170,,270,290,310,310,740,110,M,Михаил Цацулин,SBD
No,Raw,2,Igor Potapov,Pro Juniors 20-23,1987,107.8,185,-195,-195,185,140,-150,150,150,,200,220,-230,220,555,110,M,Игорь Потапов,SBD
No,Raw,1,Valeriy Sabelnikov,Pro Open,1971,110,260,270,-280,270,195,-200,200,200,,290,-307.5,-307.5,290,760,110,M,Валерий Сабельников,SBD
No,Raw,2,Roman Khaydarov,Pro Open,1983,109.6,250,-260,260,260,150,-160,-160,150,,270,290,-300,290,700,110,M,Роман Хайдаров,SBD
No,Raw,3,Aleksey Oleshko,Pro Open,1980,109.8,167.5,-170,185,185,155,165,172.5,172.5,,182.5,200,207.5,207.5,565,110,M,Алексей Олешко,SBD
No,Raw,1,Artem Savelyev,Pro Juniors 20-23,1988,111.1,280,300,-310,300,170,180,192.5,192.5,,300,320,-330,320,812.5,125,M,Артем Савельев,SBD
No,Raw,2,Kirill Bakarinov,Pro Juniors 20-23,1987,115.5,200,220,232.5,232.5,130,142.5,150,150,,-220,235,250,250,632.5,125,M,Кирилл Бакаринов,SBD
No,Raw,1,Artur Stepanov,Pro Open,1978,122.1,290,300,310,310,210,220,227.5,227.5,,320,-335,340,340,877.5,125,M,Артур Степанов,SBD
No,Raw,2,Roman Shevtsov,Pro Open,1982,115.3,230,250,265,265,180,190,200,200,,240,257.5,-272.5,257.5,722.5,125,M,Роман Шевцов,SBD
No,Raw,1,Andrey Glombotskiy,Pro Open,1976,127.2,240,250,,250,150,160,-170,160,,250,280,-300,280,690,140,M,Андрей Гломбоцкий,SBD
No,Raw,2,Kirill Aleskovskiy,Pro Open,1974,128.2,215,225,-235,225,130,140,150,150,,220,230,235,235,610,140,M,Кирилл Алесковский,SBD
No,Multi-ply,1,Polina Alkon-Churme,Pro Open,1978,58.4,-170,-180,180,180,50,60,-65,60,,150,160,-165,160,400,60,F,Полина Алькон-Чурме,SBD
No,Multi-ply,1,Vizhe Mirmirani,Pro Masters 45-49,1965,59.9,130,140,-150,140,70,-80,-80,70,,-125,-125,125,125,335,60,F,Виже Мирмирани,SBD
No,Multi-ply,1,Sergey Storchak,Pro Teen 18-19,1991,71.1,135,145,157.5,157.5,105,110,115,115,,130,150,170,170,442.5,75,M,Сергей Сторчак,SBD
No,Multi-ply,1,Anton Buyun,Pro Juniors 20-23,1987,74.9,200,207.5,-212.5,207.5,102.5,107.5,112.5,112.5,,175,180,190,190,510,75,M,Антон Буюн,SBD
No,Multi-ply,DQ,Aleksey Shavelyev,Pro Juniors 20-23,1988,69.5,-150,150,165,165,-115,-115,-115,,,-160,,,,,75,M,Алексей Шавельев,SBD
No,Multi-ply,1,Aleksandr Filatov,Pro Open,1975,74.5,-160,-160,160,160,100,-110,110,110,,170,185,200,200,470,75,M,Александр Филатов,SBD
No,Multi-ply,1,Sergey Blinov,Pro Juniors 20-23,1987,81.5,-300,300,315,315,205,215,-225,215,,270,-280,-280,270,800,82.5,M,Сергей Блинов,SBD
No,Single-ply,1,Aleksey Nikulin,Pro Open,1982,81.4,-300,-300,300,300,180,200,-215,200,,250,270,-280,270,770,82.5,M,Алексей Никулин,SBD
No,Multi-ply,2,Sergey Emelyanov,Pro Open,1971,76.8,190,200,210,210,140,150,-155,150,,190,200,-220,200,560,82.5,M,Сергей Емельянов,SBD
No,Multi-ply,1,Pavel Sudakov,Pro Teen 18-19,1991,97.6,320,-340,-340,320,180,190,-195,190,,250,265,-280.5,265,775,100,M,Павел Судаков,SBD
No,Multi-ply,2,Andrey Suslov,Pro Teen 18-19,1991,97.4,240,250,,250,170,180,,180,,-270,270,282.5,282.5,712.5,100,M,Андрей Суслов,SBD
No,Multi-ply,3,Nizami Tagiev,Pro Teen 18-19,1991,99.8,250,-270,-282.5,250,160,170,-180,170,,270,-290,-290,270,690,100,M,Низами Тагиев,SBD
No,Multi-ply,1,Aleksey Kireev,Pro Open,1980,98.5,300,-310,-315,300,180,190,-200,190,,290,-300,-300,290,780,100,M,Алексей Киреев,SBD
No,Multi-ply,2,Nikita Subbotin,Pro Open,1984,95.6,250,265,280,280,140,-150,150,150,,205,215,225,225,655,100,M,Никита Субботин,SBD
No,Multi-ply,3,Mikhail Prilepko,Pro Open,1980,98.4,210,220,230,230,160,170,180,180,,200,215,230,230,640,100,M,Михаил Прилепко,SBD
No,Multi-ply,1,Alexander Krovikov,Pro Masters 45-49,1961,95.2,210,220,230,230,-170,170,180,180,,210,-250,250,250,660,100,M,Александр Кровиков,SBD
No,Multi-ply,DQ,Maksim Avtukhov,Pro Juniors 20-23,1990,107.6,-300,-300,,,-220,,,,,-280,,,,,110,M,Максим Автухов,SBD
No,Multi-ply,1,Sergey Galkin,Pro Open,1981,108.3,250,270,280,280,220,230,-245,230,,220,245,260,260,770,110,M,Сергей Галкин,SBD
No,Multi-ply,1,Vasiliy Voropaev,Pro Masters 50-54,1956,101.7,200,210,220,220,-130,130,-140,130,,200,220,230,230,580,110,M,Василий Воропаев,SBD
No,Multi-ply,1,Aleksey Fokin,Pro Teen 18-19,1991,118,300,320,340,340,210,230,240,240,,-290,-290,290,290,870,125,M,Алексей Фокин,SBD
No,Multi-ply,DQ,Aleksandr Markovtsev,Pro Open,1972,123.9,280,-300,305,305,-190,-190,-190,,,-290,,,,,125,M,Александр Марковцев,SBD
No,Multi-ply,1,Ruslan Pikuza,Pro Open,1979,138.7,320,340,,340,210,-230,230,230,,270,-290,,270,840,140,M,Руслан Пикуза,SBD
No,Multi-ply,2,Aleksey Milovanov,Pro Open,1976,128.4,300,330,340,340,175,185,-190,185,,250,275,-295,275,800,140,M,Алексей Милованов,SBD
Yes,Raw,1,Tatyana Evtushenko,Amateur Open,1985,48,,,,,35,40,42.5,42.5,,,,,,42.5,48,F,Татьяна Евтушенко,B
Yes,Raw,1,Irina Lapshova,Amateur Masters 45-49,1964,51.6,,,,,50,55,55.5,55.5,,,,,,55.5,52,F,Ирина Лапшова,B
Yes,Raw,1,Nadezhda Vlasova,Amateur Open,1982,52.6,,,,,55,60,-62.5,60,,,,,,60,56,F,Надежда Власова,B
Yes,Raw,2,Marina Krasulina,Amateur Open,1978,55.2,,,,,-50,50,52.5,52.5,,,,,,52.5,56,F,Марина Красулина,B
Yes,Raw,1,Olga Semenova,Amateur Masters 40-44,1966,56,,,,,35,37.5,40,40,-40.5,,,,,40,56,F,Ольга Семенова,B
Yes,Raw,1,Anastasiya Rakcheeva,Amateur Masters 40-44,1971,59.6,,,,,85,90,95,95,-97.5,,,,,95,60,F,Анастасия Ракчеева,B
Yes,Raw,1,Olga Surkova,Amateur Juniors 20-23,1988,73,,,,,50,55,57.5,57.5,,,,,,57.5,75,F,Ольга Суркова,B
Yes,Raw,1,Elena Kulibaba,Amateur Open,1975,74,,,,,70,75,80,80,,,,,,80,75,F,Елена Кулибаба,B
Yes,Raw,2,Nina Biryukova,Amateur Open,1971,75,,,,,47.5,55,-62.5,55,,,,,,55,75,F,Нина Бирюкова,B
Yes,Raw,DQ,Erin Shel-Fetengof,Amateur Open,1983,112,,,,,-110,-110,-110,,,,,,,,90+,F,Эрин Шель-Фетенгоф,B
Yes,Raw,1,Ivan Gorelkin,Amateur Teen 16-17,1994,50,,,,,75,82.5,-85,82.5,,,,,,82.5,52,M,Иван Горелкин,B
Yes,Raw,1,Rostislav Lvov,Amateur Juniors 20-23,1991,51.4,,,,,50,57.5,-62.5,57.5,,,,,,57.5,52,M,Ростислав Львов,B
Yes,Raw,1,Egor Klimov,Amateur Teen 13-15,1996,59.7,,,,,40,45,52.5,52.5,,,,,,52.5,60,M,Егор Климов,B
Yes,Raw,1,Sergey Korolev,Amateur Teen 16-17,1993,58.9,,,,,100,105,-110,105,,,,,,105,60,M,Сергей Королев,B
Yes,Raw,1,Sergey Sergeev,Amateur Juniors 20-23,1990,57.6,,,,,100,105,110,110,,,,,,110,60,M,Сергей Сергеев,B
Yes,Raw,1,Aleksey Schipanov,Amateur Open,1980,59.7,,,,,110,115,-117.5,115,,,,,,115,60,M,Алексей Щипанов,B
Yes,Raw,1,Dmitriy Arkhipov,Amateur Teen 16-17,1994,63.1,,,,,100,105,-110,105,,,,,,105,67.5,M,Дмитрий Архипов,B
Yes,Raw,2,Andrey Kuznetsov,Amateur Teen 18-19,1992,65.3,,,,,95,100,-102.5,100,,,,,,100,67.5,M,Андрей Кузнецов,B
Yes,Raw,DQ,Aleksandr Abramov,Amateur Teen 18-19,1993,64.9,,,,,-80,,,,,,,,,,67.5,M,Александр Абрамов,B
Yes,Raw,1,Sergey Schukin,Amateur Juniors 20-23,1988,66.9,,,,,130,-132.5,,130,,,,,,130,67.5,M,Сергей Щукин,B
Yes,Raw,2,Ramazan Mukhtarov,Amateur Juniors 20-23,1989,67.2,,,,,130,-140,-140,130,,,,,,130,67.5,M,Рамазан Мухтаров,B
Yes,Raw,3,Ilya Filin,Amateur Juniors 20-23,1988,65.1,,,,,107.5,112.5,-115,112.5,,,,,,112.5,67.5,M,Илья Филин,B
Yes,Raw,1,Sergey Perevalov,Amateur Open,1981,66.1,,,,,130,135,137.5,137.5,,,,,,137.5,67.5,M,Сергей Перевалов,B
Yes,Raw,2,Ilya Koparev,Amateur Open,1977,67.4,,,,,125,130,135,135,,,,,,135,67.5,M,Илья Копарев,B
Yes,Raw,3,Ruslan Bayramov,Amateur Open,1986,67.4,,,,,122.5,-125,,122.5,,,,,,122.5,67.5,M,Руслан Байрамов,B
Yes,Raw,4,Samid Kuliev,Amateur Open,1983,65.6,,,,,-105,110,-120,110,,,,,,110,67.5,M,Самид Кулиев,B
Yes,Raw,1,Maksim Popov #5,Amateur Teen 18-19,1991,74.7,,,,,120,125,-127.5,125,,,,,,125,75,M,Максим Попов,B
Yes,Raw,1,Sergey Samsonov,Amateur Juniors 20-23,1989,71.7,,,,,120,130,135,135,,,,,,135,75,M,Сергей Самсонов,B
Yes,Raw,2,Dmitriy Shvetsov,Amateur Juniors 20-23,1988,74.7,,,,,127.5,135,-140,135,,,,,,135,75,M,Дмитрий Швецов,B
Yes,Raw,3,Gevorg Akopyan,Amateur Juniors 20-23,1990,69,,,,,130,-137.5,-142.5,130,,,,,,130,75,M,Геворг Акопян,B
Yes,Raw,4,Aleksandr Sereda,Amateur Juniors 20-23,1988,70.9,,,,,115,117.5,122.5,122.5,,,,,,122.5,75,M,Александр Середа,B
Yes,Raw,5,Aleksey Nechaev,Amateur Juniors 20-23,1987,74.1,,,,,110,-125,,110,,,,,,110,75,M,Алексей Нечаев,B
Yes,Raw,DQ,Anton Nelyapin,Amateur Juniors 20-23,1990,74,,,,,-135,-135,-135,,,,,,,,75,M,Антон Неляпин,B
Yes,Raw,1,Artem Larionov,Amateur Open,1978,73.9,,,,,-165,165,-167.5,165,,,,,,165,75,M,Артем Ларионов,B
Yes,Raw,2,Arkadiy Gipaev,Amateur Open,1976,72.8,,,,,145,155,-165,155,,,,,,155,75,M,Аркадий Гипаев,B
Yes,Raw,3,Stanislav Chugaev,Amateur Open,1974,72.8,,,,,-140,147.5,152.5,152.5,,,,,,152.5,75,M,Станислав Чугаев,B
Yes,Raw,4,Ivan Karangin,Amateur Open,1985,73.7,,,,,150,-155,-157.5,150,,,,,,150,75,M,Иван Карангин,B
Yes,Raw,5,Vladislav Ivanov,Amateur Open,1985,73.4,,,,,140,145,-150,145,,,,,,145,75,M,Владислав Иванов,B
Yes,Raw,6,Dmitriy Dergachev,Amateur Open,1982,73.9,,,,,-135,135,140,140,,,,,,140,75,M,Дмитрий Дергачев,B
Yes,Raw,7,Dmitriy Firsaev,Amateur Open,1983,73.4,,,,,125,132.5,-135,132.5,,,,,,132.5,75,M,Дмитрий Фирсаев,B
Yes,Raw,8,Andrey Dvoryanchikov,Amateur Open,1986,72.5,,,,,125,130,-132.5,130,,,,,,130,75,M,Андрей Дворянчиков,B
Yes,Raw,9,Yuriy Nikolaev,Amateur Open,1981,74,,,,,130,-132.5,-140,130,,,,,,130,75,M,Юрий Николаев,B
Yes,Raw,10,Roman Tuchin,Amateur Open,1982,71.6,,,,,100,115,-125,115,,,,,,115,75,M,Роман Тучин,B
Yes,Raw,11,Evgeniy Baranov,Amateur Open,1987,74.6,,,,,95,-102.5,-110,95,,,,,,95,75,M,Евгений Баранов,B
Yes,Raw,DQ,Aleksandr Masakovskiy,Amateur Open,1986,71,,,,,-110,-110,,,,,,,,,75,M,Александр Масаковский,B
Yes,Raw,DQ,Ilya Lobyntsev,Amateur Open,1985,72.3,,,,,-87.5,-87.5,-100,,,,,,,,75,M,Илья Лобынцев,B
Yes,Raw,DQ,Mikhail Yurkov,Amateur Open,1986,73.3,,,,,-105,-105,-110,,,,,,,,75,M,Михаил Юрков,B
Yes,Raw,1,Nikolay Kireev,Amateur Masters 45-49,1963,73.7,,,,,117.5,125,132.5,132.5,,,,,,132.5,75,M,Николай Киреев,B
Yes,Raw,1,Valerian Brendelev,Amateur Masters 70-74,1938,73.5,,,,,80,85,-90,85,,,,,,85,75,M,Валериан Бренделев,B
Yes,Raw,DQ,Vladimir Grayvoronskiy,Amateur Teen 13-15,1995,78.5,,,,,-65,,,,,,,,,,82.5,M,Владимир Грайворонский,B
Yes,Raw,1,Sergey Azopkov,Amateur Teen 18-19,1991,82.5,,,,,132.5,-137.5,-137.5,132.5,,,,,,132.5,82.5,M,Сергей Азопков,B
Yes,Raw,1,Stepan Dolushkin,Amateur Juniors 20-23,1987,78.6,,,,,145,150,155,155,,,,,,155,82.5,M,Степан Долушкин,B
Yes,Raw,2,Vadim Ostrovskiy,Amateur Juniors 20-23,1987,81.4,,,,,-145,145,150,150,,,,,,150,82.5,M,Вадим Островский,B
Yes,Raw,3,Vladislav Girko,Amateur Juniors 20-23,1987,80,,,,,132.5,135,140,140,,,,,,140,82.5,M,Владислав Гирко,B
Yes,Raw,4,Andrey Litvinov,Amateur Juniors 20-23,1988,82.35,,,,,132.5,-140,-140,132.5,,,,,,132.5,82.5,M,Андрей Литвинов,B
Yes,Raw,5,Nikolay Balugin,Amateur Juniors 20-23,1987,76.5,,,,,125,130,-132.5,130,,,,,,130,82.5,M,Николай Балугин,B
Yes,Raw,6,Aleksey Bukhanov,Amateur Juniors 20-23,1989,78.6,,,,,115,-125,125,125,,,,,,125,82.5,M,Алексей Буханов,B
Yes,Raw,7,Aleksey Trofimov,Amateur Juniors 20-23,1989,81.1,,,,,-110,115,-120,115,,,,,,115,82.5,M,Алексей Трофимов,B
Yes,Raw,8,Petr Samko,Amateur Juniors 20-23,1987,79.2,,,,,95,102.5,105,105,,,,,,105,82.5,M,Петр Самко,B
Yes,Raw,1,Aleksandr Drosin,Amateur Open,1982,82.5,,,,,165,172.5,177.5,177.5,,,,,,177.5,82.5,M,Александр Дросин,B
Yes,Raw,2,Denis Dobryanskiy,Amateur Open,1977,82.5,,,,,140,147.5,152.5,152.5,,,,,,152.5,82.5,M,Денис Добрянский,B
Yes,Raw,3,Aleksandr Olisov,Amateur Open,1982,79,,,,,130,135,140,140,,,,,,140,82.5,M,Александр Олисов,B
Yes,Raw,4,Kiril Lunga,Amateur Open,1977,79.8,,,,,125,132.5,-137.5,132.5,,,,,,132.5,82.5,M,Кирилл Линник,B
Yes,Raw,5,Aleksandr Lebedev,Amateur Open,1986,80.1,,,,,-120,125,-132.5,125,,,,,,125,82.5,M,Александр Лебедев,B
Yes,Raw,6,Vladimir Bolataev,Amateur Open,1983,81.7,,,,,-120,125,-132.5,125,,,,,,125,82.5,M,Владимир Болатаев,B
Yes,Raw,7,Mikhail Ozerov,Amateur Open,1984,76.9,,,,,115,-132.5,-132.5,115,,,,,,115,82.5,M,Михаил Озеров,B
Yes,Raw,DQ,Dimitriy Alekhin,Amateur Open,1977,82.3,,,,,-150,-150,-150,,,,,,,,82.5,M,Димитрий Алехин,B
Yes,Raw,1,Ilya Timofeev,Amateur Masters 40-44,1970,82,,,,,120,130,135,135,,,,,,135,82.5,M,Илья Тимофеев,B
Yes,Raw,2,Oleg Kuznetsov,Amateur Masters 40-44,1968,80.8,,,,,110,115,-120,115,,,,,,115,82.5,M,Олег Кузнецов,B
Yes,Raw,1,Vladimir Kornishin,Amateur Masters 55-59,1952,80,,,,,105,110,115,115,,,,,,115,82.5,M,Владимир Корнишин,B
Yes,Raw,1,Evgeniy Pivovarov,Amateur Juniors 20-23,1988,85.7,,,,,155,160,165,165,,,,,,165,90,M,Евгений Пивоваров,B
Yes,Raw,2,Maksim Sakun,Amateur Juniors 20-23,1987,87.6,,,,,140,150,155,155,,,,,,155,90,M,Максим Сакун,B
Yes,Raw,3,Valeriy Babushkin,Amateur Juniors 20-23,1990,83.9,,,,,125,-137.5,142.5,142.5,,,,,,142.5,90,M,Валерий Бабушкин,B
Yes,Raw,4,Maksim Volkov,Amateur Juniors 20-23,1989,88.6,,,,,130,137.5,142.5,142.5,,,,,,142.5,90,M,Максим Волков,B
Yes,Raw,5,Maksim Schelovanov,Amateur Juniors 20-23,1987,87.2,,,,,130,137.5,-142.5,137.5,,,,,,137.5,90,M,Максим Щелованов,B
Yes,Raw,6,Artem Lakeev,Amateur Juniors 20-23,1989,83.3,,,,,122.5,-127.5,-127.5,122.5,,,,,,122.5,90,M,Артем Лакеев,B
Yes,Raw,1,Aleksey Kotov,Amateur Open,1974,88.7,,,,,165,170,175,175,,,,,,175,90,M,Алексей Котов,B
Yes,Raw,2,Andrey Grigoryev,Amateur Open,1975,89,,,,,147.5,155,-160,155,,,,,,155,90,M,Андрей Григорьев,B
Yes,Raw,3,Aleksandr Potapenko,Amateur Open,1975,87.5,,,,,145,-155,-155,145,,,,,,145,90,M,Александр Потапенко,B
Yes,Raw,4,Oleg Kharitonov,Amateur Open,1975,87.6,,,,,140,145,-150,145,,,,,,145,90,M,Олег Харитонов,B
Yes,Raw,5,Dmitriy Barkov,Amateur Open,1984,88.1,,,,,135,145,-155,145,,,,,,145,90,M,Дмитрий Барков,B
Yes,Raw,6,Vladislav Burdeynyy,Amateur Open,1985,84,,,,,137.5,142.5,-145,142.5,,,,,,142.5,90,M,Владислав Бурдейный,B
Yes,Raw,7,Georgiy Gatitskiy,Amateur Open,1982,87.8,,,,,140,-150,-155,140,,,,,,140,90,M,Георгий Гатицкий,B
Yes,Raw,8,Ivan Semenov,Amateur Open,1978,87.6,,,,,137.5,-155,-155,137.5,,,,,,137.5,90,M,Иван Семенов,B
Yes,Raw,9,Dmitriy Lanin,Amateur Open,1980,88.7,,,,,137.5,-155,-155,137.5,,,,,,137.5,90,M,Дмитрий Ланин,B
Yes,Raw,10,Andrey Gonchar,Amateur Open,1976,89.8,,,,,-135,137.5,-140,137.5,,,,,,137.5,90,M,Андрей Гончар,B
Yes,Raw,11,Aleksandr Drozdov,Amateur Open,1980,85.9,,,,,130,-137.5,-137.5,130,,,,,,130,90,M,Александр Дроздов,B
Yes,Raw,12,Stepan Popov,Amateur Open,1982,87.5,,,,,110,117.5,-120,117.5,,,,,,117.5,90,M,Степан Попов,B
Yes,Raw,13,Yakov Bednyakov,Amateur Open,1979,84.5,,,,,115,-120,,115,,,,,,115,90,M,Яков Бедняков,B
Yes,Raw,DQ,Aleksandr Gaykin,Amateur Open,1985,87.8,,,,,-110,-110,-120,,,,,,,,90,M,Александр Гайкин,B
Yes,Raw,DQ,Konstantin Ushnurtsev,Amateur Open,1986,89.5,,,,,-125,-137.5,-137.5,,,,,,,,90,M,Константин Ушнурцев,B
Yes,Raw,1,Pavel Zhirnov,Amateur Masters 40-44,1971,88.5,,,,,140,147.5,-150,147.5,,,,,,147.5,90,M,Павел Жирнов,B
Yes,Raw,2,Andrey Zhilin,Amateur Masters 40-44,1971,89.9,,,,,130,137.5,-142.5,137.5,,,,,,137.5,90,M,Андрей Жилин,B
Yes,Raw,1,Konstantin Arkhangelskiy,Amateur Masters 45-49,1964,89.5,,,,,155,160,-162.5,160,,,,,,160,90,M,Константин Архангельский,B
Yes,Raw,2,Andrey Yurkov,Amateur Masters 45-49,1961,86.3,,,,,140,150,155,155,,,,,,155,90,M,Андрей Юрков,B
Yes,Raw,1,Andrey Salov,Amateur Masters 50-54,1959,87.9,,,,,135,145,-152.5,145,,,,,,145,90,M,Андрей Салов,B
Yes,Raw,1,Vyacheslav Stanchak,Amateur Masters 55-59,1952,86.3,,,,,130,137.5,-142.5,137.5,,,,,,137.5,90,M,Вячеслав Станчак,B
Yes,Raw,2,Mikhail Aleksakov,Amateur Masters 55-59,1954,88,,,,,112.5,122.5,127.5,127.5,,,,,,127.5,90,M,Михаил Алексаков,B
Yes,Raw,1,Artem Kobanov,Amateur Teen 18-19,1992,96.7,,,,,142.5,150,-155,150,,,,,,150,100,M,Артем Кобанов,B
Yes,Raw,1,Egor Konstantinov,Amateur Juniors 20-23,1988,95.3,,,,,160,-162.5,-162.5,160,,,,,,160,100,M,Егор Константинов,B
Yes,Raw,2,Dmitriy Kirsanov,Amateur Juniors 20-23,1988,92.6,,,,,145,155,-162.5,155,,,,,,155,100,M,Дмитрий Кирсанов,B
Yes,Raw,3,Ilya Bobov,Amateur Juniors 20-23,1988,97,,,,,-130,-142.5,142.5,142.5,,,,,,142.5,100,M,Илья Бобов,B
Yes,Raw,1,Denis Grebnev,Amateur Open,1986,99.1,,,,,210,-220,-225,210,,,,,,210,100,M,Денис Гребнев,B
Yes,Raw,2,Nikolay Zhukov,Amateur Open,1978,93.3,,,,,160,170,175,175,,,,,,175,100,M,Николай Жуков,B
Yes,Raw,3,Pavel Rysenkov,Amateur Open,1978,98,,,,,165,172.5,,172.5,,,,,,172.5,100,M,Павел Рысенков,B
Yes,Raw,4,Pavel Milovanov,Amateur Open,1977,99.1,,,,,-167.5,167.5,-175,167.5,,,,,,167.5,100,M,Павел Милованов,B
Yes,Raw,5,Dmitriy Nosov,Amateur Open,1971,94.5,,,,,152.5,162.5,165,165,,,,,,165,100,M,Дмитрий Носов,B
Yes,Raw,6,Aleksey Domashevskiy,Amateur Open,1983,98.7,,,,,150,-162.5,162.5,162.5,,,,,,162.5,100,M,Алексей Домашевский,B
Yes,Raw,7,Rodion Kazin,Amateur Open,1973,99,,,,,150,162.5,-172.5,162.5,,,,,,162.5,100,M,Родион Казин,B
Yes,Raw,8,Andrey Myakshin,Amateur Open,1971,99.2,,,,,150,157.5,162.5,162.5,,,,,,162.5,100,M,Андрей Мякшин,B
Yes,Raw,9,Aleksey Korovushkin,Amateur Open,1985,100,,,,,155,-162.5,-162.5,155,,,,,,155,100,M,Алексей Коровушкин,B
Yes,Raw,10,Igor Balashov,Amateur Open,1978,99.4,,,,,152.5,-157.5,-157.5,152.5,,,,,,152.5,100,M,Игорь Балашов,B
Yes,Raw,11,Artem Goncharenko,Amateur Open,1982,95.4,,,,,142.5,147.5,150,150,,,,,,150,100,M,Артем Гончаренко,B
Yes,Raw,12,Daniil Savik,Amateur Open,1992,98.4,,,,,-130,142.5,150,150,,,,,,150,100,M,Даниил Савик,B
Yes,Raw,13,Konstantin Semov,Amateur Open,1978,96.4,,,,,130,-142.5,,130,,,,,,130,100,M,Константин Семов,B
Yes,Raw,14,Anton Vetrov,Amateur Open,1986,92.8,,,,,125,-142.5,-142.5,125,,,,,,125,100,M,Антон Ветров,B
Yes,Raw,15,Dmitriy Panteleev,Amateur Open,1976,98.6,,,,,120,125,-127.5,125,,,,,,125,100,M,Дмитрий Пантелеев,B
Yes,Raw,DQ,Fedor Kifishin,Amateur Open,1974,93.4,,,,,-130,-130,,,,,,,,,100,M,Федор Кифишин,B
Yes,Raw,1,Aleksey Artemov,Amateur Masters 40-44,1966,94.9,,,,,-125,-125,125,125,,,,,,125,100,M,Алексей Артемов,B
Yes,Raw,1,Aleksey Kozhevnikov,Amateur Masters 45-49,1964,95.9,,,,,130,-140,140,140,,,,,,140,100,M,Алексей Кожевников,B
Yes,Raw,2,Andrei Sukin,Amateur Masters 45-49,1963,98.1,,,,,125,130,-132.5,130,,,,,,130,100,M,Андрей Сукин,B
Yes,Raw,1,Anton Bokhanov,Amateur Juniors 20-23,1988,104.9,,,,,140,147.5,155,155,,,,,,155,110,M,Антон Боханов,B
Yes,Raw,2,Gleb Kireev,Amateur Juniors 20-23,1988,101.3,,,,,115,130,-135,130,,,,,,130,110,M,Глеб Киреев,B
Yes,Raw,1,Vasiliy Sidorov,Amateur Open,1977,109,,,,,180,190,195,195,,,,,,195,110,M,Василий Сидоров,B
Yes,Raw,2,Dmitriy Mukhin,Amateur Open,1983,102.9,,,,,170,-182.5,182.5,182.5,,,,,,182.5,110,M,Дмитрий Мухин,B
Yes,Raw,3,N. Emelyanov,Amateur Open,1979,108.4,,,,,170,177.5,182.5,182.5,,,,,,182.5,110,M,Николай Емельянов,B
Yes,Raw,4,Andrey Shmorgun,Amateur Open,1984,106.2,,,,,160,170,-175,170,,,,,,170,110,M,Андрей Шморгун,B
Yes,Raw,5,Eduard Gaynullin,Amateur Open,1975,104.1,,,,,147.5,152.5,160,160,,,,,,160,110,M,Эдуард Гайнуллин,B
Yes,Raw,6,Sergey Kucher,Amateur Open,1985,101.5,,,,,150,-155,157.5,157.5,,,,,,157.5,110,M,Сергей Кучер,B
Yes,Raw,7,Maksim Safin,Amateur Open,1983,101.5,,,,,130,147.5,155,155,,,,,,155,110,M,Максим Сафин,B
Yes,Raw,8,Svyatoslav Kotik,Amateur Open,1992,106.6,,,,,142.5,147.5,150,150,,,,,,150,110,M,Святослав Котик,B
Yes,Raw,9,Vladislav Scherbakov,Amateur Open,1977,107.7,,,,,150,-167.5,-167.5,150,,,,,,150,110,M,Владислав Щербаков,B
Yes,Raw,10,Vladimir Pankov,Amateur Open,1978,110,,,,,-147.5,147.5,-167.5,147.5,,,,,,147.5,110,M,Владимир Паньков,B
Yes,Raw,11,Andrey Saakyan,Amateur Open,1983,105.4,,,,,-137.5,142.5,-147.5,142.5,,,,,,142.5,110,M,Андрей Саакян,B
Yes,Raw,12,Dmitriy Zaytsev,Amateur Open,1975,105.6,,,,,130,137.5,-140,137.5,,,,,,137.5,110,M,Дмитрий Зайцев,B
Yes,Raw,1,Dmitriy Penkin,Amateur Masters 40-44,1970,106.7,,,,,170,180,-185,180,,,,,,180,110,M,Дмитрий Пенкин,B
Yes,Raw,2,Nikolay Semenov,Amateur Masters 40-44,1969,105.5,,,,,150,155,-157.5,155,,,,,,155,110,M,Николай Семенов,B
Yes,Raw,1,Leonid Baryagin,Amateur Masters 45-49,1961,107.7,,,,,130,-140,140,140,,,,,,140,110,M,Леонид Барягин,B
Yes,Raw,1,Andrei Zavgorodnyy,Amateur Open,1981,123,,,,,242.5,245,,245,,,,,,245,125,M,Андрей Завгородный,B
Yes,Raw,2,Pavel Perminov,Amateur Open,1986,125,,,,,172.5,180,-190,180,,,,,,180,125,M,Павел Перминов,B
Yes,Raw,3,Dmitriy Kuleshov,Amateur Open,1977,120.4,,,,,145,155,160,160,,,,,,160,125,M,Дмитрий Кулешов,B
Yes,Raw,4,Aleksandr Fomin,Amateur Open,1975,111.9,,,,,135,-155,-155,135,,,,,,135,125,M,Александр Фомин,B
Yes,Raw,1,Denis Ogloblin,Amateur Masters 40-44,1967,116.2,,,,,200,205,207.5,207.5,,,,,,207.5,125,M,Денис Оглоблин,B
Yes,Raw,1,Aleksandr Semenov,Amateur Open,1966,137.7,,,,,190,200,210,210,,,,,,210,140,M,Александр Семенов,B
Yes,Raw,2,Roman Marachev,Amateur Open,1978,131.9,,,,,182.5,190,-200,190,,,,,,190,140,M,Роман Марачев,B
Yes,Raw,3,Roman Mishurenkov,Amateur Open,1982,138.6,,,,,160,180,-185,180,,,,,,180,140,M,Роман Мишуренков,B
Yes,Raw,1,Ivan Falin,Amateur Open,1975,140.4,,,,,150,160,170,170,,,,,,170,140+,M,Иван Фалин,B
Yes,Multi-ply,1,Irina Dudyreva,Amateur Open,1990,47,,,,,65,70,72.5,72.5,,,,,,72.5,48,F,Ирина Дудырева,B
Yes,Multi-ply,1,Natalya Blinkova,Amateur Teen 18-19,1991,53,,,,,65,72.5,75,75,,,,,,75,56,F,Наталья Блинкова,B
Yes,Multi-ply,1,Aleksandr Fedorov,Amateur Open,1976,60,,,,,115,120,125,125,,,,,,125,60,M,Александр Федоров,B
Yes,Multi-ply,1,Gevorg Akopyan,Amateur Juniors 20-23,1990,69,,,,,140,-145,,140,,,,,,140,75,M,Геворг Акопян,B
Yes,Multi-ply,1,Konstantin Sapunkov,Amateur Open,1981,75,,,,,150,157.5,162.5,162.5,,,,,,162.5,75,M,Константин Сапунков,B
Yes,Multi-ply,1,Vladimir Grayvoronskiy,Amateur Teen 13-15,1995,78.5,,,,,65,70,-75,70,,,,,,70,82.5,M,Владимир Грайворонский,B
Yes,Multi-ply,1,Aleksey Krasavtsev,Amateur Open,1972,81.5,,,,,160,-170,-170,160,,,,,,160,82.5,M,Алексей Красавцев,B
Yes,Multi-ply,DQ,Denis Dobryanskiy,Amateur Open,1977,82.5,,,,,-180,-180,-190,,,,,,,,82.5,M,Денис Добрянский,B
Yes,Multi-ply,1,Ivan Poryadin,Amateur Open,1982,88,,,,,230,-240,-240,230,,,,,,230,90,M,Иван Порядин,B
Yes,Multi-ply,2,Anton Sosunov,Amateur Open,1980,87.8,,,,,120,130,-140,130,,,,,,130,90,M,Антон Сосунов,B
Yes,Multi-ply,1,Igor Rachkov,Amateur Masters 45-49,1965,85.4,,,,,140,-150,150,150,,,,,,150,90,M,Игорь Рачков,B
Yes,Multi-ply,1,Pavel Chidingov,Amateur Open,1969,98.9,,,,,-200,200,212.5,212.5,,,,,,212.5,100,M,Павел Чидингов,B
Yes,Multi-ply,1,Roman Shulenin,Amateur Open,1975,105.7,,,,,210,220,-230,220,,,,,,220,110,M,Роман Шуленин,B
Yes,Multi-ply,2,Aleksey Ventsov,Amateur Open,1980,106.4,,,,,205,-212.5,215,215,,,,,,215,110,M,Алексей Венцов,B
Yes,Multi-ply,1,Vladimir Poletaev,Amateur Open,1972,112.1,,,,,-282.5,282.5,,282.5,,,,,,282.5,125,M,Владимир Полетаев,B
Yes,Multi-ply,2,Filipp Buravlev,Amateur Open,1979,120.5,,,,,200,210,220,220,,,,,,220,125,M,Филипп Буравлев,B
Yes,Multi-ply,DQ,Valeriy Kurochkin,Amateur Open,1978,110.5,,,,,-280,-300,-300,,,,,,,,125,M,Валерий Курочкин,B
Yes,Multi-ply,1,Vasiliy Filatov,Amateur Open,1986,126.1,,,,,240,250,260,260,-270,,,,,260,140,M,Василий Филатов,B
Yes,Multi-ply,2,Vladimir Shmyrin,Amateur Open,1984,127.6,,,,,-225,-225,225,225,,,,,,225,140,M,Владимир Шмырин,B
Yes,Multi-ply,3,Roman Marachev,Amateur Open,1978,131.9,,,,,220,-230,-240,220,,,,,,220,140,M,Роман Марачев,B
No,Raw,1,Mariya Rezvykh,Pro Open,1985,57.8,,,,,50,55,-57.5,55,,,,,,55,60,F,Мария Резвых,B
No,Raw,1,Oleg Grudinin,Pro Open,1986,40,,,,,57.5,60,61,61,-62.5,,,,,61,52,M,Олег Грудинин,B
No,Raw,1,Andrei Zhilin,Pro Open,1980,66.8,,,,,120,125,-127.5,125,,,,,,125,67.5,M,Андрей Жилин,B
No,Raw,1,Konstantin Zhigulin,Pro Juniors 20-23,1987,71.6,,,,,125,132.5,137.5,137.5,,,,,,137.5,75,M,Константин Жигулин,B
No,Raw,1,Nikolay Petrakovich,Pro Open,1979,71,,,,,130,135,140,140,,,,,,140,75,M,Николай Петракович,B
No,Raw,DQ,Mikhail Korolev,Pro Teen 18-19,1992,78.5,,,,,-117.5,-117.5,-122.5,,,,,,,,82.5,M,Михаил Королев,B
No,Raw,1,Aleksandr Belskikh,Pro Juniors 20-23,1987,78.3,,,,,155,160,-165,160,,,,,,160,82.5,M,Александр Бельских,B
No,Raw,2,Andrey Baydalov,Pro Juniors 20-23,1991,78.4,,,,,145,152.5,-157.5,152.5,,,,,,152.5,82.5,M,Андрей Байдалов,B
No,Raw,1,Aleksey Khvatov,Pro Open,1968,81.3,,,,,180,-190,190,190,,,,,,190,82.5,M,Алексей Хватов,B
No,Raw,2,Artem Arkhipov,Pro Open,1982,79.3,,,,,150,160,-170,160,,,,,,160,82.5,M,Артем Архипов,B
No,Raw,3,Igor Bogachev,Pro Open,1977,81.6,,,,,145,155,-160,155,,,,,,155,82.5,M,Игорь Богачев,B
No,Raw,4,Andrey Danilov,Pro Open,1985,78.8,,,,,110,115,-117.5,115,,,,,,115,82.5,M,Андрей Данилов,B
No,Raw,1,Vladimir Fateev,Pro Masters 45-49,1964,81.8,,,,,160,165,170,170,,,,,,170,82.5,M,Владимир Фатеев,B
No,Raw,1,Maksim Svintsov,Pro Open,1987,88.8,,,,,175,185,190,190,,,,,,190,90,M,Максим Свинцов,B
No,Raw,2,Aleksandr Kalyagin,Pro Open,1983,89,,,,,170,177.5,-180,177.5,,,,,,177.5,90,M,Александр Калягин,B
No,Raw,3,Igor Kalugin,Pro Open,1983,88.8,,,,,160,-167.5,-167.5,160,,,,,,160,90,M,Игорь Калугин,B
No,Raw,4,Matvey Scherbinin,Pro Open,1979,85.4,,,,,145,-155,-155,145,,,,,,145,90,M,Матвей Щербинин,B
No,Raw,1,Pavel Sudakov,Pro Teen 18-19,1991,97.6,,,,,150,,,150,,,,,,150,100,M,Павел Судаков,B
No,Raw,1,Ilya Kirsanov,Pro Juniors 20-23,1987,96.4,,,,,200,210,-220,210,,,,,,210,100,M,Илья Кирсанов,B
No,Raw,1,Ivan Miron,Pro Open,1986,93.5,,,,,150,160,-170,160,,,,,,160,100,M,Иван Мирон,B
No,Raw,2,Dmitriy Sarana,Pro Open,1972,94,,,,,150,160,-162.5,160,,,,,,160,100,M,Дмитрий Сарана,B
No,Raw,2,Ivan Polyakov,Pro Open,1974,108.2,,,,,185,-202.5,202.5,202.5,,,,,,202.5,110,M,Иван Поляков,B
No,Raw,3,Mikhail Knyazkov,Pro Open,1978,101.5,,,,,175,185,190,190,,,,,,190,110,M,Михаил Князьков,B
No,Raw,4,Georgiy Gusakov,Pro Open,1986,106.8,,,,,-185,190,-202.5,190,,,,,,190,110,M,Георгий Гусаков,B
No,Raw,5,Aleksey Yudin,Pro Open,1985,101.5,,,,,175,-185,-185,175,,,,,,175,110,M,Алексей Юдин,B
No,Raw,6,Denis Borozna,Pro Open,1972,106,,,,,140,157.5,170,170,,,,,,170,110,M,Денис Борозна,B
No,Raw,1,Vadim Shamkov,Pro Masters 40-44,1967,108.4,,,,,160,170,175,175,,,,,,175,110,M,Вадим Шамков,B
No,Raw,1,Aleksandr Dmitriev,Pro Masters 45-49,1964,108.7,,,,,170,180,-190,180,,,,,,180,110,M,Александр Дмитриев,B
No,Raw,1,Roman Knischuk,Pro Open,1975,112.9,,,,,210,220,227.5,227.5,,,,,,227.5,125,M,Роман Книщук,B
No,Raw,2,Oleg Zaytsev,Pro Open,1976,114,,,,,205,212.5,222.5,222.5,,,,,,222.5,125,M,Олег Зайцев,B
No,Raw,3,Andrey Grudkin,Pro Open,1984,110.5,,,,,210,215,220,220,,,,,,220,125,M,Андрей Грудкин,B
No,Raw,4,Vadim Lebedev,Pro Open,1985,120,,,,,160,170,180,180,,,,,,180,125,M,Вадим Лебедев,B
No,Raw,DQ,Ruslan Pikuza,Pro Open,1979,138.6,,,,,-100,,,,,,,,,,140,M,Руслан Пикуза,B
No,Raw,1,Aleksandr Dorokhov,Pro Masters 40-44,1968,125.4,,,,,175,-185,-185,175,,,,,,175,140,M,Александр Дорохов,B
No,Raw,1,Viktor Kozlov,Pro Masters 45-49,1963,132.5,,,,,225,232.5,-240,232.5,,,,,,232.5,140,M,Виктор Козлов,B
No,Multi-ply,1,Konstantin Zhigulin,Pro Juniors 20-23,1987,71.6,,,,,155,-165,-170,155,,,,,,155,75,M,Константин Жигулин,B
No,Multi-ply,1,Aleksey Stepanov,Pro Juniors 20-23,1988,79.7,,,,,145,-155,,145,,,,,,145,82.5,M,Алексей Степанов,B
No,Multi-ply,1,Artem Arkhipov,Pro Open,1982,79.3,,,,,170,185,-205,185,,,,,,185,82.5,M,Артем Архипов,B
No,Multi-ply,DQ,Aleksey Kolenkin,Pro Open,1983,79.3,,,,,-200,-205,-205,,,,,,,,82.5,M,Алексей Коленкин,B
No,Multi-ply,1,Pavel Grigoryev,Pro Juniors 20-23,1988,88.3,,,,,210,-215,215,215,,,,,,215,90,M,Павел Григорьев,B
No,Multi-ply,DQ,Aleksey Rudkov,Pro Open,1974,88.7,,,,,-170,-170,-202.5,,,,,,,,90,M,Алексей Рудков,B
No,Multi-ply,1,Maksim Krivoruchenko,Pro Juniors 20-23,1990,100,,,,,-170,180,-190,180,,,,,,180,100,M,Максим Криворученко,B
No,Multi-ply,DQ,Maksim Stepanov #4,Pro Juniors 20-23,1988,97.8,,,,,-170,-170,-170,,,,,,,,100,M,Максим Степанов,B
No,Multi-ply,DQ,Ilya Konkov,Pro Juniors 20-23,1989,98.1,,,,,-215,-215,-215,,,,,,,,100,M,Илья Коньков,B
No,Multi-ply,1,Mikhail Schegol'kov,Pro Open,1972,97.2,,,,,255,265,-272.5,265,,,,,,265,100,M,Михаил Щегольков,B
No,Multi-ply,3,Igor Kalyta,Pro Open,1982,92.9,,,,,220,230,-240,230,,,,,,230,100,M,,B
No,Multi-ply,4,Leonid Golyatskiy,Pro Open,1980,96.8,,,,,-205,205,-225,205,,,,,,205,100,M,Леонид Голяцкий,B
No,Multi-ply,DQ,Maxim Sinetskin,Pro Open,1978,98.5,,,,,-242.5,-242.5,-242.5,,,,,,,,100,M,Максим Синецкин,B
No,Multi-ply,1,Roman Brekhov,Pro Juniors 20-23,1990,103.1,,,,,210,225,-240,225,,,,,,225,110,M,Роман Брехов,B
No,Multi-ply,1,Yaroslav Golubev,Pro Open,1980,107.8,,,,,260,270,-280,270,,,,,,270,110,M,Ярослав Голубев,B
No,Multi-ply,2,Igor Malyanov,Pro Open,1980,109.2,,,,,260,270,,270,,,,,,270,110,M,Игорь Малянов,B
No,Multi-ply,DQ,Konstantin Konstantinov,Pro Open,1978,109.7,,,,,-200,-200,,,,,,,,,110,M,Константин Константинов,B
No,Multi-ply,1,Viktor Naydenov,Pro Open,1987,115,,,,,330,345,355,355,,,,,,355,125,M,Виктор Найденов,B
No,Multi-ply,2,Aleksey Krasavin,Pro Open,1980,111.5,,,,,285,-300,-300,285,,,,,,285,125,M,Алексей Красавин,B
No,Multi-ply,3,Viktor Fursov,Pro Open,1974,111.8,,,,,245,255,-265,255,,,,,,255,125,M,Виктор Фурсов,B
No,Multi-ply,4,Vadim Lebedev,Pro Open,1985,120,,,,,190,200,-215,200,,,,,,200,125,M,Вадим Лебедев,B
No,Multi-ply,1,Oleg Zaytsev,Pro Masters 40-44,1969,119.5,,,,,210,220,-230,220,,,,,,220,125,M,Олег Зайцев,B
No,Multi-ply,2,Dmitry Shvedov-Viardo,Pro Masters 40-44,1968,114.5,,,,,200,-210,-210,200,,,,,,200,125,M,Дмитрий Шведов-Виардо,B
No,Multi-ply,1,Ruslan Pikuza,Pro Open,1979,138.6,,,,,100,,,100,,,,,,100,140,M,Руслан Пикуза,B
No,Multi-ply,1,Viktor Kozlov,Pro Masters 45-49,1963,132.5,,,,,227.5,235,-237.5,235,,,,,,235,140,M,Виктор Козлов,B
