Division,WeightClassKg,Place,Name,Team,BodyweightKg,Best3SquatKg,Best3BenchKg,Best3DeadliftKg,TotalKg,Equipment,Event,Sex
Boys,51.71,1,Raul Cantu,Tyler,49.62,124.74,56.7,124.74,306.17,Single-ply,SBD,M
Boys,51.71,2,Corbin Strain,Pattonville Prairiland,51.62,92.99,61.23,104.33,258.55,Single-ply,SBD,M
Boys,51.71,3,Deuntre Adamson,Paris,48.44,92.99,52.16,102.06,247.21,Single-ply,SBD,M
Boys,51.71,4,Tajai Richards,Tyler,47.36,79.38,47.63,104.33,231.33,Single-ply,SBD,M
Boys,51.71,5,Jimmy Rollins,Van Alstyne,48.81,74.84,47.63,102.06,224.53,Single-ply,SBD,M
Boys,51.71,6,Roman Colsten,Commerce,37.01,83.91,38.56,79.38,201.85,Single-ply,SBD,M
Boys,51.71,DQ,Remy Smith,Lancaster,47.17,61.23,,,,Single-ply,SBD,M
Boys,55.79,1,Noah Payne,Bonham,55.79,133.81,81.65,131.54,347,Single-ply,SBD,M
Boys,55.79,2,Austen Siscoe,Commerce,55.61,106.59,68.04,136.08,310.71,Single-ply,SBD,M
Boys,55.79,3,Lance Jones,Van Alstyne,54.7,95.25,58.97,136.08,290.3,Single-ply,SBD,M
Boys,55.79,4,Colby Connelly,Honey Grove,55.43,106.59,58.97,111.13,276.69,Single-ply,SBD,M
Boys,55.79,5,Ethan Phillips,Hooks,54.07,99.79,52.16,115.67,267.62,Single-ply,SBD,M
Boys,55.79,6,Kole Barrentine,Pattonville Prairiland,52.71,83.91,56.7,120.2,260.82,Single-ply,SBD,M
Boys,55.79,DQ,Preston Booker,Honey Grove,53.34,129.27,,,,Single-ply,SBD,M
Boys,59.87,1,Wesley Gage,Paris,58.6,154.22,70.31,172.37,396.89,Single-ply,SBD,M
Boys,59.87,2,Keiotti Bray,Paris,56.25,156.49,88.45,147.42,392.36,Single-ply,SBD,M
Boys,59.87,3,Aaron Nelson,Honey Grove,58.69,136.08,77.11,165.56,378.75,Single-ply,SBD,M
Boys,59.87,4,Dylan McElroy,Honey Grove,59.87,136.08,68.04,136.08,340.19,Single-ply,SBD,M
Boys,59.87,5,Korrighan Smith,Commerce,59.78,124.74,81.65,115.67,322.05,Single-ply,SBD,M
Boys,59.87,6,Trey Corbett,Honey Grove,56.97,117.93,52.16,142.88,312.98,Single-ply,SBD,M
Boys,67.13,1,Cole Owens,Bonham,67.13,208.65,117.93,201.85,528.44,Single-ply,SBD,M
Boys,67.13,2,Brayden Lopez,Commerce,66.95,188.24,120.2,197.31,505.76,Single-ply,SBD,M
Boys,67.13,3,Jeremiah Brian,Leonard,67.04,195.04,113.4,195.04,503.49,Single-ply,SBD,M
Boys,67.13,4,Dylan Bargerhuff,Lone Oak,65.32,181.44,83.91,174.63,439.98,Single-ply,SBD,M
Boys,67.13,5,TeVarri Graves,Tyler,67.13,170.1,86.18,176.9,433.18,Single-ply,SBD,M
Boys,67.13,6,Austin Helton,Caddo Mills,67.13,158.76,90.72,165.56,415.04,Single-ply,SBD,M
Boys,67.13,7,Jayce Hood,Lancaster,65.77,142.88,86.18,174.63,403.7,Single-ply,SBD,M
Boys,67.13,8,James Cyr,Whitewright,63.5,142.88,92.99,161.03,396.89,Single-ply,SBD,M
Boys,67.13,9,David Ilechie,Paris,65.59,142.88,77.11,163.29,383.29,Single-ply,SBD,M
Boys,67.13,10,Caleb Hamm,Detroit,64.05,133.81,83.91,151.95,369.68,Single-ply,SBD,M
Boys,67.13,11,Wanya Robinson,Commerce,60.15,142.88,58.97,149.69,351.53,Single-ply,SBD,M
Boys,67.13,12,Cole Daniel,Lone Oak,67.13,142.88,65.77,142.88,351.53,Single-ply,SBD,M
Boys,67.13,13,Dylan Bell,Lone Oak,67.09,133.81,74.84,138.35,347,Single-ply,SBD,M
Boys,67.13,14,Jared Gibo,Paris,66.41,124.74,86.18,133.81,344.73,Single-ply,SBD,M
Boys,67.13,15,Eli Mosby,Van Alstyne,61.96,117.93,70.31,136.08,324.32,Single-ply,SBD,M
Boys,67.13,16,Brady Clifton,Wolfe City,66.41,115.67,90.72,111.13,317.51,Single-ply,SBD,M
Boys,67.13,17,Greg Blackwell,Lone Oak,67.09,115.67,70.31,131.54,317.51,Single-ply,SBD,M
Boys,67.13,18,Evan McKeever,Hooks,66.95,124.74,70.31,117.93,312.98,Single-ply,SBD,M
Boys,67.13,19,Tomas Arguello,Wolfe City,66.32,113.4,74.84,113.4,301.64,Single-ply,SBD,M
Boys,67.13,20,Seth Brower,Maud,66.5,120.2,54.43,124.74,299.37,Single-ply,SBD,M
Boys,67.13,21,Garrett McNeil,Hooks,62.05,92.99,52.16,88.45,233.6,Single-ply,SBD,M
Boys,67.13,DQ,Jermaine Washington,Lancaster,63.14,124.74,,,,Single-ply,SBD,M
Boys,74.84,1,Spencer Wright,Leonard,73.66,235.87,140.61,213.19,589.67,Single-ply,SBD,M
Boys,74.84,2,Sam Cunningham,Pattonville Prairiland,73.94,204.12,124.74,210.92,539.77,Single-ply,SBD,M
Boys,74.84,3,Travius Bronner,Paris,68.95,226.8,108.86,192.78,528.44,Single-ply,SBD,M
Boys,74.84,4,John Wims,Detroit,74.3,188.24,127.01,183.7,498.95,Single-ply,SBD,M
Boys,74.84,5,Tramarels Shamlin,Lancaster,74.12,183.7,113.4,183.7,480.81,Single-ply,SBD,M
Boys,74.84,6,Jaylon King,Paris,70.58,188.24,111.13,179.17,478.54,Single-ply,SBD,M
Boys,74.84,7,Eli Shields,Bonham,72.39,185.97,97.52,192.78,476.27,Single-ply,SBD,M
Boys,74.84,8,Greg Yarbrough,Paris,68.49,165.56,81.65,208.65,455.86,Single-ply,SBD,M
Boys,74.84,9,Jordan Creutz,Maud,74.66,158.76,102.06,181.44,442.25,Single-ply,SBD,M
Boys,74.84,10,Trace Smith,Pattonville Prairiland,72.48,156.49,108.86,174.63,439.98,Single-ply,SBD,M
Boys,74.84,11,Payne Painter,Caddo Mills,67.4,167.83,81.65,172.37,421.84,Single-ply,SBD,M
Boys,74.84,12,Victor Young,Bonham,72.3,151.95,97.52,163.29,412.77,Single-ply,SBD,M
Boys,74.84,13,Nathan Slemmons,Lone Oak,70.13,179.17,74.84,147.42,401.43,Single-ply,SBD,M
Boys,74.84,14,Dakota Smith,Detroit,73.21,140.61,83.91,158.76,383.29,Single-ply,SBD,M
Boys,74.84,15,Trevor Lollis,Maud,74.57,136.08,77.11,149.69,362.87,Single-ply,SBD,M
Boys,74.84,16,David Guillen,Wolfe City,71.76,133.81,90.72,129.27,353.8,Single-ply,SBD,M
Boys,74.84,17,Cole Hinson,Detroit,68.67,124.74,70.31,149.69,344.73,Single-ply,SBD,M
Boys,74.84,18,Colby Underwood,Lone Oak,69.49,145.15,58.97,136.08,340.19,Single-ply,SBD,M
Boys,74.84,19,Coby Barnes,Wolfe City,74.48,129.27,81.65,124.74,335.66,Single-ply,SBD,M
Boys,74.84,20,Imanol Gamez,Honey Grove,70.58,127.01,58.97,133.81,319.78,Single-ply,SBD,M
Boys,74.84,21,Kenny Campbell,Honey Grove,67.68,115.67,63.5,131.54,310.71,Single-ply,SBD,M
Boys,74.84,22,Brock Braley,Honey Grove,71.67,122.47,56.7,129.27,308.44,Single-ply,SBD,M
Boys,74.84,23,Dusty Brown,Detroit,69.04,99.79,65.77,115.67,281.23,Single-ply,SBD,M
Boys,82.1,1,Evan Wilson,Bonham,76.84,213.19,117.93,240.4,571.53,Single-ply,SBD,M
Boys,82.1,2,Trystan McGee,Caddo Mills,81.37,215.46,124.74,231.33,571.53,Single-ply,SBD,M
Boys,82.1,3,Nick Butler,Caddo Mills,81.74,190.51,117.93,222.26,530.7,Single-ply,SBD,M
Boys,82.1,4,Austin Ballard,Bonham,76.11,190.51,117.93,210.92,519.36,Single-ply,SBD,M
Boys,82.1,5,Aaron Taylor,Caddo Mills,78.47,195.04,111.13,208.65,514.83,Single-ply,SBD,M
Boys,82.1,6,Gavin Clark,Whitewright,77.38,188.24,131.54,188.24,508.02,Single-ply,SBD,M
Boys,82.1,7,Calvin Corbett,Honey Grove,78.02,181.44,99.79,215.46,496.68,Single-ply,SBD,M
Boys,82.1,8,Billy Webb,Wolfe City,81.37,174.63,117.93,161.03,453.59,Single-ply,SBD,M
Boys,82.1,9,Rod Hawkins,Tyler,81.47,165.56,97.52,181.44,444.52,Single-ply,SBD,M
Boys,82.1,10,Markus Berry,Maud,78.56,154.22,86.18,183.7,424.11,Single-ply,SBD,M
Boys,82.1,11,Luke Wilkins,Terrell,82.01,167.83,104.33,149.69,421.84,Single-ply,SBD,M
Boys,82.1,12,Necoma Sanders,Hooks,81.1,136.08,113.4,158.76,408.23,Single-ply,SBD,M
Boys,82.1,13,Jason Wirrol,Lone Oak,81.19,151.95,74.84,163.29,390.09,Single-ply,SBD,M
Boys,82.1,14,Chris Sims,Lone Oak,76.2,136.08,72.57,158.76,367.41,Single-ply,SBD,M
Boys,82.1,15,Nathan Ihle,Terrell,75.48,138.35,74.84,142.88,356.07,Single-ply,SBD,M
Boys,82.1,16,Drake Wooten,Honey Grove,77.66,129.27,70.31,131.54,331.12,Single-ply,SBD,M
Boys,82.1,DQ,Jake Taylor,Van Alstyne,75.93,142.88,83.91,,,Single-ply,SBD,M
Boys,82.1,DQ,Tyler Williams,Lone Oak,81.01,136.08,,,,Single-ply,SBD,M
Boys,89.81,1,Morgan Landreth,Pattonville Prairiland,86.91,238.14,142.88,204.12,585.13,Single-ply,SBD,M
Boys,89.81,2,Kobi Fort,Detroit,89.18,199.58,151.95,210.92,562.45,Single-ply,SBD,M
Boys,89.81,3,Ronnie Hart,Leonard,86.45,204.12,127.01,226.8,557.92,Single-ply,SBD,M
Boys,89.81,4,Travis Williams,Wolfe City,89.18,213.19,117.93,213.19,544.31,Single-ply,SBD,M
Boys,89.81,5,John Cooper,Whitewright,88.9,192.78,108.86,226.8,528.44,Single-ply,SBD,M
Boys,89.81,6,Isaiah Askew,Commerce,83.73,215.46,102.06,204.12,521.63,Single-ply,SBD,M
Boys,89.81,7,Tanner Young,Leonard,87.09,190.51,111.13,199.58,501.22,Single-ply,SBD,M
Boys,89.81,8,Jarrius Lane,Tyler,88.72,183.7,102.06,210.92,496.68,Single-ply,SBD,M
Boys,89.81,9,Colton Vibbert,Leonard,89.63,199.58,99.79,195.04,494.42,Single-ply,SBD,M
Boys,89.81,10,Reece Miller,Bonham,89.09,199.58,113.4,176.9,489.88,Single-ply,SBD,M
Boys,89.81,11,Seth Gammage,Lone Oak,87.91,185.97,102.06,185.97,474,Single-ply,SBD,M
Boys,89.81,12,Aubrey Simpson,Lancaster,85.91,147.42,102.06,192.78,442.25,Single-ply,SBD,M
Boys,89.81,13,Latrell Cooper,Lancaster,86.64,161.03,95.25,170.1,426.38,Single-ply,SBD,M
Boys,89.81,14,David Gamez,Honey Grove,86.18,158.76,99.79,156.49,415.04,Single-ply,SBD,M
Boys,89.81,15,Paul O'Loughlin,Van Alstyne,85.46,136.08,79.38,165.56,381.02,Single-ply,SBD,M
Boys,89.81,16,Victor Hernandez,Hooks,82.83,149.69,83.91,142.88,376.48,Single-ply,SBD,M
Boys,89.81,17,James Hirons,Van Alstyne,89.81,113.4,79.38,131.54,324.32,Single-ply,SBD,M
Boys,89.81,18,Talon Dunn,Van Alstyne,86.36,99.79,63.5,122.47,285.76,Single-ply,SBD,M
Boys,89.81,19,Danny Banker,Honey Grove,82.55,92.99,61.23,124.74,278.96,Single-ply,SBD,M
Boys,99.79,1,Wilfredo Valladares,Tyler,99.79,260.82,142.88,226.8,630.49,Single-ply,SBD,M
Boys,99.79,2,Chris Taylor #3,Caddo Mills,96.25,249.48,131.54,226.8,607.81,Single-ply,SBD,M
Boys,99.79,3,Daiston Keeton,Tyler,94.08,240.4,127.01,226.8,594.21,Single-ply,SBD,M
Boys,99.79,4,Quentin Bowes,Commerce,98.16,208.65,133.81,213.19,555.65,Single-ply,SBD,M
Boys,99.79,5,Michael Godwin,Paris,98.25,201.85,117.93,201.85,521.63,Single-ply,SBD,M
Boys,99.79,6,Addison Bob,Lancaster,91.53,185.97,124.74,199.58,510.29,Single-ply,SBD,M
Boys,99.79,7,Tyrell Jones,Tyler,97.79,183.7,129.27,190.51,503.49,Single-ply,SBD,M
Boys,99.79,8,Trevor Buckaloo,Bonham,92.62,199.58,111.13,181.44,492.15,Single-ply,SBD,M
Boys,99.79,9,Taylor Juarez-Conner,Honey Grove,94.53,201.85,106.59,179.17,487.61,Single-ply,SBD,M
Boys,99.79,10,Eric Fisk,Wolfe City,96.62,172.37,115.67,185.97,474,Single-ply,SBD,M
Boys,99.79,11,Adam Slubowski,Pattonville Prairiland,96.8,170.1,129.27,170.1,469.47,Single-ply,SBD,M
Boys,99.79,12,Gavin Ritchie,Van Alstyne,94.71,190.51,99.79,176.9,467.2,Single-ply,SBD,M
Boys,99.79,13,Xhavhiaer Ball,Whitewright,97.07,158.76,108.86,183.7,451.32,Single-ply,SBD,M
Boys,99.79,14,Hunter Smith #3,Pattonville Prairiland,91.9,174.63,97.52,174.63,446.79,Single-ply,SBD,M
Boys,99.79,15,Quintarious Dangerfield,Paris,98.34,161.03,111.13,172.37,444.52,Single-ply,SBD,M
Boys,99.79,16,Chauncey Hamilton,Lancaster,94.44,181.44,99.79,158.76,439.98,Single-ply,SBD,M
Boys,99.79,17,Maxwell Nazarko,Van Alstyne,94.08,147.42,97.52,163.29,408.23,Single-ply,SBD,M
Boys,99.79,18,Eric Nichols,Van Alstyne,92.9,151.95,124.74,124.74,401.43,Single-ply,SBD,M
Boys,99.79,19,Jamar Person,Honey Grove,95.71,145.15,74.84,179.17,399.16,Single-ply,SBD,M
Boys,99.79,20,Cevan Hutchins,Honey Grove,97.25,127.01,83.91,163.29,374.21,Single-ply,SBD,M
Boys,99.79,21,Jacob Kennedy,Bonham,93.53,129.27,74.84,158.76,362.87,Single-ply,SBD,M
Boys,99.79,22,Conner Humphrey,Maud,95.16,136.08,74.84,136.08,347,Single-ply,SBD,M
Boys,99.79,23,Kyler Scott,Detroit,94.98,106.59,65.77,102.06,274.42,Single-ply,SBD,M
Boys,109.77,1,Cody Banks #2,Caddo Mills,106.32,249.48,136.08,226.8,612.35,Single-ply,SBD,M
Boys,109.77,2,Jakyree Trigg,Tyler,105.32,233.6,136.08,240.4,610.08,Single-ply,SBD,M
Boys,109.77,3,Hudson Barnes,Leonard,107.68,226.8,147.42,219.99,594.21,Single-ply,SBD,M
Boys,109.77,4,Samuel Meneses,Tyler,109.32,240.4,111.13,206.38,557.92,Single-ply,SBD,M
Boys,109.77,5,James Berry,Maud,109.32,231.33,129.27,192.78,553.38,Single-ply,SBD,M
Boys,109.77,6,Carmeron Clayton,Lancaster,106.14,204.12,113.4,231.33,548.85,Single-ply,SBD,M
Boys,109.77,7,Gunner Vest,Paris,101.7,204.12,122.47,201.85,528.44,Single-ply,SBD,M
Boys,109.77,8,Kiante Stoker,Tyler,103.15,197.31,131.54,192.78,521.63,Single-ply,SBD,M
Boys,109.77,9,Cameron Crabtree,Lancaster,107.95,199.58,122.47,142.88,464.93,Single-ply,SBD,M
Boys,109.77,10,Anthony Cork,Commerce,103.33,163.29,102.06,183.7,449.06,Single-ply,SBD,M
Boys,109.77,11,Malik Griffin,Terrell,103.69,165.56,95.25,165.56,426.38,Single-ply,SBD,M
Boys,109.77,12,Jonathan Reves,Leonard,101.51,163.29,83.91,163.29,410.5,Single-ply,SBD,M
Boys,109.77,13,Victor Esparza,Honey Grove,104.78,149.69,83.91,154.22,387.82,Single-ply,SBD,M
Boys,109.77,14,Anthony Peak,Commerce,107.14,158.76,102.06,127.01,387.82,Single-ply,SBD,M
Boys,109.77,15,Sawyer Callies,Van Alstyne,106.96,142.88,81.65,161.03,385.55,Single-ply,SBD,M
Boys,109.77,16,Chance Sprague,Maud,107.32,149.69,79.38,147.42,376.48,Single-ply,SBD,M
Boys,109.77,17,Nicholas Taylor,Hooks,106.59,113.4,72.57,136.08,322.05,Single-ply,SBD,M
Boys,109.77,DQ,Parker Stedman,Wolfe City,107.14,115.67,83.91,,,Single-ply,SBD,M
Boys,109.77,DQ,Cj Hubbard,Lone Oak,104.87,142.88,,,,Single-ply,SBD,M
Boys,124.74,1,Daniel Dowling,Bonham,116.39,263.08,147.42,195.04,605.55,Single-ply,SBD,M
Boys,124.74,2,Kellan Anderson,Wolfe City,122.02,219.99,124.74,219.99,564.72,Single-ply,SBD,M
Boys,124.74,3,Garrett Carpenter,Lone Oak,115.21,226.8,102.06,215.46,544.31,Single-ply,SBD,M
Boys,124.74,4,Derrick Brown,Lancaster,124.1,183.7,129.27,215.46,528.44,Single-ply,SBD,M
Boys,124.74,5,Zach Hilton,Maud,112.49,181.44,106.59,238.14,526.17,Single-ply,SBD,M
Boys,124.74,6,Reggie Thomas,Lancaster,117.48,199.58,120.2,195.04,514.83,Single-ply,SBD,M
Boys,124.74,7,Jacob McCain,Caddo Mills,110.68,192.78,111.13,192.78,496.68,Single-ply,SBD,M
Boys,124.74,8,Adam Aldridge,Honey Grove,114.94,183.7,106.59,183.7,474,Single-ply,SBD,M
Boys,124.74,DQ,Kyle Drake,Whitewright,114.58,,,,,Single-ply,SBD,M
Boys,124.74,DQ,TreJon Blake,Tyler,114.03,272.16,,,,Single-ply,SBD,M
Boys,124.74+,1,Fili Rincon,Lone Oak,125.01,292.57,163.29,226.8,682.66,Single-ply,SBD,M
Boys,124.74+,2,Dominic Little,Whitewright,135.44,249.48,158.76,204.12,612.35,Single-ply,SBD,M
Boys,124.74+,3,James Harrison,Lancaster,135.71,229.06,156.49,226.8,612.35,Single-ply,SBD,M
Boys,124.74+,4,Byron Muse,Paris,129.91,233.6,149.69,219.99,603.28,Single-ply,SBD,M
Boys,124.74+,5,Jacob Pulley,Caddo Mills,131.81,226.8,120.2,226.8,573.79,Single-ply,SBD,M
Boys,124.74+,6,Ethan Price,Honey Grove,147.24,206.38,102.06,208.65,517.1,Single-ply,SBD,M
Boys,124.74+,7,Chance Billington,Tyler,131.81,183.7,111.13,188.24,483.08,Single-ply,SBD,M
Boys,124.74+,8,Jemerald Johnson,Hooks,134.26,156.49,99.79,142.88,399.16,Single-ply,SBD,M
Boys,124.74+,9,Gabe Acosta,Maud,140.16,158.76,77.11,122.47,358.34,Single-ply,SBD,M
Boys,124.74+,10,Colby McAdams,Leonard,134.63,104.33,83.91,136.08,324.32,Single-ply,SBD,M
