Sex,Name,CyrillicName,Place,BodyweightKg,Bench1Kg,Bench2Kg,Bench3Kg,Best3BenchKg,Bench4Kg,TotalKg,WeightClassKg,Event,Equipment,Tested,Squat1Kg,Squat2Kg,Squat3Kg,Best3SquatKg,Squat4Kg,Deadlift1Kg,Deadlift2Kg,Deadlift3Kg,Best3DeadliftKg,Deadlift4Kg,Division,Age,BirthDate
F,Valentina Gosteva,Валентина Гостева,1,57.2,60,-65,65,65,,65,60,B,Raw,No,,,,,,,,,,,Pro Open,64,1955-08-07
M,Vitaliy Tkachenko,Виталий Ткаченко,1,74.5,-135,135,-137.5,135,,135,75,B,Raw,No,,,,,,,,,,,Pro Open,39,1980-12-01
M,Aleksey Shirokov,Алексей Широков,1,82.1,102.5,105,-112.5,105,,105,82.5,B,Raw,No,,,,,,,,,,,Pro Teen 18-19,19,2000-06-11
M,Bogdan Shutko,Богдан Шутько,1,87.8,125,132.5,-135,132.5,,132.5,90,B,Raw,No,,,,,,,,,,,Pro Teen 16-17,17,2002-06-09
M,Nikolay Inozemtsev,Николай Иноземцев,1,83.3,-150,160,-170,160,,160,90,B,Raw,No,,,,,,,,,,,Pro Open,27,1992-04-08
M,Aleksandr Yarunin,Александр Ярунин,2,86.3,142.5,-152.5,152.5,152.5,,152.5,90,B,Raw,No,,,,,,,,,,,Pro Open,37,1982-09-04
M,Nikolay Yurenya,Николай Юреня,3,86.1,125,-132.5,-132.5,125,,125,90,B,Raw,No,,,,,,,,,,,Pro Open,36,1983-08-03
M,Aleksey Kobzev,Алексей Кобзев,1,87.8,120,130,-137.5,130,,130,90,B,Raw,No,,,,,,,,,,,Pro Masters 40-44,42,1977-03-25
M,Vladislav Latyshev,Владислав Латышев,1,97.1,130,140,150,150,,150,100,B,Raw,No,,,,,,,,,,,Pro Open,24,1995-05-11
M,Aleksey Borodulin,Алексей Бородулин,2,94.4,140,-150,-150,140,,140,100,B,Raw,No,,,,,,,,,,,Pro Open,35,1984-04-02
M,Aleksey Motinov,Алексей Мотинов,1,106.9,190,200,210,210,,210,110,B,Raw,No,,,,,,,,,,,Pro Open,30,1989-11-06
M,Aleksandr Kokotkin,Александр Кокоткин,1,117.9,160,170,-180,170,,170,125,B,Raw,No,,,,,,,,,,,Pro Masters 45-49,46,1974-02-05
M,Vladimir Chernyshov,Владимир Чернышов,1,116.8,125,130,-132.5,130,,130,125,B,Raw,No,,,,,,,,,,,Pro Masters 70-74,71,1948-09-04
M,Igor Umerenkov,Игорь Умеренков,1,110,150,155,,155,,155,110,B,Multi-ply,No,,,,,,,,,,,Pro Open,39,1980-09-13
F,Viktoriya Chipileva,Виктория Чипилева,1,50.6,45,50,,50,,50,52,B,Single-ply,No,,,,,,,,,,,Pro Juniors 20-23,23,1996-05-05
F,Elena Enina,Елена Енина,1,51,62.5,-72.5,,62.5,,62.5,52,B,Single-ply,No,,,,,,,,,,,Pro Open,30,1989-05-10
M,Denis Fedyaev,Денис Федяев,1,80.8,150,160,-172.5,160,,160,82.5,B,Unlimited,No,,,,,,,,,,,Pro Open,28,1991-09-02
M,Anatoliy Totskiy,Анатолий Тоцкий,1,98.4,-235,255,-267.5,255,,255,100,B,Unlimited,No,,,,,,,,,,,Pro Masters 45-49,46,1974-02-12
M,Aleksey Grishanov,Алексей Гришанов,1,104.2,185,-205,-205,185,,185,110,B,Unlimited,No,,,,,,,,,,,Pro Open,36,1983-06-21
F,Anastasiya Sirotina,Анастасия Сиротина,1,59.5,47.5,55,-60,55,,295,60,SBD,Wraps,No,107.5,120,-132.5,120,,107.5,120,-137.5,120,,Pro Juniors 20-23,23,1996-05-02
F,Iman Idrisova,Иман Идрисова,DQ,57.5,-40,,,,,,60,SBD,Wraps,No,-90,-90,-90,,,-85,,,,,Pro Open,30,1989-04-03
F,Irina Mikhaylova,Ирина Михайлова,1,90,60,-65,-70,60,,335,90,SBD,Wraps,No,-120,-130,130,130,,145,-150,,145,,Pro Open,29,1990-12-19
M,Vitaliy Parshkov,Виталий Паршков,1,,75,80,82.5,82.5,,345,52,SBD,Wraps,No,105,115,120,120,,125,135,142.5,142.5,,Pro Teen 13-15,15,2004-11-02
M,Daniil Belentsov,Даниил Беленцов,1,73.3,85,90,95,95,,385,75,SBD,Wraps,No,115,-125,130,130,,145,160,-167.5,160,,Pro Teen 16-17,17,2002-04-05
M,Aleksandr Muravev,Александр Муравьев,DQ,80.2,-105,,,,,,82.5,SBD,Wraps,No,-190,-190,-200,,,-180,,,,,Pro Open,31,1988-09-19
F,Tatyana Timofeeva,Татьяна Тимофеева,1,54.8,25,27.5,-30,27.5,,165,56,SBD,Raw,No,47.5,52.5,-55,52.5,,75,80,85,85,,Pro Masters 40-44,41,1978-08-08
M,Ilya Korotkin,Илья Короткин,1,61.8,105,110,112.5,112.5,,425,67.5,SBD,Raw,No,135,-140,142.5,142.5,,160,165,170,170,,Pro Juniors 20-23,22,1997-03-28
M,Dmitriy Baryshev,Дмитрий Барышев,1,71.9,115,120,122.5,122.5,,432.5,75,SBD,Raw,No,120,127.5,132.5,132.5,,155,167.5,177.5,177.5,,Pro Juniors 20-23,23,1997-01-09
M,Egor Dvilyanskiy,Егор Двилянский,1,87.3,-130,130,-140,130,,520,90,SBD,Raw,No,170,180,-190,180,,200,210,-220,210,,Pro Open,27,1993-02-02
M,Vladislav Shatokhin,Владислав Шатохин,1,95.2,92.5,100,105,105,,397.5,100,SBD,Raw,No,115,125,132.5,132.5,,140,-155,160,160,,Pro Teen 13-15,14,2005-10-25
F,Elena Enina,Елена Енина,1,51,62.5,-72.5,,62.5,,350,52,SBD,Single-ply,No,140,147.5,,147.5,,140,-157.5,-157.5,140,,Pro Open,30,1989-05-10
M,Aleksandr Tolstov,Александр Толстов,1,94.2,165,172.5,-175,172.5,,645,100,SBD,Single-ply,No,215,232.5,-240,232.5,,210,230,240,240,,Pro Open,27,1992-05-28
F,Elena Enina,Елена Енина,1,51,,,,,,115,52,D,Raw,No,,,,,,-115,-115,115,115,,Pro Open,30,1989-05-10
F,Iman Idrisova,Иман Идрисова,1,57.5,,,,,,85,60,D,Raw,No,,,,,,80,85,-90,85,,Pro Open,30,1989-04-03
F,Valentina Gosteva,Валентина Гостева,1,57.2,,,,,,120,60,D,Raw,No,,,,,,110,115,120,120,,Pro Masters 60-64,64,1955-08-07
M,Andrey Maksimov,Андрей Максимов,1,62.8,,,,,,200,67.5,D,Raw,No,,,,,,200,-210,-210,200,,Pro Open,28,1991-10-24
M,Nikita Fadeychev,Никита Фадейчев,1,74.3,,,,,,242.5,75,D,Raw,No,,,,,,222.5,232.5,242.5,242.5,,Pro Open,28,1991-09-14
M,Aleksandr Drogaytsev,Александр Дрогайцев,2,75,,,,,,192.5,75,D,Raw,No,,,,,,180,192.5,-202.5,192.5,,Pro Open,28,1991-12-14
M,Aleksandr Muravev,Александр Муравьев,1,80.2,,,,,,215,82.5,D,Raw,No,,,,,,180,200,215,215,,Pro Open,31,1988-09-19
M,Oleg Kudinov,Олег Кудинов,2,81.6,,,,,,200,82.5,D,Raw,No,,,,,,180,190,200,200,,Pro Open,29,1990-07-14
M,Viktor Skokin,Виктор Скокин,1,76.2,,,,,,217.5,82.5,D,Raw,No,,,,,,205,212.5,217.5,217.5,,Pro Masters 60-64,62,1957-06-20
M,Dmitriy Sukhanov,Дмитрий Суханов,1,96,,,,,,220,100,D,Raw,No,,,,,,210,220,-232.5,220,,Pro Teen 18-19,19,2000-12-09
M,Oleg Nagornyy,Олег Нагорный,1,95.4,,,,,,202.5,100,D,Raw,No,,,,,,175,192.5,202.5,202.5,,Pro Masters 50-54,51,1968-09-27
M,Igor Umerenkov,Игорь Умеренков,1,110,,,,,,275,110,D,Raw,No,,,,,,260,275,-285,275,,Pro Open,39,1980-09-13
M,Aleksey Fedyukin,Алексей Федюкин,1,121.7,,,,,,255,125,D,Raw,No,,,,,,225,247.5,255,255,,Pro Open,28,1991-10-01
M,Vladimir Chernyshov,Владимир Чернышов,1,116.8,,,,,,250,125,D,Raw,No,,,,,,225,240,250,250,,Pro Masters 70-74,71,1948-09-04
M,Igor Umerenkov,Игорь Умеренков,1,110,,,,,,285,110,D,Multi-ply,No,,,,,,-285,-285,285,285,,Pro Open,39,1980-09-13
F,Elena Enina,Елена Енина,1,51,,,,,,140,52,D,Single-ply,No,,,,,,140,-157.5,-157.5,140,,Pro Open,30,1989-05-10
M,Vladimir Dranev,Владимир Дранев,1,67.2,140,147.5,-150,147.5,,147.5,67.5,B,Raw,No,,,,,,,,,,,Pro Juniors 20-23,22,1997-07-24
M,Girikhan Maskurov,Гирихан Маскуров,1,108.7,-160,160,-172.5,160,,160,110,B,Raw,No,,,,,,,,,,,Pro Open,32,1987-10-27
M,Sergey Antsyshkin,Сергей Анцышкин,1,98.3,220,225,230,230,,230,100,B,Single-ply,No,,,,,,,,,,,Pro Open,30,1990-02-23
M,Usein Emirsaliev,Усеин Эмирсалиев,1,97,-165,170,175,175,,680,100,SBD,Wraps,No,230,-245,245,245,,260,-280,-280,260,,Pro Open,24,1995-05-13
M,Evgeniy Chikunov,Евгений Чикунов,1,124.3,180,185,-187.5,185,,745,125,SBD,Raw,No,260,270,275,275,,260,282.5,285,285,,Pro Open,31,1988-05-16
M,Sergey Antsyshkin,Сергей Анцышкин,1,98.3,220,225,230,230,,735,100,SBD,Single-ply,No,240,250,257.5,257.5,,240,247.5,-257.5,247.5,,Pro Open,30,1990-02-23
M,Sergey Bakhtin,Сергей Бахтин,1,98.3,,,,,,250,100,D,Raw,No,,,,,,250,-277.5,,250,,Pro Masters 40-44,44,1975-10-06
M,Dmitriy Motaylo,Дмитрий Мотайло,1,103,,,,,,275,110,D,Raw,No,,,,,,250,-260,275,275,,Pro Open,34,1985-06-06
M,Gennadiy Bogdanov,Геннадий Богданов,1,75,,,,,,230,75,D,Single-ply,No,,,,,,200,230,-252.5,230,,Pro Masters 50-54,52,1968-01-12
