Place,Division,WeightClassKg,Sex,Event,Equipment,Name,CyrillicName,BirthDate,BodyweightKg,Squat1Kg,Squat2Kg,Squat3Kg,Best3SquatKg,Bench1Kg,Bench2Kg,Bench3Kg,Best3BenchKg,Deadlift1Kg,Deadlift2Kg,Deadlift3Kg,Best3DeadliftKg,TotalKg
1,Teen 13-15,,F,S,Wraps,Mariya Spiridonova,Марія Спиридонова,2002-01-28,65,50,60,65,65,,,,,,,,,65
DQ,Teen 13-15,,F,S,Wraps,Viktoriya Kirilyuk,Вікторія Кирилюк,2001-12-30,59.8,-45,-45,-55,,,,,,,,,,
1,Teen 18-19,,F,S,Wraps,Viktoriya Parkhomenko,Вікторія Пархоменко,1997-06-20,65.9,45,-55,-60,45,,,,,,,,,45
1,Juniors 20-23,,F,S,Wraps,Nadiya Kalapishchak,Надія Калапіщак,1996-11-19,53,-60,-60,60,60,,,,,,,,,60
1,Teen 16-17,60,M,S,Wraps,Artur Ivashchenko,Артур Іващенко,2000-03-05,59.6,90,100,105,105,,,,,,,,,105
1,Juniors 20-23,60,M,S,Wraps,Oleksandr Korotkiy,Олександр Короткий,1994-09-13,60,150,-160,-170,150,,,,,,,,,150
1,Teen 18-19,67.5,M,S,Wraps,Oleksandr Hushtyk,Олександр Гуштик,1998-12-30,60.7,-160,160,-170,160,,,,,,,,,160
1,Open,67.5,M,S,Wraps,Oleksandr Hushtyk,Олександр Гуштик,1998-12-31,60.7,-160,160,-170,160,,,,,,,,,160
1,Teen 13-15,75,M,S,Wraps,Andriy Novikov,Андрій Новіков,2001-12-13,69.7,175,-180,-185,175,,,,,,,,,175
1,Masters,75,M,S,Wraps,Volodimir Vasilenko,Володимир Василенко,1943-11-12,74.9,100,110,,110,,,,,,,,,110
1,Teen 18-19,90,M,S,Wraps,Anatoliy Pashko,Анатолій Пашко,1997-05-16,88.5,180,-202.5,202.5,202.5,,,,,,,,,202.5
2,Juniors 20-23,90,M,S,Wraps,Oleksiy Tsilyurik,Олексій Цилюрик,1994-01-07,89.9,120,130,-135,130,,,,,,,,,130
1,Open,90,M,S,Wraps,Roman Soroka,Роман Сорока,1988-07-14,86.7,-180,180,205,205,,,,,,,,,205
2,Open,90,M,S,Wraps,Anatoliy Pashko,Анатолій Пашко,1997-05-16,88.5,180,-202.5,202.5,202.5,,,,,,,,,202.5
3,Open,90,M,S,Wraps,Maksim Pokhiton,Максим Похитон,1992-08-24,83.6,-180,180,185,185,,,,,,,,,185
1,Open,100,M,S,Wraps,Andriy Garazha,Андрій Гаража,1989-06-25,95.7,140,-160,-160,140,,,,,,,,,140
1,Masters,100,M,S,Wraps,Viktor Rublyov,Віктор Рубльов,1975-10-26,97,-220,230,-240,230,,,,,,,,,230
2,Masters,100,M,S,Wraps,Sergiy Kolesnik,Сергій Колесник,1963-01-03,99.3,-175,175,,175,,,,,,,,,175
3,Masters,100,M,S,Wraps,Oleg Kovbasa,Олег Ковбаса,1976-01-01,90.7,-130,130,,130,,,,,,,,,130
1,Teen 13-15,,F,B,Raw,Mariya Skupnevska,Марія Скупневська,2001-07-01,48.9,,,,,-35,35,-40,35,,,,,35
2,Teen 13-15,,F,B,Raw,Anastasiya Lutsenko,Анастасія Луценко,2003-01-31,53.1,,,,,20,25,30,30,,,,,30
1,Teen 18-19,,F,B,Raw,Katerina Shapoval,Катерина Шаповал,1997-03-18,59.8,,,,,55,60,-62.5,60,,,,,60
2,Teen 18-19,,F,B,Raw,Kristina Vasilevska,Крістіна Василевська,1998-08-13,49,,,,,35,40,45,45,,,,,45
3,Teen 18-19,,F,B,Raw,Viktoriya Parkhomenko,Вікторія Пархоменко,1997-06-20,65.9,,,,,25,30,-40,30,,,,,30
1,Open,,F,B,Raw,Katerina Shapoval,Катерина Шаповал,1997-03-18,59.8,,,,,55,60,-62.5,60,,,,,60
1,Youth,56,M,B,Raw,Vladislav Tsivina,Владислав Цівина,2004-03-04,44.8,,,,,45,50,-55,50,,,,,50
2,Youth,56,M,B,Raw,Vladislav Demchenko,Владислав Демченко,2004-03-14,38.7,,,,,-25,-27.5,27.5,27.5,,,,,27.5
3,Youth,56,M,B,Raw,Maksim Fedorets,Максим Федорець,2008-05-30,35.3,,,,,25,-27.5,,25,,,,,25
1,Open,56,M,B,Raw,Vladislav Tsivina,Владислав Цівина,2004-03-04,44.8,,,,,45,50,-55,50,,,,,50
1,Teen 16-17,60,M,B,Raw,Artur Ivashchenko,Артур Іващенко,2000-03-05,59.6,,,,,70,75,80,80,,,,,80
1,Open,60,M,B,Raw,Vitaliy Pavlushko,Виталий Павлушко,1985-07-19,58.5,,,,,115,120,122.5,122.5,,,,,122.5
1,Teen 18-19,67.5,M,B,Raw,Oleksandr Hushtyk,Олександр Гуштик,1998-12-30,60.7,,,,,-90,-90,90,90,,,,,90
2,Teen 16-17,67.5,M,B,Raw,Vasil Berezhniy,Василь Бережний,2000-12-12,65.8,,,,,80,-90,90,90,,,,,90
1,Juniors 20-23,67.5,M,B,Raw,Sergiy Krivorotko,Сергій Криворотько,1995-11-01,66.6,,,,,117.5,-125,-125,117.5,,,,,117.5
2,Juniors 20-23,67.5,M,B,Raw,Stanislav Sinyagivskiy,Станіслав Синягівський,1995-06-29,66.9,,,,,107.5,115,-117.5,115,,,,,115
3,Teen 16-17,67.5,M,B,Raw,Anatoliy Starostenko,Анатолій Старостенко,1999-04-14,64.3,,,,,-110,110,-115,110,,,,,110
4,Juniors 20-23,67.5,M,B,Raw,Roman Oganezyan,Роман Оганезян,1995-12-21,66.3,,,,,105,-110,110,110,,,,,110
1,Open,67.5,M,B,Raw,Sergiy Krivorotko,Сергій Криворотько,1995-11-01,66.6,,,,,117.5,-125,-125,117.5,,,,,117.5
2,Open,67.5,M,B,Raw,Oleksandr Mogirov,Олександр Могирьов,1984-05-17,66.2,,,,,105,112.5,115,115,,,,,115
3,Open,67.5,M,B,Raw,Roman Zhemchuzhniy,Роман Жемчужний,1988-10-10,62.8,,,,,100,110,-112.5,110,,,,,110
3,Teen 16-17,75,M,B,Raw,Yaroslav Slutskiy,Ярослав Слуцький,2001-01-24,71,,,,,75,-80,-82.5,75,,,,,75
1,Open,75,M,B,Raw,Andriy Kandalov,Андрій Кандалов,1992-08-06,73.6,,,,,145,-150,-150,145,,,,,145
2,Open,75,M,B,Raw,Valentin Gontar,Валентин Гонтар,1987-09-26,73.5,,,,,-135,135,-140,135,,,,,135
3,Open,75,M,B,Raw,Andriy Tsitson,Андрій Цицонь,1983-03-31,73.6,,,,,-120,122.5,125,125,,,,,125
4,Open,75,M,B,Raw,Oleksandr Ermolinskiy,Олександр Єрмолинський,1981-08-15,72,,,,,-120,120,-122.5,120,,,,,120
1,Teen 16-17,82.5,M,B,Raw,Rostislav Kalatur,Ростислав Калатур,2000-04-20,76.5,,,,,95,97.5,-100,97.5,,,,,97.5
1,Teen 16-17,82.5,M,B,Raw,Nazar Solyan,Назар Солян,1999-10-29,80.3,,,,,165,170,-175,170,,,,,170
2,Juniors 20-23,82.5,M,B,Raw,Artem Gayday,Артем Гайдай,1996-04-28,80.8,,,,,150,-155,,150,,,,,150
3,Juniors 20-23,82.5,M,B,Raw,Evgen Krivenda,Євген Кривенда,1994-01-10,79.7,,,,,140,147.5,-152.5,147.5,,,,,147.5
4,Juniors 20-23,82.5,M,B,Raw,Dmitro Stepanenko,Дмитро Степаненко,1994-04-14,81.6,,,,,132.5,137.5,150,150,,,,,150
5,Juniors 20-23,82.5,M,B,Raw,Roman Zabavnikov,Роман Забавніков,1994-06-16,78.5,,,,,120,-127.5,127.5,127.5,,,,,127.5
1,Open,82.5,M,B,Raw,Nazar Solyan,Назар Солян,1993-10-29,80.3,,,,,165,170,-175,170,,,,,170
2,Open,82.5,M,B,Raw,Pavlo Melnichenko,Павло Мельніченко,,78.8,,,,,150,-160,160,160,,,,,160
3,Open,82.5,M,B,Raw,Vladislav Gunyaviy,Владислав Гунявий,1985-02-11,82.3,,,,,90,100,105,105,,,,,105
1,Teen 18-19,90,M,B,Raw,Anatoliy Pashko,Анатолій Пашко,1997-05-16,88.5,,,,,130,140,-150,140,,,,,140
1,Juniors 20-23,90,M,B,Raw,Oleg Ivanov #5,Олег Іванов,1995-07-29,86.1,,,,,150,157.5,-160,157.5,,,,,157.5
1,Open,90,M,B,Raw,Viktor Borinets,Віктор Боринец,1989-07-15,86.6,,,,,160,170,-175,170,,,,,170
2,Open,90,M,B,Raw,Oleg Ivanov #5,Олег Іванов,1995-07-29,86.1,,,,,150,157.5,-160,157.5,,,,,157.5
3,Open,90,M,B,Raw,Roman Soroka,Роман Сорока,1988-07-14,86.7,,,,,-140,-140,152.5,152.5,,,,,152.5
4,Open,90,M,B,Raw,Pavlo Kirilenko,Павло Кириленко,1983-05-21,88,,,,,147.5,150,-155,150,,,,,150
5,Open,90,M,B,Raw,Andriy Romanyuk,Андрій Романюк,1988-05-24,87.7,,,,,125,130,-132.5,130,,,,,130
6,Open,90,M,B,Raw,Maksim Pisotskiy,Максим Пісоцький,1990-02-28,86,,,,,-120,120,-125,120,,,,,120
1,Teen 18-19,100,M,B,Raw,Bogdan Reznikov,Богдан Резніков,1998-05-02,93.7,,,,,165,-175,-175,165,,,,,165
1,Juniors 20-23,100,M,B,Raw,Oleksandr Shpak,Олександр Шпак,1996-08-17,93,,,,,140,145,150,150,,,,,150
2,Juniors 20-23,100,M,B,Raw,Eduard Bilik,Едуард Білик,1995-11-01,94.3,,,,,137.5,142.5,-147.5,142.5,,,,,142.5
1,Open,100,M,B,Raw,Bogdan Reznikov,Богдан Резніков,1998-05-02,93.7,,,,,165,-175,-175,165,,,,,165
2,Open,100,M,B,Raw,Valentin Domnenko,Валентин Домненко,1986-05-11,99,,,,,157.5,-162.5,-162.5,157.5,,,,,157.5
3,Open,100,M,B,Raw,Sergiy Yazikov,Сергій Язиков,1978-11-21,98.3,,,,,155,-162.5,,155,,,,,155
4,Open,100,M,B,Raw,Maksim Shtirkhun,Максим Штирхун,1992-04-07,94.3,,,,,-150,150,-155,150,,,,,150
5,Open,100,M,B,Raw,Oleksandr Shpak,Олександр Шпак,1996-08-17,93,,,,,140,145,150,150,,,,,150
1,Masters,100,M,B,Raw,Viktor Rublyov,Віктор Рубльов,1975-10-26,97,,,,,160,167.5,-175,167.5,,,,,167.5
2,Masters,100,M,B,Raw,Volodimir Korolov,Володимир Корольов,1955-05-14,98.7,,,,,135,-145,145,145,,,,,145
1,Open,110,M,B,Raw,Evgeniy Dobrokonniy,Євгеній Доброконний,1978-02-25,100.4,,,,,170,177.5,180,180,,,,,180
2,Open,110,M,B,Raw,Oleksandr Shpak,Олександр Шпак,1974-07-16,109,,,,,150,160,-165,160,,,,,160
1,Masters,110,M,B,Raw,Oleksandr Fedorchenko,Олександр Федорченко,1976-06-15,109,,,,,170,180,187.5,187.5,,,,,187.5
2,Masters,110,M,B,Raw,Oleksandr Shpak,Олександр Шпак,1974-07-16,109,,,,,150,160,-165,160,,,,,160
1,Teen 18-19,,F,D,Raw,Viktoriya Parkhomenko,Вікторія Пархоменко,1997-06-20,65.9,,,,,,,,,45,65,75,75,75
1,Open,,F,D,Raw,Olena Zhivoglyad,Олена Живогляд,1981-02-25,61,,,,,,,,,120,125,-130,125,125
2,Open,,F,D,Raw,Olesya Kiyan,Олеся Киян,1990-04-10,53.2,,,,,,,,,85,95,97.5,97.5,97.5
3,Open,,F,D,Raw,Viktoriya Kapustyan,Вікторія Капустян,1988-11-15,67.9,,,,,,,,,80,90,100,100,100
1,Masters,,F,D,Raw,Nataliya Obraztsova,Наталія Образцова,1973-12-07,57.2,,,,,,,,,85,-95,-95,85,85
1,Youth,52,M,D,Raw,Maksim Fedorets,Максим Федорець,2008-05-30,35.3,,,,,,,,,40,50,55,55,55
1,Teen 16-17,60,M,D,Raw,Artur Ivashchenko,Артур Іващенко,2000-03-05,59.6,,,,,,,,,150,155,160,160,160
2,Teen 16-17,60,M,D,Raw,Denis Evchenko,Денис Євченко,2000-09-26,56.3,,,,,,,,,-140,140,142.5,142.5,142.5
3,Teen 16-17,60,M,D,Raw,Igor Vasichkin,Ігор Васічкін,2000-10-27,58.6,,,,,,,,,90,-100,-100,90,90
1,Teen 13-15,67.5,M,D,Raw,Artem Kolyada,Артем Коляда,2001-03-18,65.1,,,,,,,,,135,-142.5,-142.5,135,135
1,Teen 16-17,67.5,M,D,Raw,Stanislav Tsivina,Станіслав Цівина,2000-03-17,61.1,,,,,,,,,130,140,150,150,150
2,Teen 16-17,67.5,M,D,Raw,Vasil Berezhniy,Василь Бережний,2000-12-12,65.8,,,,,,,,,130,140,145,145,145
1,Juniors 20-23,67.5,M,D,Raw,Stanislav Sinyagivskiy,Станіслав Синягівський,1995-06-29,66.9,,,,,,,,,170,185,195,195,195
1,Juniors 20-23,67.5,M,D,Raw,Yaroslav Fedorenko,Ярослав Федоренко,1993-07-31,66.8,,,,,,,,,155,175,-182.5,175,175
1,Open,67.5,M,D,Raw,Stanislav Tsivina,Станіслав Цівина,2000-03-17,61.1,,,,,,,,,130,140,150,150,150
2,Open,67.5,M,D,Raw,Artem Kolyada,Артем Коляда,2001-03-18,65.1,,,,,,,,,135,-142.5,-142.5,135,135
1,Open,75,M,D,Raw,Igor Gamarnik,Ігор Гамарник,1988-08-20,71.6,,,,,,,,,220,230,237.5,237.5,237.5
2,Open,75,M,D,Raw,Valentin Gontar,Валентин Гонтар,1987-09-26,73.9,,,,,,,,,-220,230,-240,230,230
3,Open,75,M,D,Raw,Andriy Tsitson,Андрій Цицонь,1983-03-31,73.6,,,,,,,,,-140,150,160,160,160
1,Masters,75,M,D,Raw,Volodimir Vasilenko,Володимир Василенко,1943-11-12,74.9,,,,,,,,,130,,,130,130
1,Teen 18-19,82.5,M,D,Raw,Oleksandr Padusenko,Олександр Падусенко,1998-03-04,77.3,,,,,,,,,160,175,,175,175
1,Teen 13-15,82.5,M,D,Raw,Oleksiy Bazir,Олексій Базирь,2001-08-08,79.7,,,,,,,,,110,120,,120,120
1,Juniors 20-23,82.5,M,D,Raw,Evgeniy Kalko,Євгеній Калько,1993-03-22,75.2,,,,,,,,,-240,-245,245,245,245
2,Juniors 20-23,82.5,M,D,Raw,Oleg Litvinenko,Олег Литвиненко,1995-03-25,77.4,,,,,,,,,210,230,240,240,240
3,Juniors 20-23,82.5,M,D,Raw,Vitaliy Rakovskiy,Віталій Раковський,1993-06-10,77.2,,,,,,,,,190,200,210,210,210
1,Open,82.5,M,D,Raw,Evgeniy Kalko,Євгеній Калько,1993-03-22,75.2,,,,,,,,,-240,-245,245,245,245
2,Open,82.5,M,D,Raw,Oleg Litvinenko,Олег Литвиненко,1995-03-25,77.4,,,,,,,,,210,230,240,240,240
1,Masters,82.5,M,D,Raw,Mikhaylo Litvinenko,Михайло Литвиненко,1969-10-27,82.2,,,,,,,,,140,145,-150,145,145
1,Teen 18-19,90,M,D,Raw,Anatoliy Pashko,Анатолій Пашко,1997-05-16,88.5,,,,,,,,,170,-185,185,185,185
1,Juniors 20-23,90,M,D,Raw,Denis Kolotiy,Денис Колотій,1994-11-14,85.9,,,,,,,,,-210,-210,210,210,210
2,Juniors 20-23,90,M,D,Raw,Evgeniy Muravyov,Євгеній Муравйов,1994-08-22,86.1,,,,,,,,,135,160,172.5,172.5,172.5
1,Open,90,M,D,Raw,Vitaliy Kuzinskiy,Віталій Кузінський,1984-08-15,88.2,,,,,,,,,260,270,-272.5,270,270
2,Open,90,M,D,Raw,Maksim Pokhiton,Максим Похитон,1992-08-24,83.6,,,,,,,,,-240,240,250,250,250
3,Open,90,M,D,Raw,Pavlo Kirilenko,Павло Кириленко,1983-05-21,88.6,,,,,,,,,230,240,-242.5,240,240
1,Juniors 20-23,100,M,D,Raw,Pavlo Poplavskiy,Павло Поплавський,1993-09-18,95.1,,,,,,,,,-170,190,-210,190,190
1,Open,100,M,D,Raw,Oleg Yanovich,Олег Янович,1992-05-05,93.5,,,,,,,,,275,-285,-285,275,275
2,Open,100,M,D,Raw,Viktor Rublyov,Віктор Рубльов,1975-10-26,97,,,,,,,,,240,-250,-250,240,240
1,Masters,100,M,D,Raw,Viktor Rublyov,Віктор Рубльов,1975-10-26,97,,,,,,,,,240,-250,-250,240,240
2,Masters,100,M,D,Raw,Oleg Kovbasa,Олег Ковбаса,1975-02-06,90.7,,,,,,,,,190,200,215,215,215
1,Open,110,M,D,Raw,Andriy Goray,Андрій Горай,1983-08-05,101.3,,,,,,,,,235,250,-260,250,250
1,Masters,110,M,D,Raw,Igor Onishchak,Ігор Онищак,1973-06-12,102.5,,,,,,,,,180,195,205,205,205
1,Open,125,M,D,Raw,Zhorzh Togola,Жорж Тогола,1989-04-05,112,,,,,,,,,295,-310,-310,295,295
1,Masters,100,M,D,Multi-ply,Sergiy Kolesnik,Сергій Колесник,1963-01-03,99.3,,,,,,,,,185,200,215,215,215
1,Open,110,M,D,Multi-ply,Oleksandr Bayda,Олександр Байда,1982-04-17,103.8,,,,,,,,,250,270,280,280,280
