Place,Name,CyrillicName,BirthYear,WeightClassKg,BodyweightKg,Best3SquatKg,Best3BenchKg,Best3DeadliftKg,TotalKg,Sex,Division,Event,Equipment
1,Oksana Kuznetsova,Оксана Кузнецова,1984,48,47.6,127.5,62.5,140,330,F,Open,SBD,Single-ply
2,Olga Bychkova,Ольга Бычкова,1966,48,47.95,130,62.5,130,322.5,F,Open,SBD,Single-ply
3,Mariya Khozyainova,Мария Хозяинова,1987,48,47.75,110,55,100,265,F,Open,SBD,Single-ply
1,Natalya Krikunova,Наталья Крикунова,1981,52,49.05,147.5,80,137.5,365,F,Open,SBD,Single-ply
2,Olga Vorobyova,Ольга Воробьёва,1981,52,51.5,125,65,145,335,F,Open,SBD,Single-ply
3,Anna Betsko,Анна Бецко,1986,52,51.1,120,60,120,300,F,Open,SBD,Single-ply
4,Olga Shekenyova,Ольга Шекенёва,1975,52,50.35,105,55,105,265,F,Open,SBD,Single-ply
1,Elena Kaneva,Елена Канева,1980,56,55.75,165,90,167.5,422.5,F,Open,SBD,Single-ply
2,Elena Vlasova,Елена Власова,1981,56,54.7,120,75,130,325,F,Open,SBD,Single-ply
1,Ekaterina Denisova,Екатерина Денисова,1988,60,59.6,130,60,132.5,322.5,F,Open,SBD,Single-ply
1,Elena Parfenova,Елена Парфенова,1966,67.5,63.3,175,102.5,170,447.5,F,Open,SBD,Single-ply
2,Nadezhda Sereda,Надежда Середа,1973,67.5,67.3,180,102.5,155,437.5,F,Open,SBD,Single-ply
3,Ekaterina Kotova,Екатерина Котова,1993,67.5,66.9,170,107.5,145,422.5,F,Open,SBD,Single-ply
4,Oksana Ilyushchenko,Оксана Илющенко,1993,67.5,67.15,157.5,100,135,392.5,F,Open,SBD,Single-ply
5,Elena Loseva,Елена Лосева,1990,67.5,67.5,147.5,62.5,135,345,F,Open,SBD,Single-ply
DQ,Valentina Guselnikova,Валентина Гусельникова,1983,67.5,66.8,187.5,,,,F,Open,SBD,Single-ply
1,Mariya Gulidova,Мария Гулидова,1989,75,67.9,217.5,147.5,195,560,F,Open,SBD,Single-ply
2,Natalya Bobkova,Наталья Бобкова,1983,75,72.9,165,95,165,425,F,Open,SBD,Single-ply
3,Elena Ovcharova,Елена Овчарова,1992,75,73.2,165,105,155,425,F,Open,SBD,Single-ply
4,Lyudmila Voronina,Людмила Воронина,1971,75,73.95,150,102.5,145,397.5,F,Open,SBD,Single-ply
5,Ekaterina Bratus,Екатерина Братусь,1991,75,75,152.5,77.5,165,395,F,Open,SBD,Single-ply
6,Ekaterina Tsygankova,Екатерина Цыганкова,1992,75,70.45,150,87.5,150,387.5,F,Open,SBD,Single-ply
1,Lyudmila Roshchina,Людмила Рощина,1983,82.5,75.05,190,100,192.5,482.5,F,Open,SBD,Single-ply
1,Natalya Zotova-Payusova,Наталья Зотова-Паюсова,1975,90+,115.6,240,182.5,242.5,665,F,Open,SBD,Single-ply
1,Oleg Noskov,Олег Носков,1984,56,55.6,205,120,215,540,M,Open,SBD,Single-ply
2,Pavel Dyakov,Павел Дьяков,1986,56,56,192.5,120,197.5,510,M,Open,SBD,Single-ply
3,Aleksey Savchenko,Алексей Савченко,1992,56,55.15,165,117.5,170,452.5,M,Open,SBD,Single-ply
DQ,Maksim Streltsov,Максим Стрельцов,1982,56,54.85,,,,,M,Open,SBD,Single-ply
1,Artyom Tavassherna,Артём Тавасшерна,1985,60,59.95,220,160,200,580,M,Open,SBD,Single-ply
2,Yuriy Groshnikov,Юрий Грошников,1984,60,60,220,115,230,565,M,Open,SBD,Single-ply
3,Sergey Krylov,Сергей Крылов,1984,60,59.85,200,170,192.5,562.5,M,Open,SBD,Single-ply
4,Aleksandr Gusev,Александр Гусев,1992,60,59,200,127.5,190,517.5,M,Open,SBD,Single-ply
5,Denis Valov,Денис Валов,1987,60,58.3,210,125,172.5,507.5,M,Open,SBD,Single-ply
1,Sergey Skochek,Сергей Скочек,1983,67.5,66.1,255,190,255,700,M,Open,SBD,Single-ply
2,Igor Kankiya,Игорь Канкия,1987,67.5,66.2,235,155,225,615,M,Open,SBD,Single-ply
3,Taras Popov,Тарас Попов,1988,67.5,67.45,242.5,140,232.5,615,M,Open,SBD,Single-ply
4,Ivan Mansurov,Иван Мансуров,1988,67.5,66.85,240,140,222.5,602.5,M,Open,SBD,Single-ply
5,Roman Morozov,Роман Морозов,1987,67.5,66.7,230,140,225,595,M,Open,SBD,Single-ply
6,Ilya Zinchenko,Илья Зинченко,1988,67.5,66.25,200,115,225,540,M,Open,SBD,Single-ply
7,Nikolay Zadorozhnyy,Николай Задорожный,1991,67.5,67.3,205,132.5,200,537.5,M,Open,SBD,Single-ply
DQ,Veniamin Daykov,Вениамин Дайков,1987,67.5,67.4,,,,,M,Open,SBD,Single-ply
1,Yuriy Zotov,Юрий Зотов,1987,75,74.9,270,180,280,730,M,Open,SBD,Single-ply
2,Aleksandr Vinyarskiy,Александр Винярский,1988,75,74.9,282.5,155,292.5,730,M,Open,SBD,Single-ply
3,Oleg Kuzmin,Олег Кузьмин,1985,75,74.5,280,177.5,260,717.5,M,Open,SBD,Single-ply
4,Roman Andriyanov,Роман Андриянов,1990,75,74.45,275,182.5,242.5,700,M,Open,SBD,Single-ply
5,Pavel Goncharov,Павел Гончаров,1982,75,74.8,287.5,170,240,697.5,M,Open,SBD,Single-ply
6,Yuriy Dekhtyaruk,Юрий Дехтярук,1977,75,74.05,260,155,270,685,M,Open,SBD,Single-ply
7,Anatoliy Lavrov,Анатолий Лавров,1982,75,74.35,280,155,250,685,M,Open,SBD,Single-ply
8,Vyacheslav Rubtsov,Вячеслав Рубцов,1988,75,74.45,260,190,235,685,M,Open,SBD,Single-ply
9,Igor Shchurilov,Игорь Щурилов,1984,75,74.95,280,182.5,220,682.5,M,Open,SBD,Single-ply
10,Aleksey Chuprov,Алексей Чупров,1983,75,74.65,260,135,270,665,M,Open,SBD,Single-ply
11,Maksim Kutovoy,Максим Кутовой,1989,75,74.5,240,170,230,640,M,Open,SBD,Single-ply
12,Sergey Kosarev,Сергей Косарев,1988,75,74.75,225,165,235,625,M,Open,SBD,Single-ply
DQ,Dmitriy Biryukov,Дмитрий Бирюков,1983,75,74.1,250,165,,,M,Open,SBD,Single-ply
DQ,Andrey Kruglov,Андрей Круглов,1978,75,74.35,,,,,M,Open,SBD,Single-ply
1,Gennadiy Eryomin,Геннадий Ерёмин,1979,82.5,82.15,340,235,320,895,M,Open,SBD,Single-ply
2,Sergey Melekhin,Сергей Мелехин,1972,82.5,82.3,320,212.5,290,822.5,M,Open,SBD,Single-ply
3,Viktor Kolobov,Виктор Колобов,1985,82.5,81.8,280,195,295,770,M,Open,SBD,Single-ply
4,Aleksandr Magurin,Александр Магурин,1987,82.5,82.15,285,180,285,750,M,Open,SBD,Single-ply
5,Dmitriy Shabalin #2,Дмитрий Шабалин,1981,82.5,82,270,205,255,730,M,Open,SBD,Single-ply
6,Vitaliy Demidov,Виталий Демидов,1987,82.5,82,290,165,265,720,M,Open,SBD,Single-ply
7,Denis Kuskov,Денис Кусков,1987,82.5,82,265,190,255,710,M,Open,SBD,Single-ply
8,Mikhail Kolesov,Михаил Колесов,1984,82.5,80.7,265,160,240,665,M,Open,SBD,Single-ply
9,Murat Amirkhanov,Мурат Амирханов,1990,82.5,77.55,255,162.5,237.5,655,M,Open,SBD,Single-ply
DQ,Denis Kozhevin,Денис Кожевин,1986,82.5,81.45,,,,,M,Open,SBD,Single-ply
DQ,Andrey Laykhinen,Андрей Лайхинен,1983,82.5,81.35,,,,,M,Open,SBD,Single-ply
1,Vladimir Grishaev,Владимир Гришаев,1981,90,89.5,360,270,300,930,M,Open,SBD,Single-ply
2,Aleksandr Glushakov,Александр Глушаков,1979,90,89.45,325,207.5,305,837.5,M,Open,SBD,Single-ply
3,Oleg Misyaev,Олег Мисяев,1980,90,88.9,315,210,300,825,M,Open,SBD,Single-ply
4,Ilya Tsvilyuk,Илья Цвилюк,1988,90,89.5,300,230,285,815,M,Open,SBD,Single-ply
5,Aleksandr Gorokhovskiy,Александр Гороховский,1989,90,89.9,320,182.5,300,802.5,M,Open,SBD,Single-ply
6,Sergey Kondakov,Сергей Кондаков,1984,90,87.2,305,185,300,790,M,Open,SBD,Single-ply
7,Sergey Zyuzin,Сергей Зюзин,1975,90,88.6,285,205,290,780,M,Open,SBD,Single-ply
8,Evgeniy Shurygin,Евгений Шурыгин,1983,90,89.1,295,215,270,780,M,Open,SBD,Single-ply
9,Maksim Stepanov #5,Максим Степанов,1987,90,85.55,300,175,285,760,M,Open,SBD,Single-ply
10,Vladimir Ignatenkov,Владимир Игнатенков,1991,90,89.4,300,187.5,272.5,760,M,Open,SBD,Single-ply
11,Ivan Baranov #4,Иван Баранов,1984,90,89.65,295,187.5,260,742.5,M,Open,SBD,Single-ply
12,Evgeniy Popov,Евгений Попов,1984,90,88.35,285,167.5,287.5,740,M,Open,SBD,Single-ply
13,Pavel Mitin,Павел Митин,1969,90,88.75,270,200,270,740,M,Open,SBD,Single-ply
14,Sergey Kondratenko,Сергей Кондратенко,1987,90,88.35,290,175,260,725.5,M,Open,SBD,Single-ply
15,Andrey Voroshin,Андрей Ворошин,1985,90,87.55,260,170,280,710,M,Open,SBD,Single-ply
16,Aleksandr Zhuravlyov,Александр Журавлёв,1985,90,86.7,250,185,250,685,M,Open,SBD,Single-ply
17,Arseniy Egmirov,Арсений Егмиров,1986,90,89.4,250,150,245,645,M,Open,SBD,Single-ply
18,Aleksey Drachuk,Алексей Драчук,1986,90,88,220,170,215,605,M,Open,SBD,Single-ply
1,Nikolay Bazanov,Николай Базанов,1981,100,99.3,370,230,322.5,922.5,M,Open,SBD,Single-ply
2,Konstantin Ratnieks,Константин Ратниекс,1980,100,99.15,365,250,305,920,M,Open,SBD,Single-ply
3,Anton Kushnir,Антон Кушнир,1983,100,99.25,340,225,315,880,M,Open,SBD,Single-ply
4,Sergey Bychkov,Сергей Бычков,1985,100,98.25,305,250,285,840,M,Open,SBD,Single-ply
5,Aleksandr Vulikh,Александр Вулих,1986,100,93.1,300,227.5,310,837.5,M,Open,SBD,Single-ply
6,Maksim Pestryakov,Максим Пестряков,1987,100,98.05,305,235,260,800,M,Open,SBD,Single-ply
7,Aleksandr Novozhilov,Александр Новожилов,1972,100,94.9,285,215,250,750,M,Open,SBD,Single-ply
8,Aleksandr Eybog,Александр Ейбог,1979,100,99.1,255,177.5,270,702.5,M,Open,SBD,Single-ply
9,Roman Sitnikov,Роман Ситников,1988,100,96.95,250,175,240,665,M,Open,SBD,Single-ply
DQ,Aleksandr Lobanov,Александр Лобанов,1961,100,99,190,,,,M,Open,SBD,Single-ply
1,Ivan Solovyov,Иван Соловьёв,1984,110,102.5,390,260,310,960,M,Open,SBD,Single-ply
2,Vitaliy Voznyy,Виталий Возьный,1977,110,109.7,370,255,312.5,937.5,M,Open,SBD,Single-ply
3,Nikolay Shylo,Николай Шыло,1987,110,108.7,370,260,290,920,M,Open,SBD,Single-ply
4,Eduard Surov,Эдуард Суров,1977,110,109.05,335,235,290,860,M,Open,SBD,Single-ply
5,Konstantin Lesukov,Константин Лесуков,1979,110,109.6,310,255,260,825,M,Open,SBD,Single-ply
6,Ilya Gamulin,Илья Гамулин,1982,110,108.45,325,180,315,820,M,Open,SBD,Single-ply
7,Aleksey Selyavin,Алексей Селявин,1988,110,100.75,285,235,290,810,M,Open,SBD,Single-ply
8,Evgeniy Kuzmin,Евгений Кузьмин,1978,110,107.05,290,240,275,805,M,Open,SBD,Single-ply
9,Igor Konovalov,Ігор Коновалов,1976,110,106.8,320,180,295,795,M,Open,SBD,Single-ply
10,Roman Kochin,Роман Кочин,1980,110,109.65,300,225,270,795,M,Open,SBD,Single-ply
11,Konstantin Mikhaylov,Константин Михайлов,1974,110,106.55,300,200,280,780,M,Open,SBD,Single-ply
12,Aleksandr Belyaev,Александр Беляев,1973,110,106.85,285,212.5,282.5,780,M,Open,SBD,Single-ply
1,Mikhail Viasovskiy,Михаил Виасовский,1984,125,123.5,370,230,345,945,M,Open,SBD,Single-ply
2,Igor Strekalovskiy,Игорь Стрекаловский,1981,125,118.95,345,240,325,910,M,Open,SBD,Single-ply
3,Sergey Petrushin,Сергей Петрушин,1981,125,118.25,350,240,310,900,M,Open,SBD,Single-ply
4,Andrey Osipovskiy,Андрей Осиповский,1985,125,114,350,237.5,305,892.5,M,Open,SBD,Single-ply
5,Kirill Suryadnov,Кирилл Суряднов,1982,125,118.25,302.5,200,317.5,820,M,Open,SBD,Single-ply
6,Maksim Prishchip,Максим Прищип,1982,125,120.65,300,195,280,775,M,Open,SBD,Single-ply
1,Andrey Golubev,Андрей Голубев,1982,125+,129.9,360,230,310,900,M,Open,SBD,Single-ply
2,Igor Kryuchkov,Игорь Крючков,1982,125+,125.8,340,215,305,860,M,Open,SBD,Single-ply
1,Mikhail Romanov,Михаил Романов,1984,82.5,81.25,190,155,225,570,M,Open,SBD,Raw
1,Sergey Bakhtin,Сергей Бахтин,1985,100,94,225,160,265,650,M,Open,SBD,Raw
