Place,Name,CyrillicName,BirthYear,WeightClassKg,BodyweightKg,Bench1Kg,Bench2Kg,Bench3Kg,Best3BenchKg,TotalKg,Event,Equipment,Sex,Division
1,Oksana Ryzhenko,Оксана Рыженко,1975,48,44.7,82.5,90,92.5,92.5,92.5,B,Single-ply,F,Open
2,Olga Kovalchuk,Ольга Ковальчук,1980,48,47.6,42.5,-45,47.5,47.5,47.5,B,Single-ply,F,Open
1,Tamara Ufimtseva,Тамара Уфимцева,1977,52,52,82.5,87.5,92.5,92.5,92.5,B,Single-ply,F,Open
1,Natalya Tkacheva,Наталья Ткачева,1977,56,56,95,100,-105,100,100,B,Single-ply,F,Open
2,Evgeniya Petrova,Евгения Петрова,1982,56,55.75,-87.5,92.5,-97.5,92.5,92.5,B,Single-ply,F,Open
1,Tatyana Eltsova,Татьяна Ельцова,1978,60,60,120,125,130,130,130,B,Single-ply,F,Open
1,Irina Poletaeva,Ирина Полетаева,1982,67.5,62.3,155,162.5,-167.5,162.5,162.5,B,Single-ply,F,Open
1,Kseniya Petrova,Ксения Петрова,1981,75,67.6,130,135,-137.5,135,135,B,Single-ply,F,Open
2,Natalya Nebaeva,Наталья Небаева,1976,75,67.55,120,130,-135,130,130,B,Single-ply,F,Open
3,Oksana Pribylova,Оксана Прибылова,1982,75,71.55,105,-115,115,115,115,B,Single-ply,F,Open
1,Evgeniya Shabanova,Евгения Шабанова,1977,82.5,81.85,135,140,-145,140,140,B,Single-ply,F,Open
1,Tamara Nekoshnova,Тамара Некошнова,1982,90,90,125,130,135,135,135,B,Single-ply,F,Open
1,Konstantin Pavlov,Константин Павлов,1973,56,55.9,175,-180,180,180,180,B,Single-ply,M,Open
2,Igor Sadovin,Игорь Садовин,1967,56,55,130,140,-145,140,140,B,Single-ply,M,Open
1,Andrey Svistunov,Андрей Свистунов,1977,60,59.3,-135,135,137.5,137.5,137.5,B,Single-ply,M,Open
2,Maksim Perkov,Максим Перков,1985,60,59.95,120,130,-137.5,130,130,B,Single-ply,M,Open
1,Sergey Chibisov,Сергей Чибисов,1983,67.5,67,180,192.5,202.5,202.5,202.5,B,Single-ply,M,Open
2,Pavel Nikolovskiy,Павел Николовский,1978,67.5,65.35,160,-167.5,-167.5,160,160,B,Single-ply,M,Open
1,Aleksandr Zolov,Александр Золов,1980,75,74.1,210,220,225,225,225,B,Single-ply,M,Open
2,Aleksandr Semenov,Александр Семенов,1985,75,74.95,200,207.5,212.5,212.5,212.5,B,Single-ply,M,Open
3,Mikhail Melekhin,Михаил Мелехин,1978,75,74.1,185,195,-207.5,195,195,B,Single-ply,M,Open
4,Maksim Beloborodov,Максим Белобородов,1983,75,71.55,185,-192.5,-192.5,185,185,B,Single-ply,M,Open
5,Roman Menshikov,Роман Меньшиков,1982,75,74.85,180,-187.5,-187.5,180,180,B,Single-ply,M,Open
DQ,Nikolay Emelyanovich,Николай Емельянович,1970,75,74.65,-185,-187.5,-187.5,,,B,Single-ply,M,Open
1,Artem Korotygin,Артем Коротыгин,1980,82.5,82.05,235,245,252.5,252.5,252.5,B,Single-ply,M,Open
2,Pavel Ozerov,Павел Озеров,1980,82.5,80,220,230,235,235,235,B,Single-ply,M,Open
1,Dmitriy Gaak,Дмитрий Гаак,1981,90,89.1,-225,225,-235,225,225,B,Single-ply,M,Open
2,Aleksandr Ryashchikov,Александр Рящиков,1983,90,84.65,200,207.5,212.5,212.5,212.5,B,Single-ply,M,Open
3,Artem Bykhovets,Артем Быховец,1983,90,85.6,202.5,212.5,-225,212.5,212.5,B,Single-ply,M,Open
4,Rais Nikolaev,Раис Николаев,1964,90,88.05,190,-200,200,200,200,B,Single-ply,M,Open
5,Denis Komalikov,Денис Комаликов,1985,90,82.6,185,-200,-207.5,185,185,B,Single-ply,M,Open
6,Evgeniy Mamunov,Евгений Мамунов,1975,90,89.35,-175,-175,175,175,175,B,Single-ply,M,Open
1,Dmitriy Likhanov,Дмитрий Лиханов,1979,100,98.55,235,242.5,247.5,247.5,247.5,B,Single-ply,M,Open
2,Artem Nechaev,Артем Нечаев,1985,100,99.45,-240,240,247.5,247.5,247.5,B,Single-ply,M,Open
3,Dmitriy Penkin,Дмитрий Пенкин,1973,100,98.6,240,245,-250,245,245,B,Single-ply,M,Open
4,Ivan Lykov,Иван Лыков,1976,100,98.65,225,235,-245,235,235,B,Single-ply,M,Open
5,Vladislav Makeev,Владислав Макеев,1976,100,100,220,230,235,235,235,B,Single-ply,M,Open
6,Fedor Opalev,Федор Опалев,1973,100,98.45,230,-240,-240,230,230,B,Single-ply,M,Open
DQ,Pavel Konoshevich,Павел Коношевич,1979,100,98.2,-230,-240,-242.5,,,B,Single-ply,M,Open
1,Oleg Shetukhin,Олег Шетухин,1985,110,109.2,-290,290,-300,290,290,B,Single-ply,M,Open
2,Dmitriy Batrakov,Дмитрий Батраков,1976,110,107.45,-250,-260,260,260,260,B,Single-ply,M,Open
3,Yuriy Pudikov,Юрий Пудиков,1982,110,106.3,235,245,-255,245,245,B,Single-ply,M,Open
4,Evgeniy Kurtsev,Евгений Курцев,1971,110,109.45,240,-255,-265,240,240,B,Single-ply,M,Open
5,Viktor Prisyazhnyuk,Виктор Присяжнюк,1973,110,104.65,-200,200,-210,200,200,B,Single-ply,M,Open
1,Sergey Semakin,Сергей Семакин,1978,125,119.1,270,-277.5,-277.5,270,270,B,Single-ply,M,Open
2,Vyacheslav Voronin,Вячеслав Воронин,1976,125,121.7,205,225,-235,225,225,B,Single-ply,M,Open
DQ,Yuriy Vovk,Юрий Вовк,1970,125,123,-280,-280,-280,,,B,Single-ply,M,Open
1,Aleksey Mikhalev,Алексей Михалев,1984,125+,148.5,250,265,272.5,272.5,272.5,B,Single-ply,M,Open
2,Sergey Kushchev,Сергей Кущев,1966,125+,141.25,-230,230,-242.5,230,230,B,Single-ply,M,Open
DQ,Aleksandr Berezin,Александр Березин,1974,125+,147.6,-330,-330,-330,,,B,Single-ply,M,Open
