Place,Name,Division,BodyweightKg,Squat1Kg,Squat2Kg,Squat3Kg,Best3SquatKg,Squat4Kg,Bench1Kg,Bench2Kg,Bench3Kg,Best3BenchKg,Bench4Kg,Deadlift1Kg,Deadlift2Kg,Deadlift3Kg,Best3DeadliftKg,Deadlift4Kg,TotalKg,WeightClassKg,Sex,CyrillicName,BirthYear,Equipment,Tested,Event
1,Timur Mamedov,O,82.5,210,225,240,240,,145,155,165,165,,235,245,-255,245,,650,82.5,M,Тимур Мамедов,1983,Wraps,No,SBD
1,Dmitriy Melikhov,O,95.8,207.5,220,232.5,232.5,,140,147.5,152.5,152.5,,215,235,-252.5,235,,620,100,M,Дмитрий Мелихов,1979,Wraps,No,SBD
1,Pavel Sazonov,O,105.8,-240,240,250,250,,155,162.5,167.5,167.5,,265,275,282.5,282.5,,700,110,M,,1986,Wraps,No,SBD
2,Dmitriy Lavrov,O,109.6,-210,210,-230,210,,180,190,-195,190,,200,-220,220,220,,620,110,M,Дмитрий Лавров,1979,Wraps,No,SBD
1,Nikolay Markin,O,131,200,225,247.5,247.5,255,180,-190,-190,180,,210,237.5,-260,237.5,,665,140,M,Николай Маркин,1981,Wraps,No,SBD
1,Margarita Dyachenko,J,45.5,60,65,-72.5,65,,37.5,40,-42.5,40,,72.5,77.5,-80,77.5,,182.5,48,F,Маргарита Дьяченко,1995,Wraps,Yes,SBD
1,Mariya Ukhareva,O,59,-85,85,-90,85,,60,65,-70,65,,100,-110,110,110,,260,60,F,Мария Ухарева,1988,Wraps,Yes,SBD
2,Mariya Yakushina,O,58.6,57.5,65,-70,65,,37.5,40,-42.5,40,,70,75,80,80,,185,60,F,Мария Якушина,1990,Wraps,Yes,SBD
DQ,Ekaterina Chuprakova,O,59.5,-110,-112.5,-112.5,,,,,,,,,,,,,,60,F,Екатерина Чупракова,1982,Wraps,Yes,SBD
1,Olga Ushakova,M1,66.4,-80,85,-87.5,85,,45,50,-52.5,50,,85,90,95,95,,230,67.5,F,Ольга Ушакова,1974,Wraps,Yes,SBD
1,Natalya Safarova,O,72.4,95,102.5,110,110,,50,57.5,-62.5,57.5,,125,132.5,140,140,,307.5,75,F,Наталья Сафарова,1988,Wraps,Yes,SBD
2,Mariya Myuris,O,74.9,90,97.5,-102.5,97.5,,55,-60,-60,55,,110,-120,,110,,262.5,75,F,Мария Мюрис,1990,Wraps,Yes,SBD
1,Artem Ilov,T1,70.1,125,135,-140,135,,-75,-75,80,80,,125,135,145,145,,360,75,M,Артем Илов,2003,Wraps,Yes,SBD
1,Sergey Orlov,O,69.6,125,140,-150,140,,115,125,-135,125,,160,180,-200,180,,445,75,M,Сергей Орлов,1986,Wraps,Yes,SBD
1,Andrey Ganichkin,O,82.5,-180,180,190,190,,130,-140,145,145,,240,250,260,260,,595,82.5,M,Андрей Ганичкин,1984,Wraps,Yes,SBD
2,Igor Shkurenko,O,80.3,165,175,180,180,,100,110,-115,110,,180,190,200,200,,490,82.5,M,Игорь Шкуренко,1989,Wraps,Yes,SBD
1,Aleksandr Semenov,M1,82.3,-115,-115,115,115,,115,120,-125,120,,165,170,-175,170,,405,82.5,M,Александр Семенов,1977,Wraps,Yes,SBD
1,Aleksey Gvozdev,M2,82.2,172.5,182.5,187.5,187.5,,112.5,-115,115,115,,200,205,-212.5,205,,507.5,82.5,M,Алексей Гвоздев,1972,Wraps,Yes,SBD
DQ,Kirill Markin,O,85.6,-205,-205,-205,,,,,,,,,,,,,,90,M,Кирилл Маркин,1999,Wraps,Yes,SBD
1,Pavel Gromov,M1,86.1,155,160,-170,160,,-125,125,130,130,,195,205,-220,205,,495,90,M,Павел Громов,1976,Wraps,Yes,SBD
1,Nikolay Murzakhanov,M5,87.3,110,130,,130,,100,110,,110,,130,160,-170,160,,400,90,M,Николай Мурзаханов,1955,Wraps,Yes,SBD
1,Mikhail Vetrenko,J,99.1,-180,180,-200,180,,150,-160,-160,150,,230,245,-270,245,,575,100,M,Михаил Ветренко,1997,Wraps,Yes,SBD
2,Nikita Zubkov,J,99.3,160,170,180,180,,125,135,-137.5,135,,200,-220,-220,200,,515,100,M,Никита Зубков,1995,Wraps,Yes,SBD
5,Maksim Galkin,J,95.1,100,,,100,,70,,,70,,100,,,100,,270,100,M,Максим Галкин,1994,Wraps,Yes,SBD
1,Aleksandr Gostyaev,O,97.3,-210,-215,215,215,,135,-140,142.5,142.5,,250,-260,-260,250,,607.5,100,M,Александр Гостяев,1982,Wraps,Yes,SBD
1,Andrey Mikhaylov,O,94.2,160,-175,180,180,,140,155,-160,155,,190,215,220,220,,555,100,M,Андрей Михайлов,1983,Wraps,Yes,SBD
DQ,Evgeniy Obidin,O,109.1,170,180,-190,180,,-140,-142.5,-142.5,,,,,,,,,110,M,Евгений Обидин,1983,Wraps,Yes,SBD
1,Elena Rydkina,O,54.5,100,110,-130,110,,50,55,57.5,57.5,,110,120,-127.5,120,,287.5,56,F,Елена Рыдкина,1981,Raw,No,SBD
1,Irina Mikhaylova,O,59.2,-100,100,110,110,,45,50,-55,50,,110,120,-125,120,,280,60,F,Ирина Михайлова,1983,Raw,No,SBD
1,Galina Netrebina,O,66.2,140,150,-160,150,,70,77.5,82.5,82.5,,-155,155,170,170,,402.5,67.5,F,Галина Нетребина,1978,Raw,No,SBD
2,Olga Grigoryeva,O,63.9,-135,140,-145,140,,65,70,75,75,,125,132.5,140,140,,355,67.5,F,Ольга Григорьева,1985,Raw,No,SBD
DQ,Tatyana Filimonova,M2,73.6,-95,-100,,,,,,,,,,,,,,,75,F,Татьяна Филимонова,1968,Raw,No,SBD
1,Pavel Temenko,J,76.4,160,180,-190,180,,95,102.5,110,110,,150,160,-170,160,,450,82.5,M,Павел Теменко,1994,Raw,No,SBD
1,Sergey Skoptsov,O,81.5,180,190,197.5,197.5,,122.5,-127.5,-127.5,122.5,,225,230,235,235,,555,82.5,M,Сергей Скопцов,1986,Raw,No,SBD
1,Aleksey Yagunov,M2,81.7,215,225,,225,,125,132.5,-140,132.5,,210,220,230,230,,587.5,82.5,M,Алексей Ягунов,1968,Raw,No,SBD
1,Aleksey Molochkov,M4,82.5,175,185,190,190,,135,140,147.5,147.5,,190,200,212.5,212.5,,550,82.5,M,Алексей Молочков,1962,Raw,No,SBD
1,Andrey Bubin,O,89.1,270,285,-295,285,,160,-170,-170,160,,240,260,270,270,,715,90,M,Андрей Бубин,1981,Raw,No,SBD
1,Aleksandr Gyurdzhidi,M1,89.7,180,-200,-200,180,,140,150,,150,,190,222.5,,222.5,,552.5,90,M,Александр Гюрджиди,1974,Raw,No,SBD
1,Sergey Vinogradov,M2,89.3,160,180,200,200,,135,145,-155,145,,200,210,220,220,,565,90,M,Сергей Виноградов,1970,Raw,No,SBD
1,Nikolay Dubrovin,O,99,-280,-280,290,290,,-180,180,-187.5,180,,275,-287.5,-287.5,275,,745,100,M,Николай Дубровин,1987,Raw,No,SBD
2,Roman Kroshkin,O,95,235,247.5,255,255,,140,147.5,-152.5,147.5,,245,260,270,270,,672.5,100,M,Роман Крошкин,1981,Raw,No,SBD
DQ,Sergey Kimenshu,O,96.7,-240,240,260,260,,137.5,-147.5,147.5,147.5,,-240,-245,-245,,,,100,M,Сергей Кименшу,1982,Raw,No,SBD
1,Oleg Rendorenko,O,108.5,300,322.5,330,330,,160,172.5,-177.5,172.5,,300,310,,310,,812.5,110,M,Олег Рендоренко,1991,Raw,No,SBD
2,Sergey Mischenko,O,107.9,275,-290,290,290,,155,165,-172.5,165,,265,-275,275,275,,730,110,M,Сергей Мищенко,1988,Raw,No,SBD
3,Aleksandr Drozdov,O,105.8,230,235,245,245,,140,-150,,140,,230,240,-250,240,,625,110,M,Александр Дроздов,1980,Raw,No,SBD
1,Andrey Drozhzhin,O,118.2,290,310,330,330,,180,190,200,200,,275,285,295,295,,825,125,M,Андрей Дрожжин,1977,Raw,No,SBD
1,Andrey Drozhzhin,M1,118.2,290,310,330,330,,180,190,200,200,,275,285,295,295,,825,125,M,Андрей Дрожжин,1977,Raw,No,SBD
2,Aleksandr Romanov,M1,114,220,230,-240,230,,180,185,-190,185,,240,260,,260,,675,125,M,Александр Романов,1973,Raw,No,SBD
1,Andrey Chichikin,M5,112.3,200,215,-230,215,,100,107.5,-115,107.5,,200,215,230,230,,552.5,125,M,Андрей Чичикин,1958,Raw,No,SBD
1,Anna Kireeva,O,48,-90,90,95,95,,50,-52.5,52.5,52.5,,95,100,-102.5,100,,247.5,48,F,Анна Киреева,1991,Raw,Yes,SBD
1,Alina Shestiglazova,J,52,100,-110,-110,100,,55,62.5,67.5,67.5,,95,105,-110,105,,272.5,52,F,Алина Шестиглазова,1995,Raw,Yes,SBD
1,Aleksandra Krivoshapova,O,51.3,92.5,97.5,100,100,,50,55,-57.5,55,,92.5,100,-105,100,,255,52,F,Александра Кривошапова,1989,Raw,Yes,SBD
1,Oksana Grigoryeva,J,55.3,85,-90,-90,85,,45,50,55,55,,90,100,-122.5,100,,240,56,F,Оксана Григорьева,1997,Raw,Yes,SBD
DQ,Natalya Dobrova,M2,54,75,80,82.5,82.5,,-60,-60,-60,,,,,,,,,56,F,Наталья Доброва,1970,Raw,Yes,SBD
DQ,Anastasiya Sapozhnikova,J,59.4,-130,-130,-130,,,,,,,,,,,,,,60,F,Анастасия Сапожникова,1995,Raw,Yes,SBD
1,Viktoriya Dorofeeva,T,66.1,110,-115,115,115,,62.5,65,67.5,67.5,,130,135,140,140,,322.5,67.5,F,Виктория Дорофеева,1998,Raw,Yes,SBD
DQ,Mariya Volkova,J,64.5,-150,-160,-160,,,,,,,,,,,,,,67.5,F,Мария Волкова,1995,Raw,Yes,SBD
1,Dana Efimanova,O,64.8,90,100,105,105,,45,-55,55,55,,115,130,-140,130,,290,67.5,F,Дана Ефиманова,1988,Raw,Yes,SBD
2,Yuliya Semkina,O,65.2,90,97.5,105,105,,55,57.5,60,60,,95,105,107.5,107.5,,272.5,67.5,F,Юлия Семкина,1989,Raw,Yes,SBD
DQ,Olga Ushakova,O,66.4,-80,,,,,,,,,,,,,,,,67.5,F,Ольга Ушакова,1974,Raw,Yes,SBD
DQ,Mariya Volkova,O,64.5,-150,-160,-160,,,,,,,,,,,,,,67.5,F,Мария Волкова,1995,Raw,Yes,SBD
1,Valentina Busova,T,69,115,125,-130,125,,55,60,-62.5,60,,100,110,-117.5,110,,295,75,F,Валентина Бусова,1998,Raw,Yes,SBD
1,Elena Lopatina,M3,72.3,80,90,-100,90,,50,55,-60,55,,90,100,110,110,,255,75,F,Елена Лопатина,1967,Raw,Yes,SBD
1,Nadezhda Marochkina,M5,73.7,100,-110,115,115,,-65,-65,65,65,,100,110,115,115,,295,75,F,Надежда Марочкина,1957,Raw,Yes,SBD
1,Evgeniy Lyadov,O,65.1,100,115,-117.5,115,,-80,-82.5,82.5,82.5,,140,145,-150,145,,342.5,67.5,M,Евгений Лядов,1984,Raw,Yes,SBD
1,Evgeniy Pedurets,T,71.2,-160,160,-175,160,,90,97.5,100,100,,170,185,-190,185,,445,75,M,Евгений Пэдурец,1999,Raw,Yes,SBD
1,Evgeniy Burlakov,J,70,-175,-180,180,180,,90,-95,-95,90,,185,-190,-190,185,,455,75,M,Евгений Бурлаков,1995,Raw,Yes,SBD
1,Ruslan Kosarev,O,74.7,-185,185,200,200,,-125,125,-130,125,,180,195,202.5,202.5,,527.5,75,M,Руслан Косарев,1990,Raw,Yes,SBD
2,Oleg Ulyanov,O,72.6,160,170,185,185,,-100,-110,110,110,,180,-200,200,200,,495,75,M,Олег Ульянов,1989,Raw,Yes,SBD
3,Andrey Lavrentyev #1,O,73.4,-160,165,175,175,,120,130,135,135,,160,-180,-180,160,,470,75,M,Андрей Лавреньтьев,1983,Raw,Yes,SBD
1,Vasiliy Perov,O,82.5,-250,250,-260,250,,157.5,165,-170,165,,250,-265,265,265,,680,82.5,M,Василий Перов,1979,Raw,Yes,SBD
2,Roman Bogdanov,O,80.8,180,190,200,200,,140,147.5,150,150,,180,190,200,200,,550,82.5,M,Роман Богданов,1983,Raw,Yes,SBD
DQ,Vladimir Kazemirov,O,80.3,-160,-160,-160,,,,,,,,,,,,,,82.5,M,Владимир Каземиров,1986,Raw,Yes,SBD
1,Zhavokhir Askaraliev,J,88.5,170,-180,-180,170,,145,-150,-150,145,,200,-210,-210,200,,515,90,M,Жавохир Аскаралиев,1993,Raw,Yes,SBD
1,Aleksandr Kotov,O,89.1,-240,240,250,250,,-140,140,-150,140,,220,230,-240,230,,620,90,M,Александр Котов,1987,Raw,Yes,SBD
DQ,Konstantin Kozak,O,87.1,-210,-210,-210,,,,,,,,,,,,,,90,M,Константин Козак,1993,Raw,Yes,SBD
1,Aleksey Tushin,M3,88.8,160,180,-190,180,,120,-125,-125,120,,180,190,-200,190,,490,90,M,Алексей Тушин,1964,Raw,Yes,SBD
1,Vladimir Tarbonov,M5,87.8,175,185,-192.5,185,,92.5,97.5,-100,97.5,,200,205,210,210,,492.5,90,M,Владимир Тарбонов,1954,Raw,Yes,SBD
1,Zakir Omarov,T,98.3,140,145,155,155,,95,-100,-100,95,,155,165,170,170,,420,100,M,Закир Омаров,1998,Raw,Yes,SBD
1,Maksim Elistratov,J,99.5,215,225,235,235,,-125,125,-135,125,,220,225,235,235,,595,100,M,Максим Елистратов,1994,Raw,Yes,SBD
1,Nikolay Afanasyev,O,97.1,250,265,-275,265,,150,160,170,170,,220,240,260,260,,695,100,M,Николай Афанасьев,1981,Raw,Yes,SBD
2,Oleg Trunov,O,97.4,220,240,250,250,,160,170,180,180,,210,230,240,240,,670,100,M,Олег Трунов,1988,Raw,Yes,SBD
3,Mikhail Zhukov,O,99.5,-225,225,235,235,,140,145,,145,,260,-270,,260,,640,100,M,Михаил Жуков,1987,Raw,Yes,SBD
4,Dmitriy Tsygankov,O,97.8,220,230,-240,230,,135,140,,140,,215,225,-235,225,,595,100,M,Дмитрий Цыганков,1990,Raw,Yes,SBD
1,Aleksandr Gezhenko,M5,99.5,120,130,140,140,,105,110,112.5,112.5,,150,165,175,175,,427.5,100,M,Александр Геженко,1953,Raw,Yes,SBD
1,Artem Polyanskiy,T,107.9,240,245,250,250,,150,160,-165,160,,230,-242.5,-255,230,,640,110,M,Артем Полянский,1998,Raw,Yes,SBD
1,Pavel Kriulenko,J,101.5,-245,245,-250,245,,155,160,-165,160,,250,-260,-260,250,,655,110,M,Павел Криуленко,1997,Raw,Yes,SBD
1,Pavel Kriulenko,O,101.5,-245,245,-250,245,,155,160,-165,160,,250,-260,-260,250,,655,110,M,Павел Криуленко,1997,Raw,Yes,SBD
2,Mikhail Stroilov,O,109.9,220,230,240,240,,140,150,-160,150,,230,240,-245,240,,630,110,M,Михаил Строилов,1976,Raw,Yes,SBD
3,Dmitriy Ilyukhin,O,107.4,-185,185,200,200,,140,150,-155,150,,190,205,220,220,,570,110,M,Дмитрий Илюхин,1982,Raw,Yes,SBD
DD,Andrey Imenyev,O,106.4,235,250,-265,250,,170,-180,-185,170,,225,-240,245,245,,,110,M,Андрей Именьев,1989,Raw,Yes,SBD
1,Mikhail Stroilov,M1,109.9,220,230,240,240,,140,150,-160,150,,230,240,-245,240,,630,110,M,Михаил Строилов,1976,Raw,Yes,SBD
1,Sergey Kiselev,J,116.2,280,300,-310,300,,185,200,,200,,280,300,,300,,800,125,M,Сергей Киселев,1995,Raw,Yes,SBD
1,Aleksey Stepanchenko,O,123.4,235,245,-250,245,,-160,160,-165,160,,-235,235,245,245,,650,125,M,Алексей Степанченко,1988,Raw,Yes,SBD
1,Svyatoslav Kotik,M2,115.3,200,210,220,220,,160,167.5,-170,167.5,,200,-215,,200,,587.5,125,M,Святослав Котик,1972,Raw,Yes,SBD
1,Sergey Sventitskiy,J,128.2,260,-270,275,275,,192.5,202.5,-207.5,202.5,,300,-310,,300,,777.5,140,M,Сергей Свентицкий,1994,Raw,Yes,SBD
1,Sergey Sventitskiy,O,128.2,260,-270,275,275,,192.5,202.5,-207.5,202.5,,300,-310,,300,,777.5,140,M,Сергей Свентицкий,1994,Raw,Yes,SBD
DQ,Artem Tarasov,O,88.9,-280,-280,-280,,,,,,,,,,,,,,90,M,Артем Тарасов,1992,Single-ply,No,SBD
1,Ruslan Magomadov,M3,98.2,200,215,-220,215,,160,-170,170,170,,200,-215,-215,200,,585,100,M,Руслан Магомадов,1964,Single-ply,No,SBD
1,Dmitriy Shabalin #1,M2,135.5,300,320,,320,,295,305,,305,,280,305,,305,,930,140,M,Дмитрий Шабалин,1969,Single-ply,No,SBD
1,Denis Sevostyanov,J,66.4,-190,195,-205,195,,110,-120,120,120,,200,-220,-220,200,,515,67.5,M,Денис Севостьянов,1996,Single-ply,Yes,SBD
1,Mikhail Mironov,O,96.4,290,310,-320,310,,190,200,-205,200,,280,300,,300,,810,100,M,Михаил Миронов,1994,Single-ply,Yes,SBD
1,Ilya Lisitskiy,O,104.7,180,192.5,-200,192.5,,125,-135,135,135,,217.5,-242.5,-242.5,217.5,,545,110,M,Илья Лисицкий,1993,Single-ply,Yes,SBD
1,Olga Lazurenko,O,64.3,,,,,,110,115,117.5,117.5,-120,,,,,,117.5,67.5,F,Ольга Лазуренко,1971,Raw,No,B
2,Nadezhda Vlasova,O,64.4,,,,,,100,110,-112.5,110,,,,,,,110,67.5,F,Надежда Власова,1982,Raw,No,B
3,Mariya Koretskaya,O,62.5,,,,,,92.5,-95,-95,92.5,,,,,,,92.5,67.5,F,Мария Корецкая,1981,Raw,No,B
4,Elena Akhmetova,O,67,,,,,,60,-65,-67.5,60,,,,,,,60,67.5,F,Елена Ахметова,1991,Raw,No,B
1,Nursultan Karazhan,T,66.2,,,,,,100,-105,-105,100,,,,,,,100,67.5,M,Нурсултан Каражан,1998,Raw,No,B
2,Egor Arkharov,T,65,,,,,,97.5,-107.5,-107.5,97.5,,,,,,,97.5,67.5,M,Егор Архаров,1998,Raw,No,B
1,Aleksandr Rumyantsev,O,65.7,,,,,,80,85,-90,85,,,,,,,85,67.5,M,Александр Румянцев,1991,Raw,No,B
1,Vladimir Berdnikov,O,74.5,,,,,,142.5,147.5,-150,147.5,,,,,,,147.5,75,M,Владимир Бердников,1987,Raw,No,B
2,Artem Latushkin,O,73.8,,,,,,105,112.5,115,115,,,,,,,115,75,M,Артем Латушкин,1982,Raw,No,B
1,Andrey Mescheryakov,M3,75,,,,,,95,105,-107.5,105,,,,,,,105,75,M,Андрей Мещеряков,1965,Raw,No,B
1,Aleksey Syuta,O,78.8,,,,,,160,165,167.5,167.5,,,,,,,167.5,82.5,M,Алексей Сюта,1979,Raw,No,B
2,Arseniy Kechkin,O,81.8,,,,,,152.5,157.5,160,160,,,,,,,160,82.5,M,Арсений Кечкин,1989,Raw,No,B
3,Aleksey Pankratov,O,78.8,,,,,,145,152.5,-157.5,152.5,,,,,,,152.5,82.5,M,Алексей Панкратов,1991,Raw,No,B
4,Kirill Chayka,O,81.7,,,,,,137.5,-145,-145,137.5,,,,,,,137.5,82.5,M,Кирилл Чайка,1989,Raw,No,B
1,Aleksey Savostyanov,J,88.6,,,,,,155,165,-177.5,165,,,,,,,165,90,M,Алексей Савостьянов,1994,Raw,No,B
1,Sergey Timchenko,O,88.2,,,,,,205,212.5,220,220,,,,,,,220,90,M,Сергей Тимченко,1979,Raw,No,B
2,Eduard Baymeshev,O,87.1,,,,,,180,-182.5,-182.5,180,,,,,,,180,90,M,Эдуард Баймешев,1991,Raw,No,B
3,Mikhail Korobkov,O,89.5,,,,,,152.5,-155,-155,152.5,,,,,,,152.5,90,M,Михаил Коробков,1989,Raw,No,B
4,Konstantin Tikhomirov,O,86.5,,,,,,125,-130,-130,125,,,,,,,125,90,M,Константин Тихомиров,1982,Raw,No,B
1,Nikolay Kostev,M4,85.3,,,,,,155,-162.5,-162.5,155,,,,,,,155,90,M,Николай Костев,1959,Raw,No,B
1,Sergey Shamin,O,98.3,,,,,,210,217.5,220,220,,,,,,,220,100,M,Сергей Шамин,1983,Raw,No,B
2,Aleksey Ozerov,O,97.5,,,,,,190,200,210,210,-217.5,,,,,,210,100,M,Алексей Озеров,1983,Raw,No,B
3,Andrey Kukhnevskiy,O,100,,,,,,200,210,-215,210,,,,,,,210,100,M,Андрей Кухневский,1981,Raw,No,B
4,Eduard Kovshin,O,98.5,,,,,,187.5,197.5,-205,197.5,,,,,,,197.5,100,M,Эдуард Ковшин,1990,Raw,No,B
5,Sergey Gavrilyuk,O,91.1,,,,,,175,182.5,-190,182.5,,,,,,,182.5,100,M,Сергей Гаврилюк,1988,Raw,No,B
6,Egor Kiselev,O,91,,,,,,50,55,-60,55,,,,,,,55,100,M,Егор Киселев,2006,Raw,No,B
1,Nikolay Kotov,M1,99.1,,,,,,165,170,-172.5,170,,,,,,,170,100,M,Николай Котов,1975,Raw,No,B
1,Igor Shinov,M2,97.1,,,,,,160,167.5,172.5,172.5,,,,,,,172.5,100,M,Игорь Шинов,1970,Raw,No,B
2,Sergey Ashmarov,M2,100,,,,,,120,130,-140,130,,,,,,,130,100,M,Сергей Ашмаров,1972,Raw,No,B
1,Natig Aliev,M3,97.4,,,,,,190,-197.5,,190,,,,,,,190,100,M,,1964,Raw,No,B
1,Ivan Trunov,O,106.9,,,,,,230,-240,-240,230,,,,,,,230,110,M,Иван Трунов,1980,Raw,No,B
2,Dmitriy Rogatin,O,109.4,,,,,,210,220,-232.5,220,,,,,,,220,110,M,Дмитрий Рогатин,1984,Raw,No,B
3,Mikhail Khomutov,O,106.3,,,,,,190,195,197.5,197.5,,,,,,,197.5,110,M,Михаил Хомутов,1981,Raw,No,B
4,Igor Tarasov #1,O,101,,,,,,190,-195,-195,190,,,,,,,190,110,M,Игорь Тарасов,1992,Raw,No,B
5,Igor Soldatov,O,105.4,,,,,,175,-185,-185,175,,,,,,,175,110,M,Игорь Солдатов,1985,Raw,No,B
6,Aleksey Lysov,O,108.1,,,,,,165,-170,-170,165,,,,,,,165,110,M,Алексей Лысов,1980,Raw,No,B
1,Dmitriy Gorbachev,M1,104.9,,,,,,-195,197.5,205,205,,,,,,,205,110,M,Дмитрий Горбачев,1976,Raw,No,B
DQ,Dmitriy Prokudin,M1,107.1,,,,,,-165,-170,-187.5,,,,,,,,,110,M,Дмитрий Прокудин,1974,Raw,No,B
1,Dmitriy Rasskazikhin,M2,101.9,,,,,,165,-170,172.5,172.5,,,,,,,172.5,110,M,Дмитрий Рассказихин,1969,Raw,No,B
2,Oleg Tikhonov,M2,107,,,,,,160,170,172.5,172.5,,,,,,,172.5,110,M,Олег Тихонов,1969,Raw,No,B
1,Igor Golovanov,O,117.5,,,,,,-205,210,215,215,,,,,,,215,125,M,Игорь Голованов,1983,Raw,No,B
2,Igor Terentyev,O,110.2,,,,,,200,207.5,-210,207.5,,,,,,,207.5,125,M,Игорь Терентьев,1979,Raw,No,B
1,Evgeniy Khayarkin,M2,114.6,,,,,,140,162.5,187.5,187.5,,,,,,,187.5,125,M,Евгений Хаяркин,1972,Raw,No,B
1,Viktoriya Klementyeva,J,47.9,,,,,,47.5,50,52.5,52.5,,,,,,,52.5,48,F,Виктория Клементьева,1994,Raw,Yes,B
1,Anastasiya Solobudenko,O,46.9,,,,,,47.5,50,52.5,52.5,,,,,,,52.5,48,F,Анастасия Солобуденко,1991,Raw,Yes,B
DQ,Aliya Kramarenko,O,47.3,,,,,,-42.5,-42.5,-42.5,,,,,,,,,48,F,Алия Крамаренко,1979,Raw,Yes,B
1,Viktoriya Sidorova,J,51.4,,,,,,37.5,-40,40,40,,,,,,,40,52,F,Виктория Сидорова,1995,Raw,Yes,B
DQ,Ekaterina Rodionova,J,50.1,,,,,,-52.5,-57.5,-57.5,,,,,,,,,52,F,Екатерина Родионова,1994,Raw,Yes,B
1,Nika Velial,O,52,,,,,,57.5,60,62.5,62.5,,,,,,,62.5,52,F,Ника Велиал,1992,Raw,Yes,B
2,Mariya Kiseleva,O,49.9,,,,,,50,-55,57.5,57.5,,,,,,,57.5,52,F,Мария Киселева,1990,Raw,Yes,B
3,Marina Rapoport,O,51.4,,,,,,-50,50,52.5,52.5,,,,,,,52.5,52,F,Марина Рапопорт,1984,Raw,Yes,B
4,Mariya Fedoseeva,O,50.8,,,,,,47.5,-50,50,50,,,,,,,50,52,F,Мария Федосеева,1982,Raw,Yes,B
5,Ekaterina Dyachenko,O,51.3,,,,,,45,-50,-50,45,,,,,,,45,52,F,Екатерина Дьяченко,1988,Raw,Yes,B
1,Viktoriya Kusch,J,53.9,,,,,,55,60,-65,60,,,,,,,60,56,F,Виктория Кущ,1995,Raw,Yes,B
1,Yuliya Yuryeva,O,55.5,,,,,,55,57.5,60,60,,,,,,,60,56,F,Юлия Юрьева,1990,Raw,Yes,B
2,Aleksandra Kraykina,O,55.4,,,,,,47.5,52.5,55,55,,,,,,,55,56,F,Александра Крайкина,1992,Raw,Yes,B
3,Elena Panteleva,O,53.2,,,,,,-42.5,-45,45,45,,,,,,,45,56,F,Елена Пантелева,1987,Raw,Yes,B
4,Anna Efimova,O,52.3,,,,,,40,-45,-45,40,,,,,,,40,56,F,Анна Ефимова,1992,Raw,Yes,B
1,Ekaterina Taskaeva,J,59,,,,,,75,80,82.5,82.5,-85,,,,,,82.5,60,F,Екатерина Таскаева,1993,Raw,Yes,B
2,Ekaterina Taskaeva,O,59,,,,,,75,80,82.5,82.5,-85,,,,,,82.5,60,F,Екатерина Таскаева,1993,Raw,Yes,B
1,Kseniya Mutnykh,T,65.4,,,,,,37.5,42.5,45,45,,,,,,,45,67.5,F,Ксения Мутных,2001,Raw,Yes,B
1,Tatyana Shishkina,O,63.9,,,,,,70,75,77.5,77.5,,,,,,,77.5,67.5,F,Татьяна Шишкина,1982,Raw,Yes,B
2,Evgeniya Kotelevskaya,O,65.2,,,,,,65,70,75,75,,,,,,,75,67.5,F,Евгения Котелевская,1989,Raw,Yes,B
3,Elena Schedrina,O,66.8,,,,,,72.5,-77.5,-77.5,72.5,,,,,,,72.5,67.5,F,Елена Щедрина,1987,Raw,Yes,B
4,Ekaterina Achkasova,O,61.7,,,,,,35,-40,-40,35,,,,,,,35,67.5,F,Екатерина Ачкасова,1984,Raw,Yes,B
DQ,Elena Kolesnikova,O,63,,,,,,-55,-55,-55,,,,,,,,,67.5,F,Елена Колесникова,1989,Raw,Yes,B
1,Olga Pavlovskaya,M1,65.2,,,,,,50,52.5,55,55,,,,,,,55,67.5,F,Ольга Павловская,1974,Raw,Yes,B
1,Viktoriya Voropaeva,J,70.9,,,,,,50,55,57.5,57.5,,,,,,,57.5,75,F,Виктория Воропаева,1997,Raw,Yes,B
1,Olga Gracheva,O,74.5,,,,,,82.5,85,87.5,87.5,,,,,,,87.5,75,F,Ольга Грачева,1978,Raw,Yes,B
2,Anna Ivanenko,O,73.6,,,,,,57.5,-62.5,-67.5,57.5,,,,,,,57.5,75,F,Анна Иваненко,1986,Raw,Yes,B
1,Nikita Nikitin,T1,49.9,,,,,,42.5,45,47.5,47.5,,,,,,,47.5,56,M,Никита Никитин,2004,Raw,Yes,B
1,Dmitriy Orlov,T,58.6,,,,,,60,67.5,-75,67.5,,,,,,,67.5,60,M,Дмитрий Орлов,2001,Raw,Yes,B
1,Anton Burdin,O,58.6,,,,,,-85,90,-95,90,,,,,,,90,60,M,Антон Бурдин,1990,Raw,Yes,B
2,Maksim Afanasyev,O,56.1,,,,,,50,55,-60,55,,,,,,,55,60,M,Максим Афанасьев,2004,Raw,Yes,B
1,Egor Boyko,T,65.8,,,,,,82.5,87.5,-90,87.5,,,,,,,87.5,67.5,M,Егор Бойко,2001,Raw,Yes,B
1,Nikita Buyanov,T1,64.9,,,,,,55,-60,-60,55,,,,,,,55,67.5,M,Никита Буянов,2002,Raw,Yes,B
1,Dmitriy Anufriev,J,65.7,,,,,,115,120,-125,120,,,,,,,120,67.5,M,Дмитрий Ануфриев,1995,Raw,Yes,B
1,Nikita Samokhvalov,O,65.2,,,,,,135,142.5,-145,142.5,,,,,,,142.5,67.5,M,Никита Самохвалов,1988,Raw,Yes,B
2,Sergey Bychkov,O,64.1,,,,,,125,127.5,-130,127.5,,,,,,,127.5,67.5,M,Сергей Бычков,1989,Raw,Yes,B
3,Maksim Miropoltsev,O,66.7,,,,,,122.5,-127.5,-127.5,122.5,,,,,,,122.5,67.5,M,Максим Миропольцев,1981,Raw,Yes,B
4,Stepan Karapetyan,O,67.1,,,,,,112.5,120,122.5,122.5,,,,,,,122.5,67.5,M,Степан Карапетян,1991,Raw,Yes,B
5,Aleksandr Litvin,O,66,,,,,,110,120,-127.5,120,,,,,,,120,67.5,M,Александр Литвин,1986,Raw,Yes,B
6,Andrey Zhilin,O,67.2,,,,,,115,120,-122.5,120,,,,,,,120,67.5,M,Андрей Жилин,1983,Raw,Yes,B
7,Dmitriy Khlevnoy,O,66.3,,,,,,100,-110,-110,100,,,,,,,100,67.5,M,Дмитрий Хлевной,1992,Raw,Yes,B
8,Mikhail Shershakov,O,66.1,,,,,,92.5,-100,-100,92.5,,,,,,,92.5,67.5,M,Михаил Шершаков,1993,Raw,Yes,B
1,Igor Chistyakov,M3,67.1,,,,,,112.5,,,112.5,,,,,,,112.5,67.5,M,Игорь Чистяков,1965,Raw,Yes,B
1,Egor Ivanov,T1,72.8,,,,,,67.5,-70,70,70,,,,,,,70,75,M,Егор Иванов,2002,Raw,Yes,B
1,Roman Bukalov,J,74.6,,,,,,145,-157.5,-157.5,145,,,,,,,145,75,M,Роман Букалов,1994,Raw,Yes,B
2,Denis Kosukhin,J,73.2,,,,,,-127.5,-130,130,130,,,,,,,130,75,M,Денис Косухин,1996,Raw,Yes,B
3,Maksim Kulichenko,J,73.5,,,,,,110,-120,-120,110,,,,,,,110,75,M,Максим Куличенко,1994,Raw,Yes,B
1,Sergey Polosin,O,73.2,,,,,,137.5,-140,140,140,,,,,,,140,75,M,Сергей Полосин,1989,Raw,Yes,B
2,Evgeniy Asmolov,O,74.2,,,,,,-140,-140,140,140,,,,,,,140,75,M,Евгений Асмолов,1983,Raw,Yes,B
3,Igor Popov,O,74.5,,,,,,-137.5,-137.5,137.5,137.5,,,,,,,137.5,75,M,Игорь Попов,1989,Raw,Yes,B
4,Dmitriy Kapitulskiy,O,72.1,,,,,,125,130,135,135,,,,,,,135,75,M,Дмитрий Капитульский,1989,Raw,Yes,B
5,Mikhail Solntsev,O,75,,,,,,117.5,125,130,130,,,,,,,130,75,M,Михаил Солнцев,1991,Raw,Yes,B
6,Vyacheslav Chilikov,O,72.4,,,,,,-125,125,-137.5,125,,,,,,,125,75,M,Вячеслав Чиликов,1991,Raw,Yes,B
7,Aleksandr Lapushkin,O,73.1,,,,,,120,-122.5,-122.5,120,,,,,,,120,75,M,Александр Лапушкин,1981,Raw,Yes,B
8,Vladimir Lyamin,O,73.4,,,,,,120,-137.5,-137.5,120,,,,,,,120,75,M,Владимир Лямин,1993,Raw,Yes,B
9,Edvard Dyakov,O,73.7,,,,,,107.5,-117.5,,107.5,,,,,,,107.5,75,M,Эдвард Дьяков,1989,Raw,Yes,B
1,Valeriy Ryabukhin,M1,74.4,,,,,,-110,110,-120,110,,,,,,,110,75,M,Валерий Рябухин,1977,Raw,Yes,B
1,Nikolay Ionov,M6,72.7,,,,,,100,-107.5,107.5,107.5,,,,,,,107.5,75,M,Николай Ионов,1949,Raw,Yes,B
1,Gennadiy Lapin,J,82,,,,,,142.5,-147.5,-147.5,142.5,,,,,,,142.5,82.5,M,Геннадий Лапин,1995,Raw,Yes,B
2,Sergey Kabachiy,J,80.7,,,,,,130,-140,-147.5,130,,,,,,,130,82.5,M,Сергей Кабачий,1996,Raw,Yes,B
3,Kirill Krivenko,J,81.7,,,,,,130,-147.5,-147.5,130,,,,,,,130,82.5,M,Кирилл Кривенко,1995,Raw,Yes,B
4,Vasiliy Sokolov,J,80.9,,,,,,125,-130,-130,125,,,,,,,125,82.5,M,Василий Соколов,1994,Raw,Yes,B
DQ,Aleksandr Soshko,J,80.1,,,,,,-130,-130,-130,,,,,,,,,82.5,M,Александр Сошко,1996,Raw,Yes,B
DQ,Nikolay Makarov,J,78.5,,,,,,-145,-145,-147.5,,,,,,,,,82.5,M,Николай Макаров,1996,Raw,Yes,B
1,Sergey Ovchinnikov,O,81.6,,,,,,-160,-162.5,162.5,162.5,,,,,,,162.5,82.5,M,Сергей Овчинников,1982,Raw,Yes,B
2,Anton Tyurin,O,79.8,,,,,,135,147.5,-152.5,147.5,,,,,,,147.5,82.5,M,Антон Тюрин,1993,Raw,Yes,B
3,Aleksey Kozhevnikov,O,80.3,,,,,,147.5,-155,-155,147.5,,,,,,,147.5,82.5,M,Алексей Кожевников,1983,Raw,Yes,B
4,Dmitriy Dobudko,O,76.4,,,,,,140,-147.5,-147.5,140,,,,,,,140,82.5,M,Дмитрий Добудько,1982,Raw,Yes,B
5,Aleksandr Kravtsov,O,79.9,,,,,,140,-147.5,-147.5,140,,,,,,,140,82.5,M,Александр Кравцов,1987,Raw,Yes,B
6,Vladimir Bukatin,O,79.8,,,,,,130,-135,135,135,,,,,,,135,82.5,M,Владимир Букатин,1985,Raw,Yes,B
7,Evgeniy Gubarev,O,80.4,,,,,,120,130,-135,130,,,,,,,130,82.5,M,Евгений Губарев,1986,Raw,Yes,B
8,Vyacheslav Buzin,O,81.6,,,,,,130,-137.5,-137.5,130,,,,,,,130,82.5,M,Вячеслав Бузин,1990,Raw,Yes,B
DQ,Valeriy Ruban,O,82.4,,,,,,-150,-157.5,-160,,,,,,,,,82.5,M,Валерий Рубан,1990,Raw,Yes,B
DQ,Bogdan Kokoev,O,80.1,,,,,,-115,-115,-115,,,,,,,,,82.5,M,Богдан Кокоев,1993,Raw,Yes,B
1,Andrey Shalenikov,M1,81.3,,,,,,135,-142.5,-142.5,135,,,,,,,135,82.5,M,Андрей Шалеников,1974,Raw,Yes,B
2,Aleksandr Semenov,M1,82.3,,,,,,115,120,125,125,,,,,,,125,82.5,M,Александр Семенов,1977,Raw,Yes,B
DQ,Aleksey Borodulya,M1,80.7,,,,,,-150,-150,-150,,,,,,,,,82.5,M,Алексей Бородуля,1977,Raw,Yes,B
1,Nikolay Tarasov,M3,81.3,,,,,,122.5,127.5,130,130,,,,,,,130,82.5,M,Николай Тарасов,1964,Raw,Yes,B
2,Sergey Kondrashev,M3,78.4,,,,,,100,-110,-110,100,,,,,,,100,82.5,M,Сергей Кондрашев,1963,Raw,Yes,B
1,Aleksandr Kaminskiy,T,88.6,,,,,,125,130,-135,130,,,,,,,130,90,M,Александр Каминский,1999,Raw,Yes,B
1,Aleksey Evteev,J,89.3,,,,,,180,-185,-185,180,,,,,,,180,90,M,Алексей Евтеев,1994,Raw,Yes,B
2,Andrey Kukhaev,J,87.3,,,,,,135,145,155,155,,,,,,,155,90,M,Андрей Кухаев,1996,Raw,Yes,B
3,Ivan Khvorostyuk,J,88.4,,,,,,135,140,142.5,142.5,,,,,,,142.5,90,M,Иван Хворостюк,1995,Raw,Yes,B
DQ,Anton Dostavalov,J,88.9,,,,,,-150,,,,,,,,,,,90,M,Антон Доставалов,1993,Raw,Yes,B
DQ,Ivan Kusaylo,J,88.4,,,,,,-137.5,-140,-140,,,,,,,,,90,M,Иван Кусайло,1995,Raw,Yes,B
1,Marat Shaymurzin,O,90,,,,,,170,177.5,-180,177.5,,,,,,,177.5,90,M,Марат Шаймурзин,1983,Raw,Yes,B
2,Ilya Vorontsov,O,86.3,,,,,,165,172.5,175,175,,,,,,,175,90,M,Илья Воронцов,1982,Raw,Yes,B
3,Anton Kostyukov,O,88.5,,,,,,170,175,-177.5,175,,,,,,,175,90,M,Антон Костюков,1977,Raw,Yes,B
4,Vladimir Parshin,O,88.8,,,,,,155,162.5,-175,162.5,,,,,,,162.5,90,M,Владимир Паршин,1979,Raw,Yes,B
5,Aleksandr Smolyakov,O,88.9,,,,,,-160,-160,162.5,162.5,,,,,,,162.5,90,M,Александр Смоляков,1981,Raw,Yes,B
6,Igor Startsev,O,89.4,,,,,,162.5,-170,-170,162.5,,,,,,,162.5,90,M,Игорь Старцев,1983,Raw,Yes,B
7,Vladislav Girko,O,86.1,,,,,,155,-165,-165,155,,,,,,,155,90,M,Владислав Гирко,1987,Raw,Yes,B
8,Anton Dostavalov,O,88.9,,,,,,-150,155,-160,155,,,,,,,155,90,M,Антон Доставалов,1993,Raw,Yes,B
9,Dmitriy Volobuev,O,90,,,,,,147.5,155,-160,155,,,,,,,155,90,M,Дмитрий Волобуев,1989,Raw,Yes,B
10,Maksim Knyazev,O,84.4,,,,,,135,137.5,140,140,,,,,,,140,90,M,Максим Князев,1986,Raw,Yes,B
11,Ilya Logunov,O,88.2,,,,,,132.5,140,-145,140,,,,,,,140,90,M,Илья Логунов,1989,Raw,Yes,B
12,Vladimir Dziraev,O,87.5,,,,,,-135,135,-140,135,,,,,,,135,90,M,Владимир Дзираев,1981,Raw,Yes,B
13,Vladimir Kuzin,O,89.1,,,,,,125,-135,-135,125,,,,,,,125,90,M,Владимир Кузин,1986,Raw,Yes,B
14,Dmitriy Motov,O,86.8,,,,,,110,-115,-122.5,110,,,,,,,110,90,M,Дмитрий Мотов,1983,Raw,Yes,B
DQ,Grigoriy Demtsev,O,89.5,,,,,,-145,-145,-145,,,,,,,,,90,M,Григорий Демцев,1991,Raw,Yes,B
DQ,Aleksey Pakhomov,O,89.4,,,,,,-155,-155,,,,,,,,,,90,M,Алексей Пахомов,1993,Raw,Yes,B
1,Anton Kostyukov,M1,88.5,,,,,,170,175,-177.5,175,,,,,,,175,90,M,Антон Костюков,1977,Raw,Yes,B
2,Oleg Kharitonov,M1,87.8,,,,,,145,150,155,155,,,,,,,155,90,M,Олег Харитонов,1975,Raw,Yes,B
3,Yuriy Gurkovskiy,M1,88.1,,,,,,140,-147.5,147.5,147.5,,,,,,,147.5,90,M,Юрий Гурковский,1975,Raw,Yes,B
4,Emil Teymurov,M1,86.4,,,,,,140,-147.5,-147.5,140,,,,,,,140,90,M,Эмиль Теймуров,1976,Raw,Yes,B
5,Dmitriy Dorokhov,M1,88.3,,,,,,125,130,-135,130,,,,,,,130,90,M,Дмитрий Дорохов,1974,Raw,Yes,B
DQ,Igor Shergin,M1,89.3,,,,,,-135,-137.5,,,,,,,,,,90,M,Игорь Шергин,1976,Raw,Yes,B
1,Oleg Dymov,M2,88.7,,,,,,-140,150,155,155,,,,,,,155,90,M,Олег Дымов,1970,Raw,Yes,B
1,Igor Khorkhordin,M3,86.9,,,,,,150,152.5,155,155,,,,,,,155,90,M,Игорь Хорхордин,1968,Raw,Yes,B
1,Gennadiy Sorokin,M4,89.6,,,,,,142.5,150,-152.5,150,,,,,,,150,90,M,Геннадий Сорокин,1959,Raw,Yes,B
2,Oleg Makarov,M4,89.7,,,,,,115,125,130,130,,,,,,,130,90,M,Олег Макаров,1962,Raw,Yes,B
1,Amir Khusnutdinov,M6,86.5,,,,,,130,137.5,,137.5,,,,,,,137.5,90,M,Амир Хуснутдинов,1948,Raw,Yes,B
1,Vladimir Efremenkov,J,98.1,,,,,,145,-155,155,155,,,,,,,155,100,M,Владимир Ефременков,1996,Raw,Yes,B
1,Ivan Baranov #3,O,97.6,,,,,,195,200,-205,200,,,,,,,200,100,M,Иван Баранов,1990,Raw,Yes,B
2,Aleksandr Kasaurov,O,98.4,,,,,,155,-165,165,165,,,,,,,165,100,M,Александр Касауров,1980,Raw,Yes,B
3,Iskandar Radzhabov,O,97.9,,,,,,150,160,-165,160,,,,,,,160,100,M,Искандар Раджабов,1989,Raw,Yes,B
4,Andrey Kovalev,O,97.5,,,,,,155,-160,-165,155,,,,,,,155,100,M,Андрей Ковалев,1992,Raw,Yes,B
5,Roman Vinokurov,O,98.3,,,,,,145,155,-165,155,,,,,,,155,100,M,Роман Винокуров,1984,Raw,Yes,B
6,Viktor Atapin,O,97.4,,,,,,125,142.5,150,150,,,,,,,150,100,M,Виктор Атапин,1990,Raw,Yes,B
7,Sirak Akopyan,O,98.5,,,,,,145,-155,-155,145,,,,,,,145,100,M,Сирак Акопян,1993,Raw,Yes,B
8,Roman Evseev,O,99.6,,,,,,130,-140,-140,130,,,,,,,130,100,M,Роман Евсеев,1993,Raw,Yes,B
DQ,Vadim Bukovskiy,O,99.5,,,,,,-137.5,-137.5,-137.5,,,,,,,,,100,M,Вадим Буковский,1991,Raw,Yes,B
DQ,Aleksandr Blokhin,O,99,,,,,,-172.5,-172.5,,,,,,,,,,100,M,Александр Блохин,1981,Raw,Yes,B
DQ,Roman Shevchenko,O,98,,,,,,-152.5,-152.5,-152.5,,,,,,,,,100,M,Роман Шевченко,1985,Raw,Yes,B
1,Vadim Sazonov,M1,99.7,,,,,,-167.5,167.5,-170,167.5,,,,,,,167.5,100,M,Вадим Сазонов,1975,Raw,Yes,B
2,Igor Malyshev,M1,94.9,,,,,,155,165,-172.5,165,,,,,,,165,100,M,Игорь Малышев,1973,Raw,Yes,B
3,Andrey Chaganov,M1,97.6,,,,,,130,-140,140,140,,,,,,,140,100,M,Андрей Чаганов,1976,Raw,Yes,B
1,Vadim Shabanov,M2,95.9,,,,,,155,160,165,165,,,,,,,165,100,M,Вадим Шабанов,1972,Raw,Yes,B
2,Aleksandr Shabalin,M2,96.8,,,,,,140,150,-160,150,,,,,,,150,100,M,Александр Шабалин,1971,Raw,Yes,B
1,Aleksandr Sapachev,M3,96.9,,,,,,-127.5,127.5,132.5,132.5,,,,,,,132.5,100,M,Александр Сапачев,1965,Raw,Yes,B
1,Andrey Makevnin,M4,96.3,,,,,,150,160,170,170,,,,,,,170,100,M,Андрей Макевнин,1961,Raw,Yes,B
2,Leonid Skvortsov,M4,98.1,,,,,,160,-170,170,170,,,,,,,170,100,M,Леонид Скворцов,1962,Raw,Yes,B
3,Nikolay Dergachev,M4,98,,,,,,155,-165,-165,155,,,,,,,155,100,M,Николай Дергачев,1960,Raw,Yes,B
1,Suren Poloyan,J,107.6,,,,,,-145,150,-170,150,,,,,,,150,110,M,Сурен Полоян,1995,Raw,Yes,B
1,Eduard Vinogradov,O,108.4,,,,,,182.5,192.5,197.5,197.5,,,,,,,197.5,110,M,Эдуард Виноградов,1974,Raw,Yes,B
2,Maksim Sevryukov,O,108.8,,,,,,182.5,-190,190,190,,,,,,,190,110,M,Максим Севрюков,1985,Raw,Yes,B
3,Sergey Ovcharov,O,105.6,,,,,,167.5,170,172.5,172.5,,,,,,,172.5,110,M,Сергей Овчаров,1979,Raw,Yes,B
4,Evgeniy Grishin,O,103,,,,,,160,165,170,170,,,,,,,170,110,M,Евгений Гришин,1987,Raw,Yes,B
5,Oleg Lopatin,O,109.5,,,,,,160,-170,-170,160,,,,,,,160,110,M,Олег Лопатин,1983,Raw,Yes,B
6,Andrey Rudetskikh,O,105.2,,,,,,145,150,152.5,152.5,,,,,,,152.5,110,M,Андрей Рудецких,1978,Raw,Yes,B
7,Valeriy Morozov,O,109.2,,,,,,-150,150,-157.5,150,,,,,,,150,110,M,Валерий Морозов,1986,Raw,Yes,B
8,Aleksandr Buyanov,O,106.5,,,,,,135,140,145,145,,,,,,,145,110,M,Александр Буянов,1980,Raw,Yes,B
9,Saday Nazarov,O,107.3,,,,,,145,-160,-170,145,,,,,,,145,110,M,Садай Назаров,1998,Raw,Yes,B
DQ,Sergey Rumyantsev,O,101,,,,,,-190,,,,,,,,,,,110,M,Сергей Румянцев,1990,Raw,Yes,B
1,Eduard Vinogradov,M1,108.4,,,,,,182.5,192.5,197.5,197.5,,,,,,,197.5,110,M,Эдуард Виноградов,1974,Raw,Yes,B
2,Vadim Ivanov,M1,107.6,,,,,,170,175,180,180,,,,,,,180,110,M,Вадим Иванов,1972,Raw,Yes,B
1,Ivan Burlov,M2,106.1,,,,,,175,-182.5,-182.5,175,,,,,,,175,110,M,Иван Бурлов,1970,Raw,Yes,B
2,Aleksey Krivokon,M2,102.1,,,,,,155,165,170,170,,,,,,,170,110,M,Алексей Кривоконь,1970,Raw,Yes,B
3,Dmitriy Kireev,M2,108.5,,,,,,162.5,165,-167.5,165,,,,,,,165,110,M,Дмитрий Киреев,1969,Raw,Yes,B
1,Nikolay Rudenko,O,120.9,,,,,,207.5,-215,-215,207.5,,,,,,,207.5,125,M,Николай Руденко,1982,Raw,Yes,B
2,Aleksey Masalov,O,116.2,,,,,,190,200,-207.5,200,,,,,,,200,125,M,Алексей Масалов,1976,Raw,Yes,B
3,Vladimir Seleznev,O,125,,,,,,180,185,-190,185,,,,,,,185,125,M,Владимир Селезнев,1977,Raw,Yes,B
4,Aleksandr Frolov,O,122.2,,,,,,165,172.5,175,175,,,,,,,175,125,M,Александр Фролов,1988,Raw,Yes,B
5,Evgeniy Marinov,O,119.1,,,,,,172.5,-182.5,-182.5,172.5,,,,,,,172.5,125,M,Евгений Маринов,1983,Raw,Yes,B
2,Vladimir Seleznev,M1,125,,,,,,180,185,-190,185,,,,,,,185,125,M,Владимир Селезнев,1977,Raw,Yes,B
3,Yuriy Gordyakov,M1,118,,,,,,180,-195,-195,180,,,,,,,180,125,M,Юрий Гордяков,1976,Raw,Yes,B
4,Sergey Sivachenko,M1,121.7,,,,,,180,-192.5,-192.5,180,,,,,,,180,125,M,Сергей Сиваченко,1974,Raw,Yes,B
1,Aleksey Masalov,M1,116.2,,,,,,190,200,-207.5,200,,,,,,,200,125,M,Алексей Масалов,1976,Raw,Yes,B
1,Vladimir Chubarov,M3,125,,,,,,172.5,-180,-180,172.5,,,,,,,172.5,125,M,Владимир Чубаров,1964,Raw,Yes,B
1,Vyacheslav Khodakovskiy,O,126.6,,,,,,-145,145,-150,145,,,,,,,145,140,M,Вячеслав Ходаковский,1986,Raw,Yes,B
DQ,Andrey Zaletaev,M1,132.5,,,,,,-170,-170,-170,,,,,,,,,140,M,Андрей Залетаев,1975,Raw,Yes,B
1,Vladimir Popov,M5,126,,,,,,162.5,-167.5,-167.5,162.5,,,,,,,162.5,140,M,Владимир Попов,1956,Raw,Yes,B
1,Roman Mishurenkov,O,142,,,,,,-210,220,225,225,,,,,,,225,140+,M,Роман Мишуренков,1982,Raw,Yes,B
1,Ilya Filin,O,87,,,,,,245,255,-262.5,255,,,,,,,255,90,M,Илья Филин,1988,Multi-ply,No,B
1,Roman Terekhov,O,109.6,,,,,,235,-245,-252.5,235,,,,,,,235,110,M,Роман Терехов,1981,Multi-ply,No,B
DQ,Roman Brekhov,O,114.3,,,,,,-285,-295,-302.5,,,,,,,,,125,M,Роман Брехов,1990,Multi-ply,No,B
1,Artem Larionov,O,74.2,,,,,,190,-200,-200,190,,,,,,,190,75,M,Артем Ларионов,1978,Multi-ply,Yes,B
1,Ruslan Kulebyakin,O,108.2,,,,,,230,240,250,250,,,,,,,250,110,M,Руслан Кулебякин,1991,Multi-ply,Yes,B
1,Irina Smolentseva,O,73.6,,,,,,-110,110,-117.5,110,,,,,,,110,75,F,Ирина Смоленцева,1988,Single-ply,No,B
DQ,Denis Karpov,O,98.7,,,,,,-220,-220,-220,,,,,,,,,100,M,Денис Карпов,1981,Single-ply,No,B
1,Mariya Pustovit,O,60,,,,,,110,115,-117.5,115,,,,,,,115,60,F,Мария Пустовит,1985,Single-ply,Yes,B
1,Dmitriy Korneev,O,89,,,,,,177.5,182.5,-187.5,182.5,,,,,,,182.5,90,M,Дмитрий Корнеев,1987,Single-ply,Yes,B
DQ,Denis Dobryanskiy,O,87.2,,,,,,-210,-210,-210,,,,,,,,,90,M,Денис Добрянский,1977,Single-ply,Yes,B
DQ,Denis Dobryanskiy,M1,87.2,,,,,,-210,-210,-210,,,,,,,,,90,M,Денис Добрянский,1977,Single-ply,Yes,B
1,Ravil Nafikov,M2,89.4,,,,,,185,195,-207.5,195,,,,,,,195,90,M,Равиль Нафиков,1970,Single-ply,Yes,B
1,Yuriy Tarbonov,O,96.2,,,,,,250,262.5,-265,262.5,,,,,,,262.5,100,M,Юрий Тарбонов,1987,Single-ply,Yes,B
2,Maksim Stepanov #4,O,98.7,,,,,,-190,190,-200,190,,,,,,,190,100,M,Максим Степанов,1988,Single-ply,Yes,B
1,Vladimir Li,M6,94.6,,,,,,-155,155,160,160,,,,,,,160,100,M,Владимир Ли,1951,Single-ply,Yes,B
1,Ivan Rak,M1,103.7,,,,,,-205,205,-215,205,,,,,,,205,110,M,Иван Рак,1974,Single-ply,Yes,B
DQ,Pavel Rysenkov,O,120.6,,,,,,-240,-250,-250,,,,,,,,,125,M,Павел Рысенков,1978,Single-ply,Yes,B
1,Vladimir Popov,M5,126,,,,,,187.5,195,200,200,,,,,,,200,140,M,Владимир Попов,1956,Single-ply,Yes,B
1,Kseniya Semenova,O,56,,,,,,,,,,,100,107.5,115,115,,115,56,F,Ксения Семенова,1987,Raw,No,D
1,Irina Borisova,O,58.9,,,,,,,,,,,80,85,-97.5,85,,85,60,F,Ирина Борисова,1981,Raw,No,D
1,Yuliya Pyrsina,O,65.1,,,,,,,,,,,150,160,165,165,-172.5,165,67.5,F,Юлия Пырсина,1985,Raw,No,D
2,Irina Asabina,O,64.9,,,,,,,,,,,-150,150,160,160,,160,67.5,F,Ирина Асабина,1982,Raw,No,D
3,Elena Akhmetova,O,67,,,,,,,,,,,120,130,-140,130,,130,67.5,F,Елена Ахметова,1991,Raw,No,D
4,Elena Ivashkina,O,62.1,,,,,,,,,,,90,105,115,115,,115,67.5,F,Елена Ивашкина,1986,Raw,No,D
1,Viktoriya Ablaeva,O,71.2,,,,,,,,,,,190,200,210,210,-220,210,75,F,Виктория Аблаева,1983,Raw,No,D
2,Liya Surzhitskaya,O,71.7,,,,,,,,,,,110,120,130,130,,130,75,F,Лия Суржицкая,1999,Raw,No,D
1,Rakhman Akaev,O,74.3,,,,,,,,,,,200,-210,-210,200,,200,75,M,Рахман Акаев,1993,Raw,No,D
1,Andrey Mescheryakov,M3,75,,,,,,,,,,,120,-130,130,130,,130,75,M,Андрей Мещеряков,1965,Raw,No,D
1,Pavel Zubkov,O,82,,,,,,,,,,,272.5,287.5,295,295,,295,82.5,M,Павел Зубков,1985,Raw,No,D
2,Mikhail Zuev,O,81.2,,,,,,,,,,,205,212.5,-220,212.5,,212.5,82.5,M,Михаил Зуев,1985,Raw,No,D
3,Andrey Denisov,O,81.4,,,,,,,,,,,210,-220,-222.5,210,,210,82.5,M,Андрей Денисов,1980,Raw,No,D
1,Ivan Egorov,T,87.5,,,,,,,,,,,-170,175,180,180,,180,90,M,Иван Егоров,1998,Raw,No,D
1,Vladimir Tereschenko,O,82.8,,,,,,,,,,,175,-185,,175,,175,90,M,Владимир Терещенко,1982,Raw,No,D
1,Radiy Spitsin,O,95.4,,,,,,,,,,,275,285,-290,285,,285,100,M,Радій Спицин,1981,Raw,No,D
1,Sergey Martus,M1,98.4,,,,,,,,,,,-205,205,230,230,,230,100,M,Сергей Мартусь,1977,Raw,No,D
1,Maksim Neznamov,O,107.8,,,,,,,,,,,277.5,287.5,-292.5,287.5,,287.5,110,M,Максим Незнамов,1978,Raw,No,D
1,Aleksey Smirnov,M1,104.4,,,,,,,,,,,275,285,-290,285,,285,110,M,Алексей Смирнов,1977,Raw,No,D
1,Aleksey Fedorenko,J,119.2,,,,,,,,,,,255,267.5,275,275,,275,125,M,Алексей Федоренко,1996,Raw,No,D
1,Ilya Potolitsyn,O,119.4,,,,,,,,,,,270,290,300,300,,300,125,M,Илья Потолицын,1991,Raw,No,D
2,Aleksey Fedorenko,O,119.2,,,,,,,,,,,255,267.5,275,275,,275,125,M,Алексей Федоренко,1996,Raw,No,D
1,Grigoriy Sakharov,M1,126.4,,,,,,,,,,,-270,270,-285,270,,270,140,M,Григорий Сахаров,1977,Raw,No,D
1,Mariya Lukasevich,O,47.1,,,,,,,,,,,107.5,112.5,115,115,,115,48,F,Мария Лукасевич,1989,Raw,Yes,D
1,Viktoriya Sidorova,J,51.4,,,,,,,,,,,-75,77.5,82.5,82.5,,82.5,52,F,Виктория Сидорова,1995,Raw,Yes,D
DQ,Elena Alekhina,O,51.6,,,,,,,,,,,-105,-112.5,-117.5,,,,52,F,Елена Алехина,1988,Raw,Yes,D
1,Alina Chertkova,T,54.7,,,,,,,,,,,100,107.5,-110,107.5,,107.5,56,F,Алина Черткова,2001,Raw,Yes,D
1,Yuliya Semenova,O,56,,,,,,,,,,,107.5,117.5,-127.5,117.5,,117.5,56,F,Юлия Семенова,1988,Raw,Yes,D
1,Svetlana Shishkanova,M1,54.8,,,,,,,,,,,102.5,110,115,115,,115,56,F,Светлана Шишканова,1973,Raw,Yes,D
1,Mariya Grigoryeva,J,59.5,,,,,,,,,,,105,110,-115,110,,110,60,F,Мария Григорьева,1994,Raw,Yes,D
1,Inna Makhova,O,56.9,,,,,,,,,,,130,140,-150,140,,140,60,F,Инна Махова,1991,Raw,Yes,D
2,Ekaterina Chaplygina,O,58.5,,,,,,,,,,,112.5,-117.5,-120,112.5,,112.5,60,F,Екатерина Чаплыгина,1991,Raw,Yes,D
1,Irina Rodionova,O,64.3,,,,,,,,,,,100,105,110,110,,110,67.5,F,Ирина Родионова,1987,Raw,Yes,D
2,Diana Varlamova,O,62.7,,,,,,,,,,,80,92.5,-100,92.5,,92.5,67.5,F,Диана Варламова,1988,Raw,Yes,D
1,Ivetta Narinskaya,M3,66.3,,,,,,,,,,,-90,100,110,110,,110,67.5,F,Иветта Наринская,1964,Raw,Yes,D
1,Natalya Kaftaylova,M4,66.5,,,,,,,,,,,112.5,117.5,122.5,122.5,,122.5,67.5,F,Наталья Кафтайлова,1960,Raw,Yes,D
1,Viktoriya Voropaeva,O,69.9,,,,,,,,,,,105,107.5,-110,107.5,,107.5,75,F,Виктория Воропаева,1997,Raw,Yes,D
2,Tatyana Zhatkina,O,74.7,,,,,,,,,,,80,-95,105,105,110,105,75,F,Татьяна Жаткина,1991,Raw,Yes,D
1,Ekaterina Vasilyeva,M1,72.3,,,,,,,,,,,130,135,-140,135,,135,75,F,Екатерина Васильева,1976,Raw,Yes,D
DQ,Nataliya Shaydullina,O,81.1,,,,,,,,,,,-140,-140,-140,,,,82.5,F,Наталья Шайдуллина,1984,Raw,Yes,D
1,Anna Chefranova,M2,76.8,,,,,,,,,,,85,90,100,100,,100,82.5,F,Анна Чефранова,1969,Raw,Yes,D
1,Nikita Kulichenko,T1,65.5,,,,,,,,,,,170,-185,-185,170,,170,67.5,M,Никита Куличенко,2002,Raw,Yes,D
1,Irek Rizvanov,O,64.9,,,,,,,,,,,175,185,197.5,197.5,,197.5,67.5,M,Ирек Ризванов,1992,Raw,Yes,D
2,Mark Semenov,O,66.2,,,,,,,,,,,-170,-170,170,170,,170,67.5,M,Марк Семенов,1988,Raw,Yes,D
1,Rodion Tarasov,T,74.1,,,,,,,,,,,212.5,-225,-225,212.5,,212.5,75,M,Родион Тарасов,1999,Raw,Yes,D
2,Maksim Nazarov,T,73.9,,,,,,,,,,,190,200,207.5,207.5,,207.5,75,M,Максим Назаров,1998,Raw,Yes,D
3,Gleb Alekseev,T,69.3,,,,,,,,,,,-135,135,145,145,,145,75,M,Глеб Алексеев,1999,Raw,Yes,D
1,Kablan Kofi,J,73.9,,,,,,,,,,,-220,-230,237.5,237.5,,237.5,75,M,Каблан Кофи,1994,Raw,Yes,D
1,Timur Baymukhanov,O,74,,,,,,,,,,,230,-240,-240,230,,230,75,M,Тимур Баймуханов,1993,Raw,Yes,D
2,Andrey Evtikheev,O,73.5,,,,,,,,,,,190,200,210,210,,210,75,M,Андрей Евтихеев,1989,Raw,Yes,D
3,Mikhail Zhuravlev,O,73.5,,,,,,,,,,,200,-210,-215,200,,200,75,M,Михаил Журавлев,1988,Raw,Yes,D
4,Aleksandr Ivliev,O,74.8,,,,,,,,,,,-200,200,-210,200,,200,75,M,Александр Ивлиев,1985,Raw,Yes,D
5,Viktor Kovalev,O,74.6,,,,,,,,,,,160,175,-182.5,175,,175,75,M,Виктор Ковалев,1984,Raw,Yes,D
1,Nikolay Vetrov,M7,74.3,,,,,,,,,,,147.5,152.5,157.5,157.5,,157.5,75,M,Николай Ветров,1945,Raw,Yes,D
1,Aleksandr Kulikov,M8,73.7,,,,,,,,,,,150,172.5,180,180,,180,75,M,Александр Куликов,1941,Raw,Yes,D
1,Kirill Kandiorin,J,81.2,,,,,,,,,,,222.5,230,-235,230,,230,82.5,M,Кирилл Кандиорин,1994,Raw,Yes,D
1,Sergey Evseev,O,81.7,,,,,,,,,,,240,255,262.5,262.5,,262.5,82.5,M,Сергей Евсеев,1990,Raw,Yes,D
2,Vladimir Paltov,O,76,,,,,,,,,,,-165,172.5,180,180,,180,82.5,M,Владимир Пальтов,1979,Raw,Yes,D
3,Roman Yasychenko,O,79.2,,,,,,,,,,,170,180,-192.5,180,,180,82.5,M,Роман Ясыченко,1998,Raw,Yes,D
4,Anton Sosunov,O,80.6,,,,,,,,,,,180,-190,-190,180,,180,82.5,M,Антон Сосунов,1980,Raw,Yes,D
5,Sergey Zgurskiy,O,81.4,,,,,,,,,,,177.5,-192.5,-192.5,177.5,,177.5,82.5,M,Сергей Згурский,1992,Raw,Yes,D
1,Sergey Nakhaev,M1,79.1,,,,,,,,,,,-170,170,185,185,,185,82.5,M,Сергей Нахаев,1976,Raw,Yes,D
1,Viktor Skokin,M5,80.4,,,,,,,,,,,205,212.5,220,220,225,220,82.5,M,Виктор Скокин,1957,Raw,Yes,D
2,Vladimir Panfilov,M5,81.1,,,,,,,,,,,165,180,-185,180,,180,82.5,M,Владимир Панфилов,1953,Raw,Yes,D
1,Osmanbek Rabadanov,J,86.7,,,,,,,,,,,235,-250,-250,235,,235,90,M,Османбек Рабаданов,1997,Raw,Yes,D
DQ,Aleksandr Schegolskiy,J,89.3,,,,,,,,,,,-210,-220,-220,,,,90,M,Александр Щегольский,1996,Raw,Yes,D
1,Igor Startsev,O,89.4,,,,,,,,,,,265,-277.5,-277.5,265,,265,90,M,Игорь Старцев,1983,Raw,Yes,D
2,Aleksandr Trofimov,O,83.4,,,,,,,,,,,215,225,-230,225,,225,90,M,Александр Трофимов,1988,Raw,Yes,D
3,Sergey Tereschenko,O,86.1,,,,,,,,,,,192.5,202.5,210,210,,210,90,M,Сергей Терещенко,1988,Raw,Yes,D
4,Anton Gorbunov,O,85.1,,,,,,,,,,,200,205,-207.5,205,,205,90,M,Антон Горбунов,1989,Raw,Yes,D
5,Mikhail Myzenkov,O,83.5,,,,,,,,,,,195,202.5,,202.5,,202.5,90,M,Михаил Мызенков,1985,Raw,Yes,D
6,Anton Gasparyan,O,82.9,,,,,,,,,,,150,165,190,190,,190,90,M,Антон Гаспарян,1984,Raw,Yes,D
1,Viktor Krivokon,M2,87.8,,,,,,,,,,,-185,185,210,210,,210,90,M,Виктор Кривоконь,1972,Raw,Yes,D
1,Aleksandr Voronin,M3,84.3,,,,,,,,,,,152.5,162.5,-172.5,162.5,,162.5,90,M,Александр Воронин,1965,Raw,Yes,D
1,Aleksandr Nemchinov,M6,89,,,,,,,,,,,220,237.5,,237.5,,237.5,90,M,Александр Немчинов,1951,Raw,Yes,D
1,Mikhail Bobkov,M7,88,,,,,,,,,,,180,197.5,-202.5,197.5,,197.5,90,M,Михаил Бобков,1947,Raw,Yes,D
1,Osman Blazhevich,T,96,,,,,,,,,,,-190,200,-210,200,,200,100,M,Осман Блажевич,2000,Raw,Yes,D
1,Pavel Kriulenko,J,100,,,,,,,,,,,240,-250,-250,240,,240,100,M,Павел Криуленко,1997,Raw,Yes,D
2,Vladimir Efremenkov,J,100,,,,,,,,,,,200,215,-230,215,,215,100,M,Владимир Ефременков,1996,Raw,Yes,D
3,Denis Maklakov,J,93.4,,,,,,,,,,,-210,210,-230,210,,210,100,M,Денис Маклаков,1997,Raw,Yes,D
4,Maksim Galkin,J,96,,,,,,,,,,,160,170,-180,170,,170,100,M,Максим Галкин,1994,Raw,Yes,D
1,Oleg Varvarin,O,96.7,,,,,,,,,,,260,270,-277.5,270,,270,100,M,Олег Варварин,1986,Raw,Yes,D
2,Yuriy Boronakhin,O,99.5,,,,,,,,,,,250,265,-275,265,,265,100,M,Юрий Боронахин,1983,Raw,Yes,D
3,Roman Rodionov,O,94.1,,,,,,,,,,,220,230,-235,230,,230,100,M,Роман Родионов,1987,Raw,Yes,D
4,Andrey Shepelyuk,O,98.3,,,,,,,,,,,220,-230,-240,220,,220,100,M,Андрей Шепелюк,1984,Raw,Yes,D
5,Evgeniy Zaytsev,O,93.5,,,,,,,,,,,185,197.5,-210,197.5,,197.5,100,M,Евгений Зайцев,1986,Raw,Yes,D
1,Yuriy Erofaylov,M1,99.5,,,,,,,,,,,210,220,230,230,,230,100,M,Юрий Ерофайлов,1974,Raw,Yes,D
1,Andrey Poberezhnyy,O,108.5,,,,,,,,,,,270,280,287.5,287.5,,287.5,110,M,Андрей Побережный,1986,Raw,Yes,D
2,Pavel Shtatnov,O,101.3,,,,,,,,,,,250,260,265,265,,265,110,M,Павел Штатнов,1980,Raw,Yes,D
3,Dmitriy Malyshkin,O,104.1,,,,,,,,,,,240,250,-260,250,,250,110,M,Дмитрий Малышкин,1982,Raw,Yes,D
4,Andrey Kozlov,O,101.3,,,,,,,,,,,220,230,-250,230,,230,110,M,Андрей Козлов,1969,Raw,Yes,D
5,Rustam Umarov,O,107.3,,,,,,,,,,,230,-247.5,-247.5,230,,230,110,M,Рустам Умаров,1990,Raw,Yes,D
6,Andrey Rudetskikh,O,105.2,,,,,,,,,,,200,215,,215,,215,110,M,Андрей Рудецких,1978,Raw,Yes,D
1,Maksim Voronov,M1,101.2,,,,,,,,,,,170,180,190,190,,190,110,M,Максим Воронов,1976,Raw,Yes,D
1,Kirill Karasev,O,112.4,,,,,,,,,,,255,272.5,-280,272.5,,272.5,125,M,Кирилл Карасев,1992,Raw,Yes,D
1,Sergey Bulaev,M2,111,,,,,,,,,,,230,240,,240,,240,125,M,Сергей Булаев,1972,Raw,Yes,D
1,Anatoliy Gerasimenko,O,96.2,,,,,,,,,,,170,185,-190,185,,185,100,M,Анатолий Герасименко,1987,Multi-ply,No,D
1,Radik Gematdinov,O,85.9,,,,,,,,,,,280,300,-317.5,300,,300,90,M,Радик Гематдинов,1982,Single-ply,No,D
1,Sergey Merzlikin,O,94.7,,,,,,,,,,,-250,250,260,260,,260,100,M,Сергей Мерзликин,1983,Single-ply,No,D
1,Dmitriy Dolgov,O,116.2,,,,,,,,,,,300,320,-330,320,,320,125,M,Дмитрий Долгов,1986,Single-ply,No,D
1,Anastasiya Batyukhova,O,51.4,,,,,,,,,,,85,90,95,95,,95,52,F,Анастасия Батюхова,1991,Single-ply,Yes,D
1,Igor Filippov,O,81.5,,,,,,,,,,,252.5,262.5,-267.5,262.5,,262.5,82.5,M,Игорь Филиппов,1984,Single-ply,Yes,D
1,Vyacheslav Stankevich,M6,81.9,,,,,,,,,,,210,230,-240,230,,230,82.5,M,Вячеслав Станкевич,1950,Single-ply,Yes,D
1,Vyacheslav Varlamov,O,87.5,,,,,,,,,,,-255,-255,255,255,,255,90,M,Вячеслав Варламов,1985,Single-ply,Yes,D
2,Vladimir Tarbonov,O,89.2,,,,,,,,,,,210,220,225,225,,225,90,M,Владимир Тарбонов,1954,Single-ply,Yes,D
