Place,Name,Sex,Division,Tested,Event,Equipment,BirthDate,Age,WeightClassKg,BodyweightKg,Country,Squat1Kg,Squat2Kg,Squat3Kg,Best3SquatKg,Squat4Kg,Bench1Kg,Bench2Kg,Bench3Kg,Best3BenchKg,Bench4Kg,Deadlift1Kg,Deadlift2Kg,Deadlift3Kg,Best3DeadliftKg,Deadlift4Kg,TotalKg
1,Stanislav Milostnoy,M,Elite Open,No,B,Raw,1978-12-19,40,82.5,82.3,Russia,,,,,,232.5,242.5,245,245,-253,,,,,,245
2,Ilya Pankratov,M,Elite Open,No,B,Raw,1986-12-09,32,82.5,81.7,Russia,,,,,,217.5,225,230,230,,,,,,,230
1,Vjačeslavs Letlans,M,Elite Open,No,B,Raw,1987-02-28,32,90,89.3,Latvia,,,,,,237.5,242.5,-250,242.5,,,,,,,242.5
1,Denis Bunchuk,M,Elite Open,No,B,Raw,1989-07-09,29,100,97.6,Ukraine,,,,,,245,255,-262.5,255,,,,,,,255
1,Aleksej Solov'ev,M,Elite Open,No,B,Raw,1990-07-01,28,110,108.6,Russia,,,,,,265,270,-276,270,,,,,,,270
2,Ivan Trunov,M,Elite Open,No,B,Raw,1980-10-10,38,110,109.3,Russia,,,,,,220,240,-262.5,240,,,,,,,240
1,Anatolij Serbin,M,Elite Open,No,B,Raw,1990-07-26,28,125,120.3,Russia,,,,,,270,277.5,282.5,282.5,,,,,,,282.5
1,Bogdan Kozak,M,Elite Open,No,B,Raw,1984-04-05,35,140,134.3,Russia,,,,,,250,260,-270,260,,,,,,,260
1,Natalya Safarova,F,Open,No,SBD,Raw,1988-05-03,31,75,72.9,Russia,160,-165,-165,160,,70,75,-77.5,75,,170,175,-190,175,,410
1,Anna Ushkova,F,Open,No,SBD,Raw,1982-06-03,37,82.5,76.6,Russia,85,90,95,95,,60,62.5,65,65,,120,125,-130,125,,285
DQ,Yurij Knyazev,M,Open,No,SBD,Raw,1983-12-07,35,75,74.7,Russia,175,185,-190,185,,-140,,,,,-200,,,,,
1,Aleksandr Telegin,M,Masters 60-64,No,SBD,Raw,1957-12-08,61,75,72.8,Russia,-150,150,160,160,,130,137.5,-140,137.5,,-180,180,190,190,,487.5
1,Pavel Zubkov,M,Open,No,SBD,Raw,1985-12-22,33,82.5,81.5,Russia,225,240,250,250,,150,160,-162.5,160,,295,307.5,315,315,,725
1,Vitalij Boev,M,Open,No,SBD,Raw,1984-06-27,34,90,88.9,Russia,212.5,-222.5,-222.5,212.5,,-170,172.5,180,180,,225,240,-250,240,,632.5
1,Vladimir Reshetov,M,Masters 40-44,No,SBD,Raw,1975-07-07,43,90,89.4,Russia,215,225,235,235,,145,162.5,-167.5,162.5,,215,235,242.5,242.5,,640
DQ,Nikolaj Novikov,M,Masters 80+,No,SBD,Raw,1938-04-25,81,90,87.7,Russia,-110,-110,-110,,,,,,,,,,,,,
1,Aleksej Gruzin,M,Open,No,SBD,Raw,1983-06-23,35,100,98.4,Russia,265,-280,-280,265,,180,-190,-190,180,,285,300,-305,300,,745
2,Aleksandr Dvortsov,M,Open,No,SBD,Raw,1981-07-09,37,100,100,Russia,215,230,245,245,,155,165,175,175,,250,265,280,280,,700
3,Konstantin Sapunkov,M,Open,No,SBD,Raw,1981-09-02,37,100,97.9,Russia,250,255,260,260,,150,162.5,170,170,,260,-270,-270,260,,690
DQ,Mikhail Tikhomirov,M,Masters 45-49,No,SBD,Raw,1974-03-03,45,100,97.5,Russia,-220,-220,-220,,,,,,,,,,,,,
1,Evgenij Solopov,M,Open,No,SBD,Raw,1989-09-04,29,110,108.6,Russia,-270,-270,270,270,,190,200,205,205,,300,305,-312.5,305,,780
1,Roman Korotchenkov,M,Masters 40-44,No,SBD,Raw,1978-07-30,40,110,100.8,Russia,170,180,-190,180,,160,165,170,170,,200,210,220,220,,570
1,Nikolaj Markin,M,Open,No,SBD,Raw,1981-03-14,38,125,121.7,Russia,220,240,260,260,,150,162.5,-172.5,162.5,,230,255,-275,255,,677.5
1,Evgenij Khayarkin,M,Masters 45-49,No,SBD,Raw,1972-02-10,47,125,111.7,Russia,-200,200,210,210,,170,180,-190,180,,240,255,-270,255,,645
2,Sergej Shuvalov,M,Masters 45-49,No,SBD,Raw,1972-09-28,46,125,118.6,Russia,230,,,230,,165,-172.5,175,175,,220,,,220,,625
DQ,Tatyana Budkina,F,Masters 40-44,No,SBD,Wraps,1979-04-02,40,60,59.3,Russia,120,-135,-135,120,,-75,-75,-75,,,,,,,,
1,Margarita Makunina,F,Masters 50-54,No,SBD,Wraps,1969-03-07,50,67.5,65.2,Russia,110,120,-125,120,,70,80,-90,80,,120,130,140,140,,340
1,Viktoriya Epikhina,F,Open,No,SBD,Wraps,1991-04-18,28,75,72.9,Russia,185,-192.5,192.5,192.5,,102.5,107.5,-112.5,107.5,,195,205,-215,205,,505
2,Elena Astakhova,F,Open,No,SBD,Wraps,1982-04-17,37,75,68.3,Russia,140,-145,150,150,,75,80,82.5,82.5,,165,170,175,175,,407.5
1,Liya Surzhitskaya,F,Juniors 20-23,No,SBD,Wraps,1999-01-23,20,82.5,77.1,Russia,190,200,-210,200,,110,115,-120,115,,180,190,-195,190,,505
1,Dmitrij Kosmos,M,Open,No,SBD,Wraps,1994-07-25,24,75,73.8,Russia,170,175,,175,,110,115,120,120,,220,225,,225,,520
2,Evgenij Remizevich,M,Open,No,SBD,Wraps,1992-03-03,27,75,73,Russia,140,145,155,155,,100,107.5,-110,107.5,,160,170,180,180,,442.5
DQ,Vladimir Solovev,M,Open,No,SBD,Wraps,1987-10-30,31,75,73.3,Russia,-200,-200,-200,,,-120,,,,,-210,,,,,
1,Ruslan Zinnatov,M,Open,No,SBD,Wraps,1986-12-21,32,82.5,81.2,Russia,-210,210,225,225,,132.5,137.5,140,140,,200,210,-220,210,,575
1,Vladislav Zolotukhin,M,Teen 15-19,No,SBD,Wraps,2002-01-30,17,90,87.6,Russia,140,155,165,165,175,65,75,-80,75,,145,155,170,170,-180,410
1,Artem Nikitin,M,Juniors 20-23,No,SBD,Wraps,1998-02-01,21,90,89.6,Russia,-270,270,-290,270,,140,-152.5,-152.5,140,,210,235,255,255,,665
1,Roman Kroshkin,M,Open,No,SBD,Wraps,1981-02-09,38,90,88.7,Russia,240,-270,270,270,,145,152.5,-157.5,152.5,,260,275,-285,275,,697.5
2,Andrej Isaev,M,Open,No,SBD,Wraps,1991-12-15,27,90,88.8,Russia,240,-255,255,255,,160,165,170,170,,250,257.5,-262.5,257.5,,682.5
3,Aleksandr Lebedev,M,Open,No,SBD,Wraps,1993-10-14,25,90,86.8,Russia,-215,230,-240,230,,130,140,145,145,,220,-230,-230,220,,595
DQ,Anatolij Markov,M,Masters 65-69,No,SBD,Wraps,1951-01-13,68,90,86.9,Russia,-190,-200,-200,,,,,,,,,,,,,
1,Maksim Samojlenko,M,Juniors 20-23,No,SBD,Wraps,1998-03-11,21,100,98.6,Ukraine,285,-300,300,300,,170,180,-185,180,,300,-320,-320,300,,780
1,Aleksandr Shabrov,M,Open,No,SBD,Wraps,1991-02-07,28,100,95.9,Russia,260,-280,290,290,,170,180,,180,,250,270,290,290,,760
2,Oleg Zamchalov,M,Open,No,SBD,Wraps,1977-07-12,41,100,98.1,Russia,280,-300,-300,280,,-190,190,-200,190,,260,-270,-270,260,,730
3,Sergej Kimenshu,M,Open,No,SBD,Wraps,1982-12-19,36,100,99.4,Russia,290,-300,,290,,145,147.5,150,150,,235,,,235,,675
4,Evgenij Reznik,M,Open,No,SBD,Wraps,1994-10-27,24,100,96.4,Russia,225,-235,235,235,,155,-162.5,-162.5,155,,215,222.5,-230,222.5,,612.5
DQ,Vladimir Elov,M,Open,No,SBD,Wraps,1991-03-04,28,100,91.8,Russia,-200,-200,-205,,,-150,,,,,-260,,,,,
1,Sergej Bolozh,M,Open,No,SBD,Wraps,1992-05-05,27,110,107.9,Russia,-290,300,315,315,,-165,175,-185,175,,-265,265,280,280,,770
2,Aleksandr Romanov,M,Open,No,SBD,Wraps,1973-02-02,46,110,109.7,Russia,-220,225,-235,225,,180,187.5,190,190,,-250,255,,255,,670
DQ,Yaroslav Trubichkin,M,Open,No,SBD,Wraps,1987-06-16,31,110,104.8,Russia,-350,-350,-365,,,-185,,,,,-310,,,,,
1,Aleksandr Romanov,M,Masters 45-49,No,SBD,Wraps,1973-02-02,46,110,109.7,Russia,-220,225,-235,225,,180,187.5,190,190,,-250,255,,255,,670
1,Ildar Yagudin,M,Open,No,SBD,Wraps,1994-04-24,25,125,113.2,Russia,270,280,290,290,,160,170,175,175,,270,-275,275,275,,740
1,Dmitriy Starov,M,Masters 45-49,No,SBD,Wraps,1973-02-01,46,125,116.4,Russia,250,-265,270,270,,150,-160,160,160,,250,260,272.5,272.5,,702.5
1,Pavel Emelyanov,M,Masters 40-44,No,SBD,Single-ply,1977-11-13,41,125,110.8,Russia,245,255,,255,,205,-215,,205,,250,270,,270,,730
1,Olga Gracheva,F,Open,No,B,Raw,1979-09-19,39,75,74.2,Russia,,,,,,100,105,-107.5,105,,,,,,,105
1,Irina Yakovleva,F,Open,No,B,Raw,1970-01-08,49,82.5,81.4,Russia,,,,,,-115,-120,120,120,,,,,,,120
1,Maksim Popov #1,M,Open,No,B,Raw,1984-09-03,34,67.5,66.6,Russia,,,,,,120,125,130,130,-133,,,,,,130
1,Dmitrij Mel'nikov,M,Open,No,B,Raw,1991-11-13,27,75,74.8,Russia,,,,,,110,-120,122.5,122.5,,,,,,,122.5
2,Aleksandr Rumyantsev,M,Open,No,B,Raw,1991-06-26,27,75,70,Russia,,,,,,90,-110,-110,90,,,,,,,90
1,Aleksandr Telegin,M,Masters 60-64,No,B,Raw,1957-12-08,61,75,72.8,Russia,,,,,,130,137.5,-140,137.5,,,,,,,137.5
2,Vladimir Kulakov,M,Masters 60-64,No,B,Raw,1955-12-24,63,75,72.9,Russia,,,,,,85,,,85,,,,,,,85
1,Yurij Ermolin,M,Masters 65-69,No,B,Raw,1952-10-24,66,75,69.9,Russia,,,,,,-90,90,-100,90,,,,,,,90
1,Nikolaj Ionov,M,Masters 70-74,No,B,Raw,1949-05-20,70,75,70.6,Russia,,,,,,80,90,100,100,,,,,,,100
1,Vladislav Sannikov,M,Masters 80+,No,B,Raw,1938-10-29,80,75,73,Russia,,,,,,77.5,80,-82.5,80,,,,,,,80
1,Sergej Dobrynin,M,Open,No,B,Raw,1993-10-19,25,82.5,78.9,Russia,,,,,,160,-162.5,,160,,,,,,,160
2,Rul Andrey,M,Open,No,B,Raw,1982-07-24,36,82.5,82,Russia,,,,,,-135,137.5,147.5,147.5,,,,,,,147.5
3,Dmitrij Kononovich,M,Open,No,B,Raw,1980-05-23,39,82.5,81.5,Russia,,,,,,-135,140,145,145,,,,,,,145
DQ,Nikolaj Petrakovich,M,Open,No,B,Raw,1979-08-17,39,82.5,78,Russia,,,,,,-100,-100,-100,,,,,,,,
DQ,Aleksej Zakharov,M,Open,No,B,Raw,1988-07-07,30,82.5,80.8,Russia,,,,,,-150,-150,-150,,,,,,,,
1,Amir Khusnetdinov,M,Masters 70-74,No,B,Raw,1948-03-01,71,82.5,81,Russia,,,,,,80,-100,-105,80,,,,,,,80
1,Ilya Snezhkov,M,Open,No,B,Raw,1989-12-06,29,90,89.9,Russia,,,,,,207.5,-215,-215,207.5,,,,,,,207.5
2,Maksim Bobarev,M,Open,No,B,Raw,1993-11-13,25,90,88.9,Russia,,,,,,185,190,-195,190,,,,,,,190
3,Evgenij Sidorov,M,Open,No,B,Raw,1983-07-15,35,90,88.6,Russia,,,,,,155,165,-167.5,165,,,,,,,165
1,Aleksej Kondakov,M,Masters 45-49,No,B,Raw,1970-07-22,48,90,88.6,Russia,,,,,,182.5,187.5,190,190,191,,,,,,190
1,Sergej Bazanov,M,Masters 55-59,No,B,Raw,1962-06-22,56,90,87.9,Russia,,,,,,175,177.5,180,180,,,,,,,180
1,Nikolaj Novikov,M,Masters 80+,No,B,Raw,1938-04-25,81,90,87.7,Russia,,,,,,90,100,105,105,,,,,,,105
1,Andrej Kukhnevskij,M,Open,No,B,Raw,1981-11-30,37,100,98.7,Russia,,,,,,205,215,-220,215,,,,,,,215
2,Evgenij Lukoyanov,M,Open,No,B,Raw,1982-03-24,37,100,98.4,Russia,,,,,,180,-200,-200,180,,,,,,,180
DQ,Denis Bunchuk,M,Open,No,B,Raw,1989-07-09,29,100,97.6,Ukraine,,,,,,-210,,,,,,,,,,
1,Craig Stone,M,Masters 40-44,No,B,Raw,1974-11-26,44,100,92,England,,,,,,125,-135,135,135,,,,,,,135
1,Vadim Utkin,M,Masters 45-49,No,B,Raw,1972-07-10,46,100,98.7,Russia,,,,,,145,-155,155,155,,,,,,,155
1,Sergej D'yakonov,M,Masters 60-64,No,B,Raw,1957-07-08,61,100,98.7,Russia,,,,,,150,-157.5,,150,,,,,,,150
1,Konstantin Komissarov,M,Open,No,B,Raw,1985-05-12,34,110,106.3,Russia,,,,,,225,235,-240,235,,,,,,,235
2,Ilya Orlov,M,Open,No,B,Raw,1982-06-23,36,110,102.6,Russia,,,,,,230,-237.5,-237.5,230,,,,,,,230
3,Vladimir Svinarchuk,M,Open,No,B,Raw,1983-08-30,35,110,108.3,Russia,,,,,,210,220,-225,220,,,,,,,220
4,Aleksandr Shumilov,M,Open,No,B,Raw,1980-09-30,38,110,105.2,Russia,,,,,,155,165,-170,165,,,,,,,165
1,Aleksej Grigor'ev,M,Masters 40-44,No,B,Raw,1975-02-04,44,110,107,Russia,,,,,,170,180,187.5,187.5,,,,,,,187.5
1,Dmitrij Prokudin,M,Masters 45-49,No,B,Raw,1974-04-09,45,110,109.3,Russia,,,,,,170,-177.5,177.5,177.5,,,,,,,177.5
2,Igors Grinberg,M,Masters 45-49,No,B,Raw,1969-08-24,49,110,100.3,Russia,,,,,,160,170,175,175,,,,,,,175
3,Sergej Gershtanskij,M,Masters 45-49,No,B,Raw,1974-04-06,45,110,107.7,Russia,,,,,,157.5,162.5,165,165,,,,,,,165
1,Vyacheslav Filin,M,Masters 55-59,No,B,Raw,1961-11-12,57,110,103,Russia,,,,,,185,192.5,195,195,,,,,,,195
1,Vadim Pronin,M,Open,No,B,Raw,1979-08-10,39,125,118.3,Russia,,,,,,210,220,-230,220,,,,,,,220
2,Igor Trukhachev,M,Open,No,B,Raw,1988-10-31,30,125,116.6,Russia,,,,,,195,205,-215,205,,,,,,,205
1,Sergej Mironov,M,Masters 45-49,No,B,Raw,1973-07-09,45,125,124.3,Russia,,,,,,200,205,207.5,207.5,,,,,,,207.5
1,Viktor Kozlov,M,Masters 55-59,No,B,Raw,1963-03-23,56,125,121.5,Russia,,,,,,200,202.5,-205,202.5,,,,,,,202.5
2,Igor Kurotchenko,M,Masters 55-59,No,B,Raw,1962-03-20,57,125,112.1,Russia,,,,,,130,140,145,145,,,,,,,145
1,Andrej Chernyshev,M,Open,No,B,Raw,1981-08-24,37,140,126.6,Russia,,,,,,167.5,-177.5,-177.5,167.5,,,,,,,167.5
1,Sergej Aladyshev,M,Masters 45-49,No,B,Raw,1971-05-08,48,140,138,Russia,,,,,,170,-185,185,185,,,,,,,185
1,Vladimir Kulakov,M,Masters 60-64,No,B,Single-ply,1955-12-24,63,75,72.9,Russia,,,,,,80,,,80,,,,,,,80
1,Vladislav Sannikov,M,Masters 80+,No,B,Single-ply,1938-10-29,80,75,73,Russia,,,,,,80,-85,,80,,,,,,,80
1,Phil Beniston,M,Masters 55-59,No,B,Single-ply,1963-06-02,56,90,88.8,England,,,,,,180,-190,-190,180,,,,,,,180
1,Denis Karpov,M,Open,No,B,Single-ply,1981-04-20,38,100,98.7,Russia,,,,,,230,-240,240,240,,,,,,,240
2,Vladimir Lazarev,M,Open,No,B,Single-ply,1979-11-06,39,100,99.6,Russia,,,,,,190,-200,-200,190,,,,,,,190
DQ,Kirill Filippov,M,Open,No,B,Single-ply,1989-01-07,30,100,97.5,Russia,,,,,,-260,-265,-265,,,,,,,,
1,Roman Brekhov,M,Open,No,B,Single-ply,1990-02-24,29,110,106.9,Russia,,,,,,260,272.5,-280,272.5,,,,,,,272.5
1,Aleksandr Rystsov,M,Open,No,B,Single-ply,1979-12-02,39,125,112.6,Russia,,,,,,260,270,-277.5,270,,,,,,,270
DQ,Marat Abdullin,M,Open,No,B,Multi-ply,1985-07-21,33,110,105.2,Russia,,,,,,-370,-370,-370,,,,,,,,
DQ,Vasilij Filatov,M,Open,No,B,Multi-ply,1986-09-29,32,140,135,Russia,,,,,,-360,-360,-360,,,,,,,,
1,Galina Netrebina,F,Open,No,D,Raw,1978-07-07,40,67.5,67,Russia,,,,,,,,,,,170,180,190,190,,190
1,Natalya Nilova,F,Masters 45-49,No,D,Raw,1973-11-13,45,90,84.9,Russia,,,,,,,,,,,65,75,80,80,,80
1,Maksim Popov #1,M,Open,No,D,Raw,1984-09-03,34,67.5,66.6,Russia,,,,,,,,,,,247.5,-257.5,257.5,257.5,,257.5
1,Islam Soliman,M,Open,No,D,Raw,1996-02-11,23,75,74.3,Egypt,,,,,,,,,,,220,230,-240,230,,230
2,Evgenij Remizevich,M,Open,No,D,Raw,1992-03-03,27,75,73,Russia,,,,,,,,,,,160,170,180,180,,180
1,Andrej Shelakhanov,M,Open,No,D,Raw,1984-11-18,34,82.5,81.5,Russia,,,,,,,,,,,220,-230,-230,220,,220
2,Rul Andrey,M,Open,No,D,Raw,1982-07-24,36,82.5,82,Russia,,,,,,,,,,,190,200,210,210,,210
1,Vadim Zajtsev,M,Masters 55-59,No,D,Raw,1960-08-26,58,90,88.1,Russia,,,,,,,,,,,240,252.5,,252.5,,252.5
1,Nikolaj Belokurov,M,Masters 60-64,No,D,Raw,1955-11-29,63,90,89,Russia,,,,,,,,,,,150,170,-185,170,,170
1,Nikolaj Novikov,M,Masters 80+,No,D,Raw,1938-04-25,81,90,87.7,Russia,,,,,,,,,,,140,-150,150,150,,150
1,Evgenij Kravchenko,M,Open,No,D,Raw,1986-09-03,32,100,92.4,Russia,,,,,,,,,,,320,340,-347.5,340,,340
2,Nikolaj Burdakov,M,Open,No,D,Raw,1988-07-24,30,100,94.6,Russia,,,,,,,,,,,310,322.5,330,330,,330
3,Vitalij Zheludev,M,Open,No,D,Raw,1985-02-09,34,100,94.9,Russia,,,,,,,,,,,310,-320,-320,310,,310
4,Pavel Sazonov,M,Open,No,D,Raw,1986-06-08,33,100,97.8,Russia,,,,,,,,,,,290,-315,,290,,290
5,Evgenij Lukoyanov,M,Open,No,D,Raw,1982-03-24,37,100,98.4,Russia,,,,,,,,,,,280,,,280,,280
6,Nikolaj Katushenko,M,Open,No,D,Raw,1982-05-30,37,100,95.5,Russia,,,,,,,,,,,220,237.5,-250,237.5,,237.5
1,Ilya Ushkov,M,Masters 40-44,No,D,Raw,1976-06-21,42,100,96.1,Russia,,,,,,,,,,,282.5,292.5,-300,292.5,,292.5
2,Craig Stone,M,Masters 40-44,No,D,Raw,1974-11-26,44,100,92,England,,,,,,,,,,,240,250,260,260,,260
1,Mikhail Tikhomirov,M,Masters 45-49,No,D,Raw,1974-03-03,45,100,97.5,Russia,,,,,,,,,,,220,235,-250,235,,235
1,Denis Kurmej,M,Open,No,D,Raw,1987-10-21,31,110,109.1,Russia,,,,,,,,,,,340,360,-372.5,360,,360
2,Aleksej Nanichkin,M,Open,No,D,Raw,1991-02-23,28,110,108.7,Russia,,,,,,,,,,,342.5,355,-367.5,355,,355
3,Aleksandr Kablukov,M,Open,No,D,Raw,1984-12-25,34,110,102.6,Russia,,,,,,,,,,,300,325,,325,,325
1,Nikolaj Markin,M,Open,No,D,Raw,1981-03-14,38,125,121.7,Russia,,,,,,,,,,,230,255,-275,255,,255
1,Aleksandr Bereznikov,M,Masters 55-59,No,D,Raw,1964-01-26,55,125,117.5,Russia,,,,,,,,,,,250,260,-270,260,,260
1,David Carter #1,M,Masters 70-74,No,D,Raw,1947-08-08,71,140,126.8,England,,,,,,,,,,,190,210,230,230,,230
1,Vladislav Sannikov,M,Masters 80+,No,D,Single-ply,1938-10-29,80,75,73,Russia,,,,,,,,,,,112.5,122.5,,122.5,,122.5
1,Ekaterina Suchkova,F,Juniors 20-23,Yes,SBD,Raw,1997-05-15,22,44,42.5,Russia,60,-70,-70,60,,30,35,-40,35,,80,90,-100,90,,185
1,Alisa Lukmanova,F,Open,Yes,SBD,Raw,1992-01-25,27,56,55.4,Russia,70,80,85,85,,50,-55,-55,50,,80,90,100,100,,235
1,Mariya Ukhareva,F,Open,Yes,SBD,Raw,1988-05-03,31,60,57.7,Russia,100,110,115,115,117.5,67.5,-72.5,72.5,72.5,,115,122.5,127.5,127.5,,315
2,Ekaterina Chaplygina,F,Open,Yes,SBD,Raw,1991-09-17,27,60,60,Russia,92.5,97.5,-102.5,97.5,,52.5,-57.5,-57.5,52.5,,125,130,135,135,,285
3,Loide Nkandi,F,Open,Yes,SBD,Raw,1990-08-30,28,60,59.7,Haiti,80,90,-100,90,,50,57.5,-62.5,57.5,,117.5,125,130,130,,277.5
4,Alina Myasoedova,F,Open,Yes,SBD,Raw,1988-06-29,30,60,58.5,Russia,65,72.5,80,80,,35,42.5,-45,42.5,,-110,115,122.5,122.5,,245
1,Kaunarenga Karikhinga,F,Open,Yes,SBD,Raw,1985-07-21,33,67.5,65.9,Namibia,80,90,-100,90,,-50,55,60,60,,110,120,130,130,,280
2,Yuliya Sjomkina,F,Open,Yes,SBD,Raw,1989-04-24,30,67.5,65.7,Russia,85,-90,-90,85,,-50,50,52.5,52.5,,90,-92.5,-92.5,90,,227.5
DQ,Natalya Viktorova,F,Open,Yes,SBD,Raw,1985-12-29,33,67.5,67.2,Russia,105,110,-115,110,,-60,-62.5,-62.5,,,-115,,,,,
DQ,Olga Ushakova,F,Open,Yes,SBD,Raw,1974-03-22,45,67.5,67.2,Russia,-105,-105,-105,,,-60,,,,,-110,,,,,
DQ,Olga Ushakova,F,Masters 45-49,Yes,SBD,Raw,1974-03-22,45,67.5,67.2,Russia,-105,-105,-105,,,-60,,,,,-110,,,,,
1,Natal'ya Kaftajlova,F,Masters 55-59,Yes,SBD,Raw,1960-08-24,58,67.5,65.8,Russia,60,65,70,70,,42.5,-47.5,47.5,47.5,,130,-135,-135,130,,247.5
1,Natalya Sergeeva,F,Open,Yes,SBD,Raw,1985-10-27,33,75,68.7,Russia,80,-90,90,90,,57.5,-62.5,62.5,62.5,,100,110,-120,110,,262.5
1,Pamela Kasseus,F,Juniors 20-23,Yes,SBD,Raw,1998-07-18,20,82.5,79.8,Haiti,125,135,140,140,,60,65,70,70,,125,135,140,140,,350
1,Malebo Magama,F,Open,Yes,SBD,Raw,1992-03-12,27,90+,101.6,Haiti,115,125,-135,125,,60,65,-67.5,65,,105,125,135,135,,325
1,Roman Makarov,M,Open,Yes,SBD,Raw,1988-05-01,31,67.5,66.9,Russia,150,-155,,150,,110,115,-117.5,115,,200,210,-215,210,,475
1,Lev Krivov,M,Teen 15-19,Yes,SBD,Raw,2001-02-01,18,75,72.2,Russia,130,-140,-140,130,,90,-100,-100,90,,150,-160,170,170,,390
1,Ivan Karangin,M,Open,Yes,SBD,Raw,1985-09-17,33,75,74.5,Russia,195,207.5,-215,207.5,,147.5,152.5,-157.2,152.5,,225,237.5,250,250,,610
2,Ilya Golyavin,M,Open,Yes,SBD,Raw,1993-08-14,25,75,71.3,Russia,155,165,172.5,172.5,,100,-107.5,107.5,107.5,,175,185,-190,185,,465
3,Aleksej Majboroda,M,Open,Yes,SBD,Raw,1984-01-08,35,75,73.5,Russia,125,132.5,-140,132.5,,80,85,90,90,,130,137.5,142.5,142.5,,365
1,Aleksandr Kiselev,M,Masters 45-49,Yes,SBD,Raw,1974-01-01,45,75,74.5,Russia,175,185,-190,185,,117.5,122.5,,122.5,,200,210,-215,210,,517.5
1,Vladimir Zhakin,M,Masters 65-69,Yes,SBD,Raw,1952-09-15,66,75,74.4,Russia,125,130,132.5,132.5,,90,95,-97.5,95,,140,-145,-145,140,,367.5
1,Vidal Monzhane,M,Teen 15-19,Yes,SBD,Raw,1999-06-12,19,82.5,77.5,Russia,170,180,190,190,,155,162.5,-167.5,162.5,,-220,235,250,250,,602.5
2,Daniil Barsukov,M,Teen 15-19,Yes,SBD,Raw,1999-07-08,19,82.5,79.7,Russia,140,150,-160,150,,100,105,107.5,107.5,,170,-180,-180,170,,427.5
1,Aleksandr Khrunov,M,Juniors 20-23,Yes,SBD,Raw,1996-04-14,23,82.5,81.8,Russia,190,-200,-200,190,,105,112.5,-115,112.5,,200,205,210,210,,512.5
2,Kirill Poletaev,M,Juniors 20-23,Yes,SBD,Raw,1998-08-17,20,82.5,81.9,Russia,175,182.5,-185,182.5,,110,-115,-117.5,110,,180,190,-192.5,190,,482.5
1,Igor Startsev,M,Open,Yes,SBD,Raw,1983-03-14,36,82.5,82,Russia,-205,-205,210,210,,155,162.5,-167.5,162.5,,-250,250,-277.5,250,,622.5
DQ,Andrej Tsepelev,M,Open,Yes,SBD,Raw,1987-12-22,31,82.5,81.8,Russia,-170,-170,-170,,,,,,,,,,,,,
1,Aleksej Gvozdev,M,Masters 45-49,Yes,SBD,Raw,1972-03-27,47,82.5,81.5,Russia,182.5,-187.5,-187.5,182.5,,107.5,-112.5,-112.5,107.5,,207.5,217.5,222.5,222.5,,512.5
1,Nikita Dolgirev,M,Juniors 20-23,Yes,SBD,Raw,1997-03-09,22,90,88,Russia,175,182.5,187.5,187.5,,147.5,-152.5,152.5,152.5,,245,-255,-255,245,,585
1,Maksim Yarlykov,M,Open,Yes,SBD,Raw,1984-10-16,34,90,89.2,Russia,240,250,260,260,,160,170,-175,170,,260,270,277.5,277.5,,707.5
DQ,Dmitrij Myasin,M,Open,Yes,SBD,Raw,1984-05-27,35,90,86.4,Russia,170,180,-190,180,,-135,-135,-135,,,-190,,,,,
DQ,Aleksandr Gamov,M,Open,Yes,SBD,Raw,,,90,89.5,Russia,200,-215,-215,200,,-135,-135,-135,,,-240,,,,,
1,Dmitrij Pavlovskij,M,Open,Yes,SBD,Raw,1988-02-01,31,100,100,Russia,200,220,230,230,,145,155,-162.5,155,,260,280,290,290,,675
1,Oleg Samofalov,M,Masters 40-44,Yes,SBD,Raw,1976-03-11,43,100,97,Russia,170,180,-190,180,,120,122.5,,122.5,,175,185,190,190,,492.5
1,Viktor Krivokon,M,Masters 45-49,Yes,SBD,Raw,1972-07-25,46,100,98.1,Russia,180,-190,-190,180,,-135,135,142.5,142.5,,230,250,,250,,572.5
1,Nikita Sobolev,M,Teen 15-19,Yes,SBD,Raw,2002-10-25,16,110,103.7,Russia,-150,160,165,165,,125,135,137.5,137.5,,180,190,,190,,492.5
DQ,Anton Kaftajlov,M,Open,Yes,SBD,Raw,1992-03-16,27,125,120.2,Russia,-230,-230,-230,,,-160,,,,,-240,,,,,
1,Elizaveta Smirnova,F,Open,Yes,SBD,Wraps,1995-01-19,24,48,47.6,Russia,72.5,-77.5,77.5,77.5,,40,-45,-47.5,40,,90,100,105,105,,222.5
1,Anna Sokolova,F,Open,Yes,SBD,Wraps,1984-03-15,35,52,50.2,Russia,105,-110,110,110,,62.5,-67.5,-67.5,62.5,,122.5,127.5,-132.5,127.5,,300
2,Oksana Kopylova,F,Open,Yes,SBD,Wraps,1989-07-05,29,52,50.7,Russia,92.5,97.5,100,100,,45,47.5,-50,47.5,,95,100,105,105,,252.5
3,Lyudmila Smirnova,F,Open,Yes,SBD,Wraps,1979-07-03,39,52,52,Russia,80,-90,90,90,,-45,45,-50,45,,85,95,97.5,97.5,,232.5
1,Anastasiya Gorshkova,F,Open,Yes,SBD,Wraps,1988-01-29,31,56,54.1,Russia,-130,130,-137.5,130,,-52.5,52.5,-55,52.5,,140,-147.5,-152.5,140,,322.5
2,Irina Tkachenko,F,Open,Yes,SBD,Wraps,1990-07-23,28,56,55.3,Russia,95,102.5,107.5,107.5,,47.5,52.5,-55,52.5,,97.5,102.5,107.5,107.5,,267.5
1,Ekaterina Martynova,F,Juniors 20-23,Yes,SBD,Wraps,1997-04-13,22,60,59.3,Russia,110,115,120,120,,65,-70,70,70,,110,120,125,125,,315
1,Svetlana Bolshakova,F,Masters 40-44,Yes,SBD,Wraps,1975-05-27,44,67.5,64.6,Russia,95,105,110,110,,60,65,70,70,,100,110,120,120,,300
1,Anna Ivanenko,F,Open,Yes,SBD,Wraps,1986-01-03,33,75,74.3,Russia,130,140,-150,140,,75,-80,-80,75,,135,-145,-145,135,,350
1,Dmitrij Kochmaruk,M,Teen 15-19,Yes,SBD,Wraps,2000-03-26,19,75,74.3,Russia,170,180,185,185,,125,130,-132.5,130,,217.5,225,-230,225,,540
1,Petr Kutilov,M,Open,Yes,SBD,Wraps,1986-06-07,33,75,72.6,Russia,145,155,-160,155,,90,95,-100,95,,155,165,175,175,,425
1,Roman Evseev,M,Open,Yes,SBD,Wraps,1993-08-12,25,82.5,81.1,Russia,170,190,200,200,,130,-137.5,,130,,180,200,222.5,222.5,,552.5
2,Ivan Vasilev,M,Open,Yes,SBD,Wraps,1991-06-08,28,82.5,82.1,Russia,180,190,,190,,125,130,135,135,,192.5,205,207.5,207.5,,532.5
1,Evgenij Petropavlovskij,M,Juniors 20-23,Yes,SBD,Wraps,1997-08-07,21,90,86.9,Russia,-175,-195,195,195,,-115,115,125,125,,185,195,-205,195,,515
1,Stanislav Kholodnyj,M,Open,Yes,SBD,Wraps,1987-06-11,31,90,89,Russia,170,180,195,195,,125,140,-150,140,,225,235,250,250,,585
2,Ilya Rogachev,M,Open,Yes,SBD,Wraps,1983-02-25,36,90,88.5,Russia,-190,200,,200,,130,140,145,145,,190,-200,-200,190,,535
DQ,Nikolaj Murzakhanov,M,Masters 60-64,Yes,SBD,Wraps,1955-07-29,63,90,88.6,Russia,-140,-140,-140,,,,,,,,,,,,,
1,Mikhail Bobkov,M,Masters 70-74,Yes,SBD,Wraps,1947-11-21,71,90,86.8,Russia,-200,-200,200,200,,75,80,-85,80,,190,200,-207.5,200,,480
1,Aleksej Sysoev,M,Open,Yes,SBD,Wraps,1988-05-24,31,100,96.3,Russia,240,-250,250,250,,130,140,-150,140,,280,-290,-290,280,,670
2,Roman Pevtsov,M,Open,Yes,SBD,Wraps,1991-04-08,28,100,96.7,Russia,240,-250,250,250,,180,190,-195,190,,-230,-230,230,230,,670
1,Andrej Drozhzhin,M,Open,Yes,SBD,Wraps,1977-11-21,41,110,108.6,Russia,260,280,-295,280,,170,-180,180,180,,260,270,-285,270,,730
1,Andrej Drozhzhin,M,Masters 40-44,Yes,SBD,Wraps,1977-11-21,41,110,108.6,Russia,260,280,-295,280,,170,-180,180,180,,260,270,-285,270,,730
2,Ivan Rak,M,Masters 40-44,Yes,SBD,Wraps,1974-08-27,44,110,108.5,Russia,230,245,255,255,,145,155,-160,155,,220,240,-252.5,240,,650
1,Konstantin Samarskij,M,Masters 55-59,Yes,SBD,Wraps,1962-01-06,57,110,105.8,Russia,210,220,222.5,222.5,,135,142.5,145,145,,200,210,215,215,,582.5
DQ,Viktor Yashin,M,Open,Yes,SBD,Single-ply,1989-10-29,29,82.5,82.2,Russia,230,242.5,-247.5,242.5,,-145,-145,-145,,,-200,,,,,
1,Sergej Polyakov,M,Masters 45-49,Yes,SBD,Single-ply,1972-02-14,47,90,83.6,Russia,170,180,-190,180,,-140,140,-150,140,,180,200,-210,200,,520
1,Anatolij Kirillov,M,Open,Yes,SBD,Multi-ply,1981-09-08,37,90,87.3,Russia,-180,-180,180,180,,170,182.5,195,195,,200,-210,-210,200,,575
1,Aleksandr Krovikov,M,Masters 55-59,Yes,SBD,Multi-ply,1961-09-26,57,100,92.4,Russia,170,180,-185,180,,140,-150,-150,140,,180,220,-250,220,,540
1,Anna Gelfman,F,Open,Yes,B,Raw,1989-05-27,30,48,46.7,Russia,,,,,,-52.5,52.5,55,55,,,,,,,55
2,Svetlana Yurtaeva,F,Open,Yes,B,Raw,1987-04-02,32,48,48,Russia,,,,,,50,52.5,-55,52.5,,,,,,,52.5
3,Mariya Lukasevich,F,Open,Yes,B,Raw,1989-04-28,30,48,47.7,Russia,,,,,,45,47.5,-52.5,47.5,,,,,,,47.5
4,Olesya Scherbinina,F,Open,Yes,B,Raw,1986-10-23,32,48,47.2,Russia,,,,,,-40,40,-45,40,,,,,,,40
1,Mariya Mostovaya,F,Open,Yes,B,Raw,1985-11-19,33,52,51.7,Russia,,,,,,65,-67.5,-67.5,65,,,,,,,65
2,Ekaterina Bazhina,F,Open,Yes,B,Raw,1983-04-04,36,52,50.2,Russia,,,,,,-42.5,42.5,-47.5,42.5,,,,,,,42.5
3,Natal'ya Sovetina,F,Open,Yes,B,Raw,1985-10-26,33,52,49.7,Russia,,,,,,-35,35,-42.5,35,,,,,,,35
1,Anastasiya Chinchilej,F,Juniors 20-23,Yes,B,Raw,1997-10-06,21,56,55.9,Russia,,,,,,-57.5,-62.5,62.5,62.5,,,,,,,62.5
1,Zinaida Dvoryaninova,F,Open,Yes,B,Raw,1984-11-13,34,56,54.5,Russia,,,,,,60,65,-67.5,65,,,,,,,65
2,Marina Kamyshnikova,F,Open,Yes,B,Raw,1979-02-16,40,56,55.8,Russia,,,,,,55,60,-62.5,60,,,,,,,60
1,Natal'ya Feoktistova,F,Masters 45-49,Yes,B,Raw,1969-11-08,49,56,55.6,Russia,,,,,,45,50,-55,50,,,,,,,50
1,Anastasiya Leonteva,F,Open,Yes,B,Raw,1994-07-07,24,60,59,Russia,,,,,,80,85,90,90,92.5,,,,,,90
2,Darya Bystrova,F,Open,Yes,B,Raw,1990-03-07,29,60,60,Russia,,,,,,55,-60,-60,55,,,,,,,55
1,Olga Samsonova,F,Masters 40-44,Yes,B,Raw,1975-08-06,43,60,59,Russia,,,,,,57.5,-62.5,62.5,62.5,,,,,,,62.5
2,Anna Cheremisova,F,Masters 40-44,Yes,B,Raw,1975-04-25,44,60,58.1,Russia,,,,,,47.5,52.5,-55,52.5,,,,,,,52.5
1,Irina Bukhantseva,F,Masters 45-49,Yes,B,Raw,1971-11-24,47,60,57.2,Russia,,,,,,42.5,47.5,52.5,52.5,-53.5,,,,,,52.5
1,Mariya Volkova,F,Open,Yes,B,Raw,1995-01-03,24,67.5,66,Russia,,,,,,90,92.5,-95,92.5,,,,,,,92.5
2,Alisa Larskaya,F,Open,Yes,B,Raw,1989-04-18,30,67.5,65.5,Russia,,,,,,65,-70,-70,65,,,,,,,65
1,Irina Romasenko,F,Masters 40-44,Yes,B,Raw,1975-12-22,43,67.5,66.2,Russia,,,,,,75,-80,-80,75,,,,,,,75
1,Yuliya Makarova,F,Masters 45-49,Yes,B,Raw,1969-06-30,49,67.5,66.6,Russia,,,,,,70,75,-80,75,,,,,,,75
2,Olga Pavlovskaya,F,Masters 45-49,Yes,B,Raw,1974-05-06,45,67.5,66.1,Russia,,,,,,55,57.5,-60,57.5,,,,,,,57.5
1,Mariya Danilova,F,Teen 15-19,Yes,B,Raw,2000-06-27,18,75,72.6,Russia,,,,,,57.5,60,62.5,62.5,63,,,,,,62.5
1,Ekaterina Nilova,F,Open,Yes,B,Raw,1983-08-06,35,75,73.8,Russia,,,,,,75,-82.5,-82.5,75,,,,,,,75
DQ,Irina Mishina,F,Open,Yes,B,Raw,1979-08-08,39,75,73,Russia,,,,,,-57.5,-57.5,-57.5,,,,,,,,
1,Evgeniya Petrokovich,F,Open,Yes,B,Raw,1985-07-18,33,90,87.8,Russia,,,,,,40,50,55,55,,,,,,,55
1,Daniil Meshkov,M,Teen 15-19,Yes,B,Raw,2003-04-04,16,60,58.1,Russia,,,,,,90,-95,95,95,,,,,,,95
1,Nikolaj Fokin,M,Juniors 20-23,Yes,B,Raw,1998-06-26,20,60,58,Russia,,,,,,-90,90,-100,90,,,,,,,90
1,Aleksej Balashov,M,Open,Yes,B,Raw,1990-01-14,29,60,57.4,Russia,,,,,,85,90,-92.5,90,,,,,,,90
1,Daniil Samarskij,M,Teen 15-19,Yes,B,Raw,2003-01-12,16,67.5,65.8,Belarus,,,,,,120,125,130,130,-132.5,,,,,,130
2,Artjom Djomin,M,Teen 15-19,Yes,B,Raw,2000-11-05,18,67.5,67.2,Russia,,,,,,112.5,120,-127.5,120,,,,,,,120
3,Matvej Loginov,M,Teen 15-19,Yes,B,Raw,2003-02-24,16,67.5,60.4,Russia,,,,,,57.5,62.5,-65,62.5,,,,,,,62.5
1,Aleksandr Gapuzin,M,Open,Yes,B,Raw,1988-01-03,31,67.5,65.6,Russia,,,,,,125,130,135,135,,,,,,,135
2,Daniil Samarskij,M,Open,Yes,B,Raw,2003-01-12,16,67.5,65.8,Belarus,,,,,,120,125,130,130,-132.5,,,,,,130
1,Dmitrij Khodkin,M,Teen 15-19,Yes,B,Raw,2002-12-20,16,75,72,Russia,,,,,,77.5,-87.5,-87.5,77.5,,,,,,,77.5
DQ,Aleksandr Agapov,M,Teen 15-19,Yes,B,Raw,1999-08-25,19,75,73.4,Russia,,,,,,-117.5,-127.5,-127.5,,,,,,,,
1,Dmitrij Berlizov,M,Juniors 20-23,Yes,B,Raw,1996-01-22,23,75,74,Russia,,,,,,125,127.5,130,130,,,,,,,130
2,Sergej Ermolov,M,Juniors 20-23,Yes,B,Raw,1995-07-03,23,75,74.3,Russia,,,,,,110,115,-120,115,,,,,,,115
1,Ivan Karangin,M,Open,Yes,B,Raw,1985-09-17,33,75,74.5,Russia,,,,,,147.5,152.5,-157.2,152.5,,,,,,,152.5
2,Dmitrij Berlizov,M,Open,Yes,B,Raw,1996-01-22,23,75,74,Russia,,,,,,125,127.5,130,130,,,,,,,130
3,Ivan Karpov,M,Open,Yes,B,Raw,1987-12-09,31,75,74.6,Russia,,,,,,125,130,-135,130,,,,,,,130
4,Vladimir Yushin,M,Open,Yes,B,Raw,1993-06-16,25,75,72.5,Russia,,,,,,-112.5,115,-120,115,,,,,,,115
5,Daniil Krasnobaev,M,Open,Yes,B,Raw,1981-05-18,38,75,74,Russia,,,,,,110,-115,-115,110,,,,,,,110
6,Nikolaj Pekarskij,M,Open,Yes,B,Raw,1989-12-16,29,75,74.9,Russia,,,,,,105,110,-115,110,,,,,,,110
7,Aleksandr Bardenkov,M,Open,Yes,B,Raw,1984-06-08,35,75,73.3,Russia,,,,,,-107.5,107.5,-110,107.5,,,,,,,107.5
DQ,Aleksandr Ryzhov,M,Open,Yes,B,Raw,1985-04-19,34,75,74.5,Russia,,,,,,-110,-110,-110,,,,,,,,
1,Sergej Kalinin,M,Masters 40-44,Yes,B,Raw,1975-11-19,43,75,74.2,Russia,,,,,,135,137.5,140,140,,,,,,,140
1,Sergej Kolesnikov,M,Masters 45-49,Yes,B,Raw,1974-05-28,45,75,73.3,Russia,,,,,,125,135,140,140,145,,,,,,140
2,Oleg Solodov,M,Masters 45-49,Yes,B,Raw,1971-10-14,47,75,72,Russia,,,,,,130,135,137.5,137.5,-142.5,,,,,,137.5
DQ,Aleksej Meshalov,M,Masters 45-49,Yes,B,Raw,1973-01-02,46,75,74.4,Russia,,,,,,-135,-135,-135,,,,,,,,
1,Oleg Vinokurov,M,Masters 50-54,Yes,B,Raw,1966-05-10,53,75,74.2,Russia,,,,,,115,117.5,-120,117.5,,,,,,,117.5
1,Nikolaj Vetrov,M,Masters 70-74,Yes,B,Raw,1945-09-12,73,75,73,Russia,,,,,,75,77.5,-80,77.5,,,,,,,77.5
1,Sergej Salosalov,M,Teen 13-14,Yes,B,Raw,2004-09-11,14,82.5,81.7,Russia,,,,,,150,-155,-155,150,,,,,,,150
1,Vsevolod Emelyanov,M,Juniors 20-23,Yes,B,Raw,1998-06-24,20,82.5,77.5,Russia,,,,,,145,155,160,160,,,,,,,160
1,Ramil Bektemirov,M,Open,Yes,B,Raw,1987-09-09,31,82.5,81.4,Russia,,,,,,185,-190,-190,185,,,,,,,185
2,Konstantin Sharov,M,Open,Yes,B,Raw,1986-10-30,32,82.5,79.8,Russia,,,,,,-147.5,147.5,152.5,152.5,,,,,,,152.5
3,Aleksej Zakharov,M,Open,Yes,B,Raw,1988-07-07,30,82.5,80.8,Russia,,,,,,152.5,-155,-155,152.5,,,,,,,152.5
4,Igor Popov,M,Open,Yes,B,Raw,1989-11-11,29,82.5,81.3,Russia,,,,,,150,-155,-155,150,,,,,,,150
5,Daniil Musatov,M,Open,Yes,B,Raw,1991-10-21,27,82.5,80,Azerbaijan,,,,,,120,125,-130,125,,,,,,,125
1,Aleksej Parfenkov,M,Masters 40-44,Yes,B,Raw,1976-12-31,42,82.5,81.6,Russia,,,,,,132.5,137.5,-140,137.5,,,,,,,137.5
2,Aleksandr Semenov,M,Masters 40-44,Yes,B,Raw,1977-02-03,42,82.5,81.6,Russia,,,,,,127.5,132.5,135,135,,,,,,,135
1,Aleksej Arapov,M,Masters 50-54,Yes,B,Raw,1969-06-03,50,82.5,81.7,Russia,,,,,,130,135,-140,135,,,,,,,135
1,Sergej Kondrashev,M,Masters 55-59,Yes,B,Raw,1963-09-16,55,82.5,81,Russia,,,,,,120,125,130,130,,,,,,,130
1,Vyacheslav Volkov,M,Open,Yes,B,Raw,1971-11-13,47,90,89.7,Russia,,,,,,165,-175,175,175,,,,,,,175
2,Aleksej Taldykin,M,Open,Yes,B,Raw,1980-03-29,39,90,88.9,Russia,,,,,,162.5,167.5,170,170,,,,,,,170
3,Marat Nekrasov,M,Open,Yes,B,Raw,1990-08-14,28,90,89.9,Russia,,,,,,155,160,170,170,,,,,,,170
4,Ivan Galichevskij,M,Open,Yes,B,Raw,1989-11-21,29,90,86.8,Russia,,,,,,145,155,160,160,,,,,,,160
5,Igor Savin #2,M,Open,Yes,B,Raw,1987-01-12,32,90,88.7,Russia,,,,,,145,-155,-155,145,,,,,,,145
6,Evgenij Solov'ev,M,Open,Yes,B,Raw,1989-07-07,29,90,89,Russia,,,,,,-130,130,-135,130,,,,,,,130
1,Sergej Kravtsov,M,Masters 40-44,Yes,B,Raw,1974-12-19,44,90,88.7,Russia,,,,,,132.5,137.5,-140,137.5,,,,,,,137.5
2,Aleksandr Kazachenko,M,Masters 40-44,Yes,B,Raw,1978-12-19,40,90,86.9,Russia,,,,,,95,-102.5,-110,95,,,,,,,95
1,Vyacheslav Volkov,M,Masters 45-49,Yes,B,Raw,1971-11-13,47,90,89.7,Russia,,,,,,165,-175,175,175,,,,,,,175
2,Mikhail Chepurnoj,M,Masters 45-49,Yes,B,Raw,1970-02-26,49,90,88.6,Russia,,,,,,145,150,-155,150,,,,,,,150
3,Vadim Grishin,M,Masters 45-49,Yes,B,Raw,1973-09-16,45,90,85.5,Russia,,,,,,142.5,145,-147.5,145,,,,,,,145
1,Igor Khorkhordin,M,Masters 50-54,Yes,B,Raw,1967-06-15,51,90,89.4,Russia,,,,,,150,160,-170,160,,,,,,,160
1,Sergej Semenov,M,Masters 60-64,Yes,B,Raw,1959-04-01,60,90,89.7,Russia,,,,,,125,-130,130,130,,,,,,,130
2,Mikhail Aleksakov,M,Masters 60-64,Yes,B,Raw,1954-12-04,64,90,88.7,Russia,,,,,,90,95,100,100,,,,,,,100
1,Aleksej Kan,M,Juniors 20-23,Yes,B,Raw,1996-09-20,22,100,97.9,Russia,,,,,,157.5,165,167.5,167.5,-170,,,,,,167.5
2,Ivan Khvorostyuk,M,Juniors 20-23,Yes,B,Raw,1995-12-26,23,100,98.2,Russia,,,,,,150,157.5,162.5,162.5,,,,,,,162.5
1,Aleksej Minaev,M,Open,Yes,B,Raw,1985-07-29,33,100,97.6,Russia,,,,,,200,-205,-205,200,,,,,,,200
2,Sergej Ovcharov,M,Open,Yes,B,Raw,1979-08-14,39,100,98.9,Russia,,,,,,175,180,187.5,187.5,,,,,,,187.5
3,Aleksandr Lapin,M,Open,Yes,B,Raw,1989-09-25,29,100,91.5,Russia,,,,,,155,165,-170,165,,,,,,,165
4,Oleg Lopatin,M,Open,Yes,B,Raw,1983-06-15,35,100,99.3,Russia,,,,,,160,-165,-165,160,,,,,,,160
5,Oleg Golenkov,M,Open,Yes,B,Raw,1983-08-29,35,100,96.4,Russia,,,,,,152.5,157.5,-165,157.5,,,,,,,157.5
6,Nikolaj Nesterov,M,Open,Yes,B,Raw,1990-11-26,28,100,95.9,Russia,,,,,,-155,155,-165,155,,,,,,,155
7,Viktor Nazgaidze,M,Open,Yes,B,Raw,1981-09-19,37,100,98.9,Russia,,,,,,152.5,-157.5,-157.5,152.5,,,,,,,152.5
8,Sergej Maksimov,M,Open,Yes,B,Raw,1985-12-03,33,100,96.4,Russia,,,,,,142.5,150,-155,150,,,,,,,150
DQ,Pavel Miloserdov,M,Open,Yes,B,Raw,1993-10-11,25,100,95.2,Russia,,,,,,-135,,,,,,,,,,
DQ,Vladimir SjomScoren,M,Open,Yes,B,Raw,1986-09-23,32,100,99.5,Russia,,,,,,-160,-165,-165,,,,,,,,
1,Sergej Maksimov,M,Masters 40-44,Yes,B,Raw,1975-09-15,43,100,99,Russia,,,,,,-160,165,170,170,,,,,,,170
2,Vladislav Scherbakov,M,Masters 40-44,Yes,B,Raw,1977-08-07,41,100,99.6,Russia,,,,,,145,-150,-157.5,145,,,,,,,145
1,Nikolaj Romasenko,M,Masters 45-49,Yes,B,Raw,1973-12-19,45,100,98.1,Russia,,,,,,172.5,177.5,180,180,,,,,,,180
2,Valerij Koren'kov,M,Masters 45-49,Yes,B,Raw,1972-07-01,46,100,99.6,Russia,,,,,,172.5,-180,-180,172.5,,,,,,,172.5
3,Sergej Klimov,M,Masters 45-49,Yes,B,Raw,1971-09-07,47,100,98.5,Russia,,,,,,130,-140,-140,130,,,,,,,130
1,Aleksandr Sapachev,M,Masters 50-54,Yes,B,Raw,1965-12-13,53,100,97.5,Russia,,,,,,140,145,150,150,,,,,,,150
2,Igor Usachev,M,Masters 50-54,Yes,B,Raw,1965-06-06,54,100,94.1,Russia,,,,,,135,140,145,145,,,,,,,145
DQ,Sergej Malyshev,M,Masters 50-54,Yes,B,Raw,1969-04-06,50,100,97.4,Russia,,,,,,-130,-130,-130,,,,,,,,
1,Aleksandr Chebotarev,M,Masters 55-59,Yes,B,Raw,1959-07-09,59,100,93.9,Russia,,,,,,115,120,125,125,,,,,,,125
1,Aleksandr Gezhenko,M,Masters 65-69,Yes,B,Raw,1953-03-21,66,100,99.3,Russia,,,,,,105,-110,-110,105,,,,,,,105
1,Daniil Lapchenko,M,Teen 13-14,Yes,B,Raw,2005-09-09,13,110,108.6,Russia,,,,,,80,85,90,90,,,,,,,90
1,Aleksej Frolov,M,Open,Yes,B,Raw,1983-10-29,35,110,103.9,Russia,,,,,,180,190,-195,190,,,,,,,190
2,Yan Zhurkin,M,Open,Yes,B,Raw,1985-11-05,33,110,103.2,Russia,,,,,,170,-177.5,-177.5,170,,,,,,,170
3,Aleksandr Buyanov,M,Open,Yes,B,Raw,1980-03-24,39,110,104.9,Russia,,,,,,150,155,157.5,157.5,,,,,,,157.5
DQ,Ivan Leschenko,M,Open,Yes,B,Raw,1986-07-10,32,110,106.1,Russia,,,,,,-180,-180,,,,,,,,,
1,Kirill Remin,M,Masters 40-44,Yes,B,Raw,1975-08-13,43,110,103.5,Russia,,,,,,170,180,182.5,182.5,,,,,,,182.5
2,Stanislav Mishin,M,Masters 40-44,Yes,B,Raw,1978-11-02,40,110,109,Russia,,,,,,180,-182.5,-182.5,180,,,,,,,180
1,Ismail Shakhbanov,M,Masters 45-49,Yes,B,Raw,1971-11-26,47,110,103.5,Russia,,,,,,170,180,185,185,,,,,,,185
2,Pavel Bukhantsev,M,Masters 45-49,Yes,B,Raw,1969-08-02,49,110,107.5,Russia,,,,,,182.5,185,,185,,,,,,,185
3,Vladimir Stepanov,M,Masters 45-49,Yes,B,Raw,1970-09-15,48,110,104.9,Russia,,,,,,175,180,-182.5,180,,,,,,,180
4,Ivan Burlov,M,Masters 45-49,Yes,B,Raw,1970-01-20,49,110,108.7,Russia,,,,,,177.5,-185,-185,177.5,,,,,,,177.5
5,Dmitrij Kireev,M,Masters 45-49,Yes,B,Raw,1969-08-25,49,110,106.3,Russia,,,,,,160,162.5,,162.5,,,,,,,162.5
1,Vasilij Litovtsev,M,Masters 50-54,Yes,B,Raw,1968-06-27,50,110,102.9,Russia,,,,,,157.5,165,170,170,,,,,,,170
1,Konstantin Samarskij,M,Masters 55-59,Yes,B,Raw,1962-01-06,57,110,105.8,Russia,,,,,,135,142.5,145,145,,,,,,,145
2,Valerij Kondrat'ev,M,Masters 55-59,Yes,B,Raw,1964-01-15,55,110,107.9,Russia,,,,,,140,142.5,-145,142.5,,,,,,,142.5
1,Anatolij Pauesov,M,Masters 65-69,Yes,B,Raw,1953-06-14,65,110,110,Russia,,,,,,140,145,-150,145,,,,,,,145
1,Georgij Khachatryan,M,Open,Yes,B,Raw,1986-07-23,32,125,114.4,Russia,,,,,,175,185,192.5,192.5,,,,,,,192.5
2,Vyacheslav Ustyugov,M,Open,Yes,B,Raw,1973-08-05,45,125,122.5,Russia,,,,,,180,190,-197.5,190,,,,,,,190
1,Vladimir Seleznev,M,Masters 40-44,Yes,B,Raw,1977-05-09,42,125,122.3,Russia,,,,,,180,-185,-185,180,,,,,,,180
1,Vyacheslav Ustyugov,M,Masters 45-49,Yes,B,Raw,1973-08-05,45,125,122.5,Russia,,,,,,180,190,-197.5,190,,,,,,,190
1,Denis Ogloblin,M,Masters 50-54,Yes,B,Raw,1967-05-12,52,125,123,Russia,,,,,,170,175,-180,175,,,,,,,175
1,Vladimir Belyaev,M,Masters 70-74,Yes,B,Raw,1946-07-14,72,125,118.3,Russia,,,,,,100,110,,110,,,,,,,110
1,Dmitrij Demidov,M,Juniors 20-23,Yes,B,Raw,1998-10-04,20,140,130,Russia,,,,,,170,177.5,185,185,,,,,,,185
1,Artem Filatov,M,Open,Yes,B,Raw,1986-09-26,32,140,132.2,Russia,,,,,,145,150,160,160,,,,,,,160
1,Vladimir Chubarov,M,Masters 55-59,Yes,B,Raw,1964-04-03,55,140,131,Russia,,,,,,155,160,-165,160,,,,,,,160
DQ,Anastasiya Polivanova,F,Open,Yes,B,Single-ply,1993-01-20,26,48,46.7,Russia,,,,,,-77.5,-77.5,-77.5,,,,,,,,
1,Aleksej Andreev,M,Juniors 20-23,Yes,B,Single-ply,1997-09-24,21,67.5,64.2,Russia,,,,,,145,155,162.5,162.5,-165,,,,,,162.5
1,Artem Larionov,M,Open,Yes,B,Single-ply,1978-05-14,41,75,75,Russia,,,,,,200,-205,205,205,,,,,,,205
1,Denis Dobryanskij,M,Open,Yes,B,Single-ply,1977-12-06,41,90,88.8,Russia,,,,,,205,-215,215,215,,,,,,,215
2,Dmitrij Korneev,M,Open,Yes,B,Single-ply,1987-02-15,32,90,89.4,Russia,,,,,,182.5,190,-195,190,,,,,,,190
3,Dmitrij Saunin,M,Open,Yes,B,Single-ply,1994-04-23,25,90,89,Russia,,,,,,160,170,-175,170,,,,,,,170
1,Denis Dobryanskij,M,Masters 40-44,Yes,B,Single-ply,1977-12-06,41,90,88.8,Russia,,,,,,205,-215,215,215,,,,,,,215
1,Mikhail Evstigneev,M,Open,Yes,B,Single-ply,1976-06-21,42,100,100,Russia,,,,,,245,-255,-255,245,,,,,,,245
2,Vladimir Majorov,M,Open,Yes,B,Single-ply,1987-08-14,31,100,98.3,Russia,,,,,,-210,210,-227.5,210,,,,,,,210
DQ,Andrej Ignatov,M,Open,Yes,B,Single-ply,1992-02-22,27,100,95,Russia,,,,,,-245,-245,-245,,,,,,,,
1,Mikhail Evstigneev,M,Masters 40-44,Yes,B,Single-ply,1976-06-21,42,100,100,Russia,,,,,,245,-255,-255,245,,,,,,,245
DQ,Mikhail Yarlykov,M,Open,Yes,B,Single-ply,1989-02-22,30,110,106.5,Russia,,,,,,-195,-195,-195,,,,,,,,
1,Igor' Sirotktn,M,Masters 45-49,Yes,B,Multi-ply,1970-07-29,48,90,89.1,Russia,,,,,,202.5,-210,-210,202.5,,,,,,,202.5
1,Anastasiya Vedeneeva,F,Open,Yes,D,Raw,1981-11-21,37,48,46.5,Russia,,,,,,,,,,,125,-130,-130,125,,125
1,Viktoriya Viktorova,F,Teen 15-19,Yes,D,Raw,1999-09-15,19,52,52,Russia,,,,,,,,,,,-102.5,102.5,-110,102.5,,102.5
1,Viktoriya Shagdyrova,F,Juniors 20-23,Yes,D,Raw,1998-10-09,20,52,50.9,Russia,,,,,,,,,,,95,100,-105,100,,100
1,Anna Zhuravleva,F,Open,Yes,D,Raw,1986-01-22,33,52,50.8,Russia,,,,,,,,,,,102.5,-107.5,107.5,107.5,,107.5
2,Evgeniya Romanenkova,F,Open,Yes,D,Raw,1987-11-27,31,52,49.2,Russia,,,,,,,,,,,95,97.5,100,100,,100
3,Ol'ga Mal'gina,F,Open,Yes,D,Raw,1990-12-01,28,52,50.9,Russia,,,,,,,,,,,70,75,80,80,,80
1,Larisa Demina,F,Teen 15-19,Yes,D,Raw,2001-07-27,17,56,55.6,Russia,,,,,,,,,,,130,-135,135,135,-142.5,135
1,Ol'ga Kajmachnikova,F,Juniors 20-23,Yes,D,Raw,1996-10-16,22,56,54.6,Russia,,,,,,,,,,,110,120,125,125,,125
1,Natalya Levenkova,F,Open,Yes,D,Raw,1988-09-16,30,56,55.3,Russia,,,,,,,,,,,130,137.5,-142.5,137.5,,137.5
2,Larisa Demina,F,Open,Yes,D,Raw,2001-07-27,17,56,55.6,Russia,,,,,,,,,,,130,-135,135,135,-142.5,135
3,Marina Kamyshnikova,F,Open,Yes,D,Raw,1979-02-16,40,56,55.8,Russia,,,,,,,,,,,125,132.5,-140,132.5,,132.5
4,Alina Chertkova,F,Open,Yes,D,Raw,2001-08-09,17,56,54.4,Russia,,,,,,,,,,,120,125,130,130,,130
1,Mariya Ogorodnikova,F,Open,Yes,D,Raw,1982-04-28,37,60,59.9,Russia,,,,,,,,,,,127.5,132.5,-135,132.5,,132.5
2,Alina Myasoedova,F,Open,Yes,D,Raw,1988-06-29,30,60,58.5,Russia,,,,,,,,,,,-110,115,122.5,122.5,,122.5
3,Kseniya Sukhorukova,F,Open,Yes,D,Raw,1987-10-20,31,60,60,Russia,,,,,,,,,,,112.5,-120,-130,112.5,,112.5
1,Kseniya Tikhomirova,F,Teen 15-19,Yes,D,Raw,2000-07-29,18,67.5,62,Russia,,,,,,,,,,,110,120,125,125,,125
2,Alla Batrakova,F,Teen 15-19,Yes,D,Raw,2003-01-31,16,67.5,65.8,Russia,,,,,,,,,,,105,112.5,-120,112.5,,112.5
1,Ekaterina Vasileva,F,Masters 40-44,Yes,D,Raw,1976-09-07,42,75,72.6,Russia,,,,,,,,,,,145,152.5,-155,152.5,,152.5
1,Olesya Starova,F,Teen 15-19,Yes,D,Raw,2000-09-29,18,82.5,81.1,Russia,,,,,,,,,,,125,130,132.5,132.5,,132.5
1,Nina Romanova,F,Masters 40-44,Yes,D,Raw,1978-05-19,41,82.5,81.7,Russia,,,,,,,,,,,140,145,150,150,,150
1,Natal'ya Neunyvalova,F,Open,Yes,D,Raw,1984-12-05,34,90,89.3,Russia,,,,,,,,,,,135,145,150,150,155,150
1,Aleksandr Grakhov,M,Teen 15-19,Yes,D,Raw,2001-06-12,17,67.5,66.8,Russia,,,,,,,,,,,180,-190,-195,180,,180
1,Nikolaj Yakimchuk,M,Juniors 20-23,Yes,D,Raw,1999-02-09,20,67.5,66.4,Russia,,,,,,,,,,,210,217.5,-220,217.5,,217.5
1,Mikhail Nazarenko,M,Open,Yes,D,Raw,1983-05-12,36,67.5,64.1,Russia,,,,,,,,,,,185,195,202.5,202.5,,202.5
2,Sergej Maslakov,M,Open,Yes,D,Raw,2000-06-23,18,67.5,62.8,Russia,,,,,,,,,,,130,150,-167.5,150,,150
1,Gleb Alekseev,M,Teen 15-19,Yes,D,Raw,1999-08-18,19,75,72.5,Russia,,,,,,,,,,,175,-190,-190,175,,175
2,Dmitrij Khodkin,M,Teen 15-19,Yes,D,Raw,2002-12-20,16,75,72,Russia,,,,,,,,,,,125,135,-140,135,,135
3,Nikolaj Kalachev,M,Teen 13-14,Yes,D,Raw,2004-11-27,14,75,70.5,Russia,,,,,,,,,,,100,-110,110,110,,110
1,Ivan Karangin,M,Open,Yes,D,Raw,1985-09-17,33,75,74.5,Russia,,,,,,,,,,,225,237.5,250,250,,250
2,Ilya Oparin,M,Open,Yes,D,Raw,1992-01-01,27,75,74.4,Russia,,,,,,,,,,,195,205,207.5,207.5,,207.5
1,Viktor Popov,M,Masters 65-69,Yes,D,Raw,1952-07-15,66,75,74.3,Russia,,,,,,,,,,,160,-175,185,185,-192.5,185
1,Nikolaj Vetrov,M,Masters 70-74,Yes,D,Raw,1945-09-12,73,75,73,Russia,,,,,,,,,,,135,140,145,145,,145
1,Nikita Galkin,M,Teen 15-19,Yes,D,Raw,2000-12-21,18,82.5,81.2,Russia,,,,,,,,,,,187.5,200,-220,200,,200
1,Kablan Kofi,M,Open,Yes,D,Raw,1994-03-15,25,82.5,76.3,Ivory Coast,,,,,,,,,,,-280,280,285,285,,285
2,Vladimir Fedorenko,M,Open,Yes,D,Raw,1993-03-11,26,82.5,80.6,Moldova,,,,,,,,,,,265,-270,,265,,265
3,Sergej Evseev,M,Open,Yes,D,Raw,1990-10-09,28,82.5,81.4,Russia,,,,,,,,,,,235,252.5,257.5,257.5,,257.5
4,Roman Semenov,M,Open,Yes,D,Raw,1988-07-12,30,82.5,81.4,Russia,,,,,,,,,,,210,220,230,230,,230
5,Andrej Tsepelev,M,Open,Yes,D,Raw,1987-12-22,31,82.5,82.5,Russia,,,,,,,,,,,210,220,-225,220,,220
1,Maksim Abramov,M,Masters 50-54,Yes,D,Raw,1969-02-07,50,82.5,82.3,Russia,,,,,,,,,,,192.5,200,-210,200,,200
1,Vladimir Schemelev,M,Masters 55-59,Yes,D,Raw,1961-04-02,58,82.5,75.7,Russia,,,,,,,,,,,200,210,-215,210,,210
1,Aleksandr Panteleev,M,Open,Yes,D,Raw,1991-12-01,27,90,89,Russia,,,,,,,,,,,220,242.5,-260,242.5,,242.5
1,Sergej Semenov,M,Masters 60-64,Yes,D,Raw,1959-04-01,60,90,88.7,Russia,,,,,,,,,,,190,200,-210,200,,200
1,Vladislav Surzhikov,M,Juniors 20-23,Yes,D,Raw,1999-02-10,20,100,97.6,Russia,,,,,,,,,,,190,-205,-210,190,,190
1,Roman Moiseev,M,Open,Yes,D,Raw,1990-11-01,28,100,92.8,Russia,,,,,,,,,,,250,255,-257.5,255,,255
2,Ivan Lakhanov,M,Open,Yes,D,Raw,1987-06-17,31,100,99.3,Russia,,,,,,,,,,,245,-257.5,,245,,245
3,Ivan Bogachev,M,Open,Yes,D,Raw,1978-06-08,41,100,97.3,Russia,,,,,,,,,,,200,220,230,230,,230
4,Andrej Kozlov,M,Open,Yes,D,Raw,1969-10-24,49,100,100,Russia,,,,,,,,,,,230,-240,-240,230,,230
5,Vladimir Bogrintsev,M,Open,Yes,D,Raw,1992-05-12,27,100,98.6,Russia,,,,,,,,,,,190,-200,-207.5,190,,190
1,Ivan Bogachev,M,Masters 40-44,Yes,D,Raw,1978-06-08,41,100,97.3,Russia,,,,,,,,,,,200,220,230,230,,230
1,Andrej Kozlov,M,Masters 45-49,Yes,D,Raw,1969-10-24,49,100,100,Russia,,,,,,,,,,,230,-240,-240,230,,230
2,Aleksej Kovalenko,M,Masters 45-49,Yes,D,Raw,1972-01-07,47,100,98.5,Russia,,,,,,,,,,,190,205,-217.5,205,,205
1,Igor Usachev,M,Masters 50-54,Yes,D,Raw,1965-06-06,54,100,94.2,Russia,,,,,,,,,,,200,210,215,215,,215
1,Dmitrij Luchina,M,Open,Yes,D,Raw,1984-10-20,34,110,101.8,Russia,,,,,,,,,,,250,260,-265,260,,260
2,Sergej Kholodov,M,Open,Yes,D,Raw,1989-07-08,29,110,107.8,Russia,,,,,,,,,,,240,-265,-270,240,,240
1,Vladimir Stepanov,M,Masters 45-49,Yes,D,Raw,1970-09-15,48,110,105.5,Russia,,,,,,,,,,,235,245,255,255,,255
2,Mikhail Rusakov,M,Masters 45-49,Yes,D,Raw,1974-03-02,45,110,105.2,Russia,,,,,,,,,,,235,-245,-245,235,,235
3,Artem Vesnin,M,Masters 45-49,Yes,D,Raw,1971-09-08,47,110,105.5,Russia,,,,,,,,,,,160,-170,-170,160,,160
1,Konstantin Samarskij,M,Masters 55-59,Yes,D,Raw,1962-01-06,57,110,105.8,Russia,,,,,,,,,,,200,210,215,215,,215
1,Mikhail Baranov,M,Masters 60-64,Yes,D,Raw,1957-03-02,62,110,106.9,Russia,,,,,,,,,,,207.5,225,235,235,,235
1,Vadim Samsonov,M,Masters 40-44,Yes,D,Single-ply,1974-12-05,44,125,124.5,Russia,,,,,,,,,,,250,255,260,260,,260
