Tested,Equipment,Place,Name,Division,BirthYear,Country,BodyweightKg,Squat1Kg,Squat2Kg,Squat3Kg,Best3SquatKg,Bench1Kg,Bench2Kg,Bench3Kg,Best3BenchKg,Deadlift1Kg,Deadlift2Kg,Deadlift3Kg,Best3DeadliftKg,TotalKg,WeightClassKg,Sex,CyrillicName,Event,Bench4Kg
Yes,Multi-ply,1,Anastasiya Tensina,Amateur Juniors 20-23,1991,Russia,52,110,125,132.5,132.5,55,-60,-60,55,-100,100,,100,287.5,52,F,Анастасия Тенсина,SBD,
Yes,Multi-ply,1,Tatyana Telegina,Amateur Masters 50-54,1961,Russia,52,-110,120,130,130,60,65,-67.5,65,112.5,122.5,,122.5,317.5,52,F,Татьяна Телегина,SBD,
Yes,Multi-ply,1,Anastasiya Noskova,Amateur Open,1984,Russia,55.4,-115,120,-130,120,50,-55,,50,122.5,127.5,-132.5,127.5,297.5,56,F,Анастасия Носкова,SBD,
Yes,Multi-ply,1,Irina Artsybasheva,Amateur Open,1976,Russia,55.2,90,100,-107.5,100,55,60,62.5,62.5,100,110,117.5,117.5,280,56,F,Ирина Арцыбашева,SBD,
Yes,Multi-ply,DQ,Mariya Zaigraeva,Amateur Open,1976,Russia,67,160,170,-175,170,-80,-80,-80,,,,,,,67.5,F,Мария Заиграева,SBD,
Yes,Multi-ply,1,Aleksey Kislukhin,Amateur Teen 18-19,1992,Russia,59.2,-150,150,160,160,75,90,95,95,140,-150,150,150,405,60,M,Алексей Кислухин,SBD,
Yes,Multi-ply,1,Artem Shkirdin,Amateur Teen 16-17,1995,Russia,67,200,210,-215,210,-125,125,-130,125,190,200,-215,200,535,67.5,M,Артем Шкирдин,SBD,
Yes,Multi-ply,1,Nikita Kobzar,Amateur Juniors 20-23,1992,Russia,65.7,-180,-190,190,190,110,120,-125,120,170,200,-215,200,510,67.5,M,Никита Кобзарь,SBD,
Yes,Multi-ply,2,Andrey Tuzov,Amateur Juniors 20-23,1991,Russia,67.5,180,200,-205,200,-120,120,-127.5,120,140,155,-162.5,155,475,67.5,M,Андрей Тузов,SBD,
Yes,Multi-ply,3,Arkadiy Agafonov,Amateur Juniors 20-23,1989,Russia,63.9,-145,-145,145,145,-80,-80,85,85,160,175,190,190,420,67.5,M,Аркадий Агафонов,SBD,
Yes,Multi-ply,1,Roman Raspopin,Amateur Teen 16-17,1996,Russia,73.9,215,235,250,250,130,137.5,-140,137.5,200,210,230,230,617.5,75,M,Роман Распопин,SBD,
Yes,Multi-ply,1,Stepan Pakhomov,Amateur Juniors 20-23,1991,Russia,73.6,215,-235,235,235,115,120,-125,120,200,217.5,-225,217.5,572.5,75,M,Степан Пахомов,SBD,
Yes,Multi-ply,2,Dzhamshed Achilov,Amateur Juniors 20-23,1990,Russia,73.9,190,205,215,215,130,140,145,145,-190,200,-215,200,560,75,M,Джамшед Ачилов,SBD,
Yes,Multi-ply,3,Andrey Ponikarovskiy,Amateur Juniors 20-23,1990,Russia,69.9,-185,-187.5,200,200,125,-130,-130,125,200,215,222.5,222.5,547.5,75,M,Андрей Поникаровский,SBD,
Yes,Multi-ply,1,Kirill Shein,Amateur Teen 18-19,1994,Russia,81.6,185,200,220,220,120,-130,-130,120,170,190,-200,190,530,82.5,M,Кирилл Шеин,SBD,
Yes,Multi-ply,1,Sergey Levin,Amateur Juniors 20-23,1991,Russia,81.3,-220,-220,220,220,145,160,170,170,190,-220,220,220,610,82.5,M,Сергей Левин,SBD,
Yes,Multi-ply,2,Valeriy Sadreev,Amateur Juniors 20-23,1990,Russia,81.2,180,190,-205,190,90,100,-105,100,150,160,170,170,460,82.5,M,Валерий Садреев,SBD,
Yes,Multi-ply,1,Egor Varvarinskiy,Amateur Open,1976,Russia,81.9,-220,220,230,230,140,145,-150,145,-220,220,235,235,610,82.5,M,Егор Варваринский,SBD,
Yes,Multi-ply,2,Dmitriy Kaschavtsev,Amateur Open,1981,Russia,82.2,180,200,210,210,145,152.5,155,155,200,-220,220,220,585,82.5,M,Дмитрий Кащавцев,SBD,
Yes,Multi-ply,3,Sergey Naglovskiy,Amateur Open,1986,Russia,80.7,180,200,210,210,120,130,-140,130,150,170,-185,170,510,82.5,M,Сергей Нагловский,SBD,
Yes,Multi-ply,1,Artem Kuznetsov,Amateur Teen 16-17,1995,Russia,88.3,-190,-190,190,190,-120,125,-145,125,200,-215,-215,200,515,90,M,Артем Кузнецов,SBD,
Yes,Multi-ply,1,Sergey Vorm,Amateur Open,1984,Russia,87.1,-260,260,270,270,155,-160,160,160,212.5,220,,220,650,90,M,Сергей Ворм,SBD,
Yes,Multi-ply,2,Evgeniy Svoboda,Amateur Open,1972,Russia,88.8,225,-245,-245,225,165,-175,175,175,200,230,240,240,640,90,M,Евгений Свобода,SBD,
Yes,Multi-ply,3,Sergey Galanin,Amateur Open,1984,Russia,87.3,210,230,245,245,160,-165,,160,210,222.5,-237.5,222.5,627.5,90,M,Сергей Галанин,SBD,
Yes,Multi-ply,4,Aleksey Kovalenko,Amateur Open,1985,Russia,89.1,-195,195,-210,195,140,150,-155,150,175,-195,-195,175,520,90,M,Алексей Коваленко,SBD,
Yes,Multi-ply,1,Evgeniy Svoboda,Amateur Masters 40-44,1972,Russia,88.8,225,-245,-245,225,165,-175,175,175,200,230,240,240,640,90,M,Евгений Свобода,SBD,
Yes,Multi-ply,1,Mikhail Levchenko #1,Amateur Masters 50-54,1960,Russia,87,180,-195,-195,180,120,135,-142.5,135,180,190,200,200,515,90,M,Михаил Левченко,SBD,
Yes,Multi-ply,1,Igor Miroshnichenko,Amateur Juniors 20-23,1988,Russia,93.6,290,305,-310,305,200,210,220,220,260,280,-300,280,805,100,M,Игорь Мирошниченко,SBD,
Yes,Multi-ply,2,Daniil Fomenko,Amateur Juniors 20-23,1992,Russia,96,260,-280,280,280,-170,170,-180,170,230,257.5,270,270,720,100,M,Даниил Фоменко,SBD,
Yes,Multi-ply,1,Aleksandr Kalinin,Amateur Open,1975,Russia,97.6,-195,195,-205,195,135,145,150,150,190,215,225,225,570,100,M,Александр Калинин,SBD,
Yes,Multi-ply,2,Sarmen Atanyan,Amateur Open,1986,Russia,91.7,150,180,-220,180,100,,,100,-150,150,210,210,490,100,M,Сармен Атанян,SBD,
Yes,Raw,1,Natalya Konchakova,Amateur Open,1977,Russia,48,90,-100,100,100,45,52.5,-55,52.5,110,120,-130,120,272.5,48,F,Наталья Кончакова,SBD,
Yes,Raw,2,Tatyana Chechkina,Amateur Open,1986,Russia,47.9,90,95,-100,95,50,52.5,-55,52.5,90,97.5,100,100,247.5,48,F,Татьяна Чечкина,SBD,
Yes,Raw,3,Oksana Bilenko,Amateur Open,1987,Russia,47.2,50,55,60,60,30,35,-37.5,35,60,70,75,75,170,48,F,Оксана Биленко,SBD,
Yes,Raw,DQ,Anna Ishkova,Amateur Open,1985,Scotland,46.5,-85,-85,-85,,-50,,,,,,,,,48,F,,SBD,
Yes,Raw,1,Daniya Tukhvatullina,Amateur Teen 16-17,1996,Russia,56,-70,70,-80,70,-57.5,57.5,-62.5,57.5,-107.5,107.5,,107.5,235,56,F,Дания Тухватуллина,SBD,
Yes,Raw,1,Natalya Tolkacheva,Amateur Open,1987,Russia,55.6,95,105,-110,105,-67.5,-67.5,67.5,67.5,110,-120,120,120,292.5,56,F,Наталья Толкачева,SBD,
Yes,Raw,2,Marina Nikitina,Amateur Open,1976,Russia,54.5,80,85,87.5,87.5,50,-52.5,-52.5,50,100,-107.5,-107.5,100,237.5,56,F,Марина Никитина,SBD,
Yes,Raw,3,Daniya Tukhvatullina,Amateur Open,1996,Russia,56,-70,70,-80,70,-57.5,57.5,-62.5,57.5,-107.5,107.5,,107.5,235,56,F,Дания Тухватуллина,SBD,
Yes,Raw,4,Yuliya Grigoryeva,Amateur Open,1983,Russia,53.7,-60,60,65,65,35,37.5,40,40,60,70,80,80,185,56,F,Юлия Григорьева,SBD,
Yes,Raw,1,Darya Medvedeva,Amateur Juniors 20-23,1990,Russia,59.2,70,75,85,85,40,45,-47.5,45,70,80,100,100,230,60,F,Дарья Медведева,SBD,
Yes,Raw,1,Svetlana Ilyasova,Amateur Open,1975,Russia,59.7,40,47.5,-60,47.5,45,-50,-50,45,85,95,100,100,192.5,60,F,Светлана Ильясова,SBD,
Yes,Raw,1,Larisa Popova,Amateur Open,1979,Russia,60.1,65,-75,75,75,-40,40,-42.5,40,80,90,95,95,210,67.5,F,Лариса Попова,SBD,
Yes,Raw,2,Larisa Krikun,Amateur Open,1974,Russia,66.5,65,-75,75,75,42.5,-47.5,-47.5,42.5,80,85,90,90,207.5,67.5,F,Лариса Крикун,SBD,
Yes,Raw,1,Ekaterina Myasnikova,Amateur Open,1986,Russia,74,120,125,130,130,70,-75,-75,70,165,170,175,175,375,75,F,Екатерина Мясникова,SBD,
Yes,Raw,2,Elena Zherdeva,Amateur Open,1982,Russia,71,100,110,-120,110,55,60,-62.5,60,100,110,120,120,290,75,F,Елена Жердева,SBD,
Yes,Raw,1,Vladimir Zhuravlev,Amateur Masters 70-74,1942,Russia,51.1,90,-100,105,105,75,80,-82.5,80,120,130,135,135,320,52,M,Владимир Журавлев,SBD,
Yes,Raw,1,Maksim Kutyavin,Amateur Juniors 20-23,1988,Russia,54.4,90,-100,-100,90,65,67.5,72.5,72.5,-120,120,140,140,302.5,56,M,Максим Кутявин,SBD,
Yes,Raw,1,Vasiliy Saschenko,Amateur Teen 16-17,1994,Russia,58.1,90,-100,-100,90,60,-65,-65,60,100,105,-115,105,255,60,M,Василий Сащенко,SBD,
Yes,Raw,1,Nikolay Larionov,Amateur Open,1987,Russia,57.2,-135,135,145,145,110,115,,115,190,200,210,210,470,60,M,Николай Ларионов,SBD,
Yes,Raw,1,Ilya Kurbatov,Amateur Teen 16-17,1994,Russia,64.9,150,-155,-155,150,102.5,105,-107.5,105,170,185,,185,440,67.5,M,Илья Курбатов,SBD,
Yes,Raw,2,Pavel Kozlov,Amateur Teen 16-17,1995,Russia,67,110,117.5,122.5,122.5,82.5,-87.5,-90,82.5,155,-165,-165,155,360,67.5,M,Павел Козлов,SBD,
Yes,Raw,1,Aleksey Samoylov,Amateur Open,1982,Russia,67.5,140,150,162.5,162.5,120,125,132.5,132.5,210,220,-230,220,515,67.5,M,Алексей Самойлов,SBD,
Yes,Raw,2,Sergey Korshunov,Amateur Open,1988,Russia,66.4,145,-150,-150,145,102.5,-110,-110,102.5,150,160,170,170,417.5,67.5,M,Сергей Коршунов,SBD,
Yes,Raw,1,Vladislav Minin,Amateur Teen 16-17,1995,Russia,73.7,130,137.5,-142.5,137.5,80,85,87.5,87.5,135,145,150,150,375,75,M,Владислав Минин,SBD,
Yes,Raw,2,Oskar Akkerman,Amateur Teen 16-17,1995,Russia,75,110,-125,-125,110,90,100,-105,100,140,-160,-160,140,350,75,M,Оскар Аккерман,SBD,
Yes,Raw,1,Aleksey Zabolotskiy,Amateur Teen 18-19,1993,Russia,75,135,150,160,160,100,112.5,117.5,117.5,150,165,175,175,452.5,75,M,Алексей Заболоцкий,SBD,
Yes,Raw,1,Georgiy Vershinin,Amateur Juniors 20-23,1988,Russia,73.8,180,190,200,200,130,135,137.5,137.5,210,220,230,230,567.5,75,M,Георгий Вершинин,SBD,
Yes,Raw,2,Vitaliy Bolatbaev,Amateur Juniors 20-23,1989,Russia,72.7,-140,150,160,160,-100,100,105,105,150,160,170,170,435,75,M,Виталий Болатбаев,SBD,
Yes,Raw,1,Akmal Matkarimov,Amateur Open,1987,Kazakhstan,75,175,185,190,190,115,-122.5,-122.5,115,220,227.5,-235,227.5,532.5,75,M,,SBD,
Yes,Raw,2,Aleksey Palkin,Amateur Open,1986,Russia,75,170,-180,-180,170,135,140,-145,140,200,210,-222.5,210,520,75,M,Алексей Палкин,SBD,
Yes,Raw,3,Vitaliy Tsarev,Amateur Open,1975,Russia,73.6,160,170,175,175,125,130,132.5,132.5,170,180,190,190,497.5,75,M,Виталий Царев,SBD,
Yes,Raw,4,Konstantin Polyakov,Amateur Open,1976,Russia,70.8,130,140,150,150,90,100,105,105,190,205,212.5,212.5,467.5,75,M,Константин Поляков,SBD,
Yes,Raw,1,Valeriy Khomenko,Amateur Masters 60-64,1951,Russia,73.2,-130,130,135,135,60,65,-70,65,160,170,180,180,380,75,M,Валерий Хоменко,SBD,
Yes,Raw,2,Nikolay Zakharov,Amateur Masters 60-64,1951,Russia,72.7,110,-120,-120,110,60,65,-70,65,140,150,160,160,335,75,M,Николай Захаров,SBD,
Yes,Raw,1,Anton Belosvetov,Amateur Teen 16-17,1995,Russia,79.3,150,160,-170,160,100,-110,110,110,170,185,195,195,465,82.5,M,Антон Белосветов,SBD,
Yes,Raw,1,Igor Leonidov,Amateur Teen 18-19,1993,Russia,78,120,-130,140,140,85,-100,100,100,-150,150,165,165,405,82.5,M,Игорь Леонидов,SBD,
Yes,Raw,1,Aleksandr Druzhinin,Amateur Juniors 20-23,1989,Russia,81.3,165,185,195,195,115,125,-135,125,200,210,225,225,545,82.5,M,Александр Дружинин,SBD,
Yes,Raw,2,Aleksey Shoveynikov,Amateur Juniors 20-23,1989,Russia,82.4,175,185,190,190,120,130,-135,130,210,225,-230,225,545,82.5,M,Алексей Шовейников,SBD,
Yes,Raw,3,Vyacheslav Alekseev,Amateur Juniors 20-23,1990,Russia,80.2,180,190,195,195,110,-120,-120,110,190,215,-225,215,520,82.5,M,Вячеслав Алексеев,SBD,
Yes,Raw,1,Nikita Shustikov,Amateur Open,1985,Russia,80.1,205,215,-225,215,-155,155,-162.5,155,240,260,-280,260,630,82.5,M,Никита Шустиков,SBD,
Yes,Raw,2,Aleksandr Kuchin,Amateur Open,1987,Russia,80.8,180,190,195,195,120,130,135,135,200,220,-237.5,220,550,82.5,M,Александр Кучин,SBD,
Yes,Raw,3,Aleksandr Druzhinin,Amateur Open,1989,Russia,81.3,165,185,195,195,115,125,-135,125,200,210,225,225,545,82.5,M,Александр Дружинин,SBD,
Yes,Raw,4,Aleksey Shoveynikov,Amateur Open,1989,Russia,82.4,175,185,190,190,120,130,-135,130,210,225,-230,225,545,82.5,M,Алексей Шовейников,SBD,
Yes,Raw,5,Aleksey Vinyukov,Amateur Open,1973,Russia,76.9,170,-180,-180,170,120,-125,-125,120,180,190,205,205,495,82.5,M,Алексей Винюков,SBD,
Yes,Raw,1,Aleksandr Kornachev,Amateur Masters 50-54,1958,Russia,81,100,115,125,125,-70,-90,90,90,130,150,-160,150,365,82.5,M,Александр Корначев,SBD,
Yes,Raw,DQ,Viktor Karasev,Amateur Masters 55-59,1952,Russia,81.9,-130,,,,,,,,,,,,,82.5,M,Виктор Карасев,SBD,
Yes,Raw,1,Daniil Pereslavtsev,Amateur Teen 16-17,1996,Russia,86.4,130,145,155,155,100,110,-115,110,170,185,190,190,455,90,M,Даниил Переславцев,SBD,
Yes,Raw,1,Maksim Kondakov,Amateur Teen 18-19,1994,Russia,87.8,150,160,-170,160,100,-110,120,120,200,-210,-220,200,480,90,M,Максим Кондаков,SBD,
Yes,Raw,1,Anatoliy Doletskiy,Amateur Open,1984,Russia,89.5,200,210,222.5,222.5,160,165,-170,165,230,240,-250,240,627.5,90,M,Анатолий Долецкий,SBD,
Yes,Raw,2,Evgeniy Pakhomov,Amateur Open,1983,Russia,88.4,160,170,-175,170,125,130,-135,130,180,200,215,215,515,90,M,Евгений Пахомов,SBD,
Yes,Raw,1,Evgeniy Svoboda,Amateur Masters 40-44,1972,Russia,87.5,150,170,,170,135,142.5,,142.5,170,200,,200,512.5,90,M,Евгений Свобода,SBD,
Yes,Raw,1,Aleksandr Pushkarev,Amateur Open,1987,Russia,97.9,170,200,205,205,130,-142.5,-142.5,130,190,200,220,220,555,100,M,Александр Пушкарев,SBD,
Yes,Raw,2,Konstantin Panchenko,Amateur Open,1980,Russia,96.3,170,-180,180,180,130,-140,-140,130,180,190,200,200,510,100,M,Константин Панченко,SBD,
Yes,Raw,3,Vitaliy Ivanin,Amateur Open,1980,Russia,97.7,-150,150,165,165,115,-125,-125,115,180,190,200,200,480,100,M,Виталий Иванин,SBD,
Yes,Raw,1,Andrey Sobolev,Amateur Masters 40-44,1968,Russia,91.5,-120,130,150,150,100,110,-115,110,140,170,180,180,440,100,M,Андрей Соболев,SBD,
Yes,Raw,1,Oleg Smolin,Amateur Masters 45-49,1963,Russia,96.8,170,180,190,190,135,142.5,145,145,180,190,200,200,535,100,M,Олег Смолин,SBD,
Yes,Raw,1,Aleksandr Storozhenko,Amateur Open,1982,Russia,106.1,-230,-230,230,230,160,165,-170,165,260,275,,275,670,110,M,Александр Стороженко,SBD,
Yes,Raw,2,Ilya Gusev,Amateur Open,1982,Russia,103.8,190,200,210,210,147.5,155,-160,155,215,-225,-225,215,580,110,M,Илья Гусев,SBD,
Yes,Raw,1,Oleg Zherdev,Amateur Masters 40-44,1970,Russia,104.1,180,190,200,200,140,150,160,160,180,200,215,215,575,110,M,Олег Жердев,SBD,
Yes,Raw,2,Andrey Efimov,Amateur Masters 40-44,1970,Russia,108.2,180,-190,190,190,125,130,-135,130,190,200,,200,520,110,M,Андрей Ефимов,SBD,
Yes,Raw,1,Ivan Tsimbal,Amateur Teen 16-17,1996,Russia,124.7,160,175,190,190,90,100,105,105,160,175,-185,175,470,125,M,Иван Цимбал,SBD,
Yes,Raw,1,Sergey Mazanov,Amateur Open,1975,Russia,110.4,200,220,230,230,140,150,162.5,162.5,240,270,-290,270,662.5,125,M,Сергей Мазанов,SBD,
Yes,Raw,1,Maksim Lazarenko,Amateur Teen 16-17,1995,Russia,127.9,-105,115,125,125,80,87.5,90,90,125,135,145,145,360,140,M,Максим Лазаренко,SBD,
No,Multi-ply,DQ,Svetlana Ezhenkova,Pro Juniors 20-23,1991,Russia,47.9,-100,100,,100,-50,-50,-50,,,,,,,48,F,Светлана Еженкова,SBD,
No,Multi-ply,1,Yuliya Sergeeva,Pro Teen 16-17,1995,Russia,51.7,130,-140,140,140,-75,-75,75,75,130,142.5,-150,142.5,357.5,52,F,Юлия Сергеева,SBD,
No,Multi-ply,1,Yuliya Sergeeva,Pro Open,1995,Russia,51.7,130,-140,140,140,-75,-75,75,75,130,142.5,-150,142.5,357.5,52,F,Юлия Сергеева,SBD,
No,Multi-ply,1,Anastasiya Kozhemyako,Pro Juniors 20-23,1991,Russia,66.9,130,145,-150,145,60,-75,-75,60,110,120,130,130,335,67.5,F,Анастасия Кожемяко,SBD,
No,Multi-ply,1,Egor Kiselev,Pro Teen 16-17,1995,Russia,59.9,180,195,-202.5,195,-105,105,-110,105,-185,185,-212.5,185,485,60,M,Егор Киселев,SBD,
No,Multi-ply,1,Daulet Aubakirov,Pro Open,1974,Kazakhstan,59.5,-250,250,-270,250,130,-140,140,140,190,200,-210,200,590,60,M,,SBD,
No,Multi-ply,1,Pavel Yevtushenko,Pro Juniors 20-23,1992,Russia,67,215,225,230,230,115,120,-125,120,210,220,-230,220,570,67.5,M,Павел Евтушенко,SBD,
No,Multi-ply,DQ,Anatoliy Sukhachev,Pro Teen 18-19,1992,Russia,74.2,-265,-270,-270,,,,,,,,,,,75,M,Анатолий Сухачев,SBD,
No,Multi-ply,1,Sergey Fedoseev,Pro Open,1982,Russia,74.4,-185,-185,185,185,125,-135,137.5,137.5,160,180,-190,180,502.5,75,M,Сергей Федосеев,SBD,
No,Multi-ply,1,Andrey Ivankov,Pro Juniors 20-23,1989,Russia,78,150,170,-182.5,170,100,120,-140,120,175,195,-205,195,485,82.5,M,Андрей Иванков,SBD,
No,Multi-ply,DQ,Dmitriy Ovcharov,Pro Juniors 20-23,1989,Russia,82.5,-275,-275,-275,,,,,,,,,,,82.5,M,Дмитрий Овчаров,SBD,
No,Multi-ply,1,Grigoriy Kostenko,Pro Open,1986,Russia,82.5,260,280,290,290,140,150,-152.5,150,230,245,-255,245,685,82.5,M,Григорий Костенко,SBD,
No,Multi-ply,2,Andrey Ivankov,Pro Open,1989,Russia,78,150,170,-182.5,170,100,120,-140,120,175,195,-205,195,485,82.5,M,Андрей Иванков,SBD,
No,Multi-ply,1,Vladislav Filipovich,Pro Juniors 20-23,1991,Russia,87.6,320,340,350,350,200,215,-225,215,-270,290,300,300,865,90,M,Владислав Филипович,SBD,
No,Multi-ply,2,Dmitriy Yuskov,Pro Juniors 20-23,1989,Russia,90,280,295,305,305,170,185,-200,185,240,260,-310,260,750,90,M,Дмитрий Юськов,SBD,
No,Multi-ply,1,Vladislav Filipovich,Pro Open,1991,Russia,87.6,320,340,350,350,200,215,-225,215,-270,290,300,300,865,90,M,Владислав Филипович,SBD,
No,Multi-ply,2,Evgeniy Doroshenko,Pro Open,1983,Russia,85.4,270,280,300,300,-190,190,-200,190,260,270,280,280,770,90,M,Евгений Дорошенко,SBD,
No,Multi-ply,3,Dmitriy Yuskov,Pro Open,1989,Russia,90,280,295,305,305,170,185,-200,185,240,260,-310,260,750,90,M,Дмитрий Юськов,SBD,
No,Multi-ply,1,Mikhail Komarov,Pro Juniors 20-23,1991,Russia,95.6,260,-270,-270,260,130,140,-145,140,220,230,240,240,640,100,M,Михаил Комаров,SBD,
No,Multi-ply,2,Stanislav Shishkin,Pro Juniors 20-23,1991,Russia,94.9,200,210,220,220,120,130,-140,130,190,210,-230,210,560,100,M,Станислав Шишкин,SBD,
No,Multi-ply,1,Oleg Filippovich,Pro Open,1970,Russia,98.2,300,320,,320,200,210,215,215,260,280,,280,815,100,M,Олег Филиппович,SBD,
No,Multi-ply,2,Maksim Polyakov,Pro Open,1986,Russia,99.1,-270,270,290,290,190,-200,-200,190,230,240,260,260,740,100,M,Максим Поляков,SBD,
No,Multi-ply,3,Mikhail Komarov,Pro Open,1991,Russia,95.6,260,-270,-270,260,130,140,-145,140,220,230,240,240,640,100,M,Михаил Комаров,SBD,
No,Multi-ply,1,Oleg Filippovich,Pro Masters 40-44,1970,Russia,98.2,300,320,,320,200,210,215,215,260,280,,280,815,100,M,Олег Филиппович,SBD,
No,Multi-ply,DQ,Andrey Beloslubtsev,Pro Juniors 20-23,1992,Russia,106.4,-330,-330,-330,,,,,,,,,,,110,M,Андрей Белослубцев,SBD,
No,Multi-ply,1,Yuriy Dmitrenko,Pro Open,1983,Russia,108,290,310,320,320,-185,185,205,205,250,-275,-275,250,775,110,M,Юрий Дмитренко,SBD,
No,Multi-ply,2,Ilya Maltsev,Pro Open,1978,Russia,100.3,270,,,270,170,180,190,190,220,240,-260,240,700,110,M,Илья Мальцев,SBD,
No,Multi-ply,DQ,Andrey Beloslubtsev,Pro Open,1992,Russia,106.4,-330,-330,-330,,,,,,,,,,,110,M,Андрей Белослубцев,SBD,
No,Multi-ply,1,Kirill Borodinov,Pro Teen 18-19,1993,Kazakhstan,117.6,255,270,-280,270,170,185,-200,185,260,-280,-280,260,715,125,M,,SBD,
No,Multi-ply,DQ,Vladimir Polivanov,Pro Open,1963,Russia,116.5,240,255,265,265,-205,-205,,,,,,,,125,M,Владимир Поливанов,SBD,
No,Multi-ply,DQ,Sergey Blokh,Pro Open,1973,Russia,115.4,-350,-350,-350,,,,,,,,,,,125,M,Сергей Блох,SBD,
No,Multi-ply,DQ,Vladimir Polivanov,Pro Masters 45-49,1963,Russia,116.5,240,255,265,265,-205,-205,,,,,,,,125,M,Владимир Поливанов,SBD,
No,Multi-ply,1,Vyacheslav Eskov,Pro Open,1977,Russia,128.5,-350,-350,350,350,190,200,-220,200,-280,280,-300,280,830,140,M,Вячеслав Еськов,SBD,
No,Raw,1,Sabina Ermilova,Pro Youth,2002,Russia,33.1,20,25,30,30,20,-22.5,22.5,22.5,40,45,50,50,102.5,44,F,Сабина Ермилова,SBD,
No,Raw,1,Darya Markova,Pro Teen 16-17,1995,Russia,47.5,95,-105,-105,95,65,-70,70,70,-100,100,-105,100,265,48,F,Дарья Маркова,SBD,
No,Raw,1,Darya Markova,Pro Open,1995,Russia,47.5,95,-105,-105,95,65,-70,70,70,-100,100,-105,100,265,48,F,Дарья Маркова,SBD,
No,Raw,1,Anfisa Pelevina,Pro Juniors 20-23,1992,Russia,71.7,80,-90,-90,80,40,45,-50,45,110,115,120,120,245,75,F,Анфиса Пелевина,SBD,
No,Raw,1,Olga Gerasimyuk,Pro Teen 16-17,1996,Russia,75.8,105,115,-120,115,57.5,62.5,-65,62.5,130,140,150,150,327.5,82.5,F,Ольга Герасимюк,SBD,
No,Raw,1,Olga Gerasimyuk,Pro Open,1996,Russia,75.8,105,115,-120,115,57.5,62.5,-65,62.5,130,140,150,150,327.5,82.5,F,Ольга Герасимюк,SBD,
No,Raw,1,Daulet Aubakirov,Pro Open,1974,Kazakhstan,59.6,190,200,-205,200,110,115,-117.5,115,190,-200,-200,190,505,60,M,,SBD,
No,Raw,1,Vladimir Sviderskiy,Pro Masters 60-64,1951,Russia,66.9,120,125,130,130,82.5,87.5,90,90,130,137.5,145,145,365,67.5,M,Владимир Свидерский,SBD,
No,Raw,1,Maksim Polyakov,Pro Teen 18-19,1994,Russia,69.3,-150,-150,150,150,90,-95,-100,90,180,185,190,190,430,75,M,Максим Поляков,SBD,
No,Raw,1,Gennadiy Chuldenko,Pro Masters 60-64,1948,Russia,75,160,170,175,175,40,50,55,55,190,210,220,220,450,75,M,Геннадий Чулденко,SBD,
No,Raw,1,Sergey Kurilov,Pro Teen 16-17,1995,Russia,81.7,175,185,-195,185,140,145,-150,145,205,215,-225,215,545,82.5,M,Сергей Курилов,SBD,
No,Raw,1,Vyacheslav Yurov,Pro Juniors 20-23,1991,Russia,81.4,220,-240,-240,220,170,180,-190,180,250,-265,,250,650,82.5,M,Вячеслав Юров,SBD,
No,Raw,2,Andrey Ivankov,Pro Juniors 20-23,1989,Russia,78.2,140,-145,145,145,-100,105,110,110,150,160,185,185,440,82.5,M,Андрей Иванков,SBD,
No,Raw,1,Sergei Shevchenko,Pro Open,1984,Kazakhstan,82.5,225,230,-240,230,170,180,185,185,250,260,265,265,680,82.5,M,,SBD,
No,Raw,2,Vyacheslav Yurov,Pro Open,1991,Russia,81.4,220,-240,-240,220,170,180,-190,180,250,-265,,250,650,82.5,M,Вячеслав Юров,SBD,
No,Raw,3,Denis Grishin,Pro Open,1986,Russia,78.2,215,-225,225,225,125,-135,,125,240,250,-260,250,600,82.5,M,Денис Гришин,SBD,
No,Raw,4,Artem Onokhin,Pro Open,1987,Russia,76.4,150,165,180,180,115,125,132.5,132.5,150,175,187.5,187.5,500,82.5,M,Артем Онохин,SBD,
No,Raw,1,Nikolay Platonov,Pro Masters 60-64,1950,Russia,79.5,160,170,180,180,120,127.5,130,130,200,220,230,230,540,82.5,M,Николай Платонов,SBD,
No,Raw,1,Denis Sergeev,Pro Juniors 20-23,1991,Russia,85.7,-145,145,160,160,130,140,-145,140,170,195,212.5,212.5,512.5,90,M,Денис Сергеев,SBD,
No,Raw,1,Pavel Gavrilenko,Pro Open,1980,Kazakhstan,89.2,220,-230,-240,220,-170,-180,180,180,250,270,280,280,680,90,M,,SBD,
No,Raw,2,Mikhail Ryzhkin,Pro Open,1984,Russia,90,200,215,220,220,-165,165,170,170,230,-257.5,-257.5,230,620,90,M,Михаил Рыжкин,SBD,
No,Raw,1,Vladimir Sadreev,Pro Masters 40-44,1969,Russia,86,165,175,185,185,135,140,,140,175,185,195,195,520,90,M,Владимир Садреев,SBD,
No,Raw,DQ,Nikita Demidenko,Pro Juniors 20-23,1991,Russia,97.1,190,-200,-200,190,160,-165,-172.5,160,-240,-240,-240,,,100,M,Никита Демиденко,SBD,
No,Raw,1,Roman Grischenko,Pro Open,1985,Russia,94.4,210,-220,225,225,160,175,-180,175,250,270,290,290,690,100,M,Роман Грищенко,SBD,
No,Raw,2,Aleksandr Merkuryev,Pro Open,1985,Russia,99.5,220,230,237.5,237.5,170,-175,175,175,260,270,-277.5,270,682.5,100,M,Александр Меркурьев,SBD,
No,Raw,3,Anatoliy Eskin,Pro Open,1981,Russia,100,210,220,230,230,160,170,180,180,210,220,230,230,640,100,M,Анатолий Еськин,SBD,
No,Raw,4,Igor Lepikhov,Pro Open,1976,Russia,97.1,180,195,-205,195,155,-165,165,165,200,215,225,225,585,100,M,Игорь Лепихов,SBD,
No,Raw,DQ,Nikita Demidenko,Pro Open,1991,Russia,97.1,190,-200,-200,190,160,-165,-172.5,160,-240,-240,-240,,,100,M,Никита Демиденко,SBD,
No,Raw,1,Aleksandr Medvedev,Pro Masters 45-49,1967,Russia,99,180,190,200,200,120,130,140,140,200,220,250,250,590,100,M,Александр Медведев,SBD,
No,Raw,1,Aleksandr Pozyabkin,Pro Masters 50-54,1958,Russia,91.5,160,170,-175,170,-105,-105,105,105,170,180,190,190,465,100,M,Александр Позябкин,SBD,
No,Raw,1,Andrei Beloslubtsev,Pro Juniors 20-23,1992,Kazakhstan,105.2,-240,240,250,250,130,-145,-145,130,-230,230,-260,230,610,110,M,,SBD,
No,Raw,1,Maxim Pyatnitskiy,Pro Open,1984,Russia,107.4,245,255,-260,255,175,180,182.5,182.5,265,272.5,280,280,717.5,110,M,Максим Пятницкий,SBD,
No,Raw,2,Daniil Tarasov,Pro Open,1988,Russia,109,210,225,235,235,160,170,,170,200,220,,220,625,110,M,Даниил Тарасов,SBD,
No,Raw,1,Dmitriy Lalo,Pro Masters 40-44,1970,Russia,103.6,190,200,210,210,170,180,-185,180,190,210,230,230,620,110,M,Дмитрий Лало,SBD,
No,Raw,1,Vadim Kulikov,Pro Masters 45-49,1967,Russia,104.3,250,260,275,275,155,-162.5,162.5,162.5,280,290,297.5,297.5,735,110,M,Вадим Куликов,SBD,
No,Raw,2,Valeriy Gorbunov,Pro Masters 45-49,1965,Russia,106,230,245,-255,245,140,150,157.5,157.5,230,255,-270,255,657.5,110,M,Валерий Горбунов,SBD,
No,Raw,1,Sergey Farafontyev,Pro Open,1984,Russia,120.5,250,265,270,270,170,180,185,185,280,300,-307.5,300,755,125,M,Сергей Фарафонтьев,SBD,
No,Raw,1,Mikhail Manukov,Pro Juniors 20-23,1989,Russia,133.9,250,270,290,290,170,-180,180,180,280,290,-300,290,760,140,M,Михаил Мануков,SBD,
No,Raw,1,Maxim Osipov,Pro Open,1982,Kazakhstan,135.2,240,260,270,270,190,200,210,210,280,300,310,310,790,140,M,,SBD,
No,Raw,2,Aleksey Ermakov,Pro Open,1973,Russia,131.6,200,220,240,240,180,190,195,195,230,250,255,255,690,140,M,Алексей Ермаков,SBD,
No,Raw,3,Vyacheslav Eskov,Pro Open,1977,Russia,128,230,270,-300,270,150,165,-172.5,165,-250,250,-280,250,685,140,M,Вячеслав Еськов,SBD,
Yes,Multi-ply,1,Tatyana Telegina,Amateur Masters 50-54,1961,Russia,51.5,,,,,57.5,62.5,-65,62.5,,,,,62.5,52,F,Татьяна Телегина,B,
Yes,Multi-ply,1,Aleksandr Ryzhov,Amateur Teen 18-19,1993,Russia,49.6,,,,,-90,-90,90,90,,,,,90,52,M,Александр Рыжов,B,
Yes,Multi-ply,1,Vadim Sokushev,Amateur Juniors 20-23,1990,Russia,49.3,,,,,100,110,-115,110,,,,,110,52,M,Вадим Сокушев,B,
Yes,Multi-ply,1,Maksim Polyakov,Amateur Teen 16-17,1995,Russia,54.9,,,,,90,-100,-110,90,,,,,90,56,M,Максим Поляков,B,
Yes,Multi-ply,1,Vladimir Zhikan,Amateur Teen 18-19,1994,Russia,56,,,,,105,115,-120,115,,,,,115,56,M,Владимир Жикан,B,
Yes,Multi-ply,1,Vladislav Chekalin,Amateur Teen 16-17,1995,Russia,58.4,,,,,137.5,142.5,,142.5,,,,,142.5,60,M,Владислав Чекалин,B,
Yes,Multi-ply,1,Artem Shkirdin,Amateur Teen 16-17,1995,Russia,67.5,,,,,125,-132.5,-132.5,125,,,,,125,67.5,M,Артем Шкирдин,B,
Yes,Multi-ply,1,Artur Volchanskiy,Amateur Juniors 20-23,1988,Russia,67.5,,,,,140,145,150,150,,,,,150,67.5,M,Артур Волчанский,B,
Yes,Multi-ply,2,Andrey Tuzov,Amateur Juniors 20-23,1991,Russia,67.5,,,,,-125,125,-132.5,125,,,,,125,67.5,M,Андрей Тузов,B,
Yes,Multi-ply,1,Artur Volchanskiy,Amateur Open,1988,Russia,67.5,,,,,140,145,150,150,,,,,150,67.5,M,Артур Волчанский,B,
Yes,Multi-ply,1,Igor Bashtanov,Amateur Masters 45-49,1967,Russia,63.3,,,,,105,-115,115,115,,,,,115,67.5,M,Игорь Баштанов,B,
Yes,Multi-ply,1,Dmitriy Lukyanov,Amateur Teen 16-17,1995,Russia,74.9,,,,,137.5,-150,-150,137.5,,,,,137.5,75,M,Дмитрий Лукьянов,B,
Yes,Multi-ply,1,Petr Makhov,Amateur Teen 18-19,1993,Russia,75,,,,,150,160,-170,160,,,,,160,75,M,Петр Махов,B,
Yes,Multi-ply,DQ,Nikolay Naymushin,Amateur Teen 18-19,1993,Russia,74.5,,,,,-135,-135,-135,,,,,,,75,M,Николай Наймушин,B,
Yes,Multi-ply,DQ,Aleksey Bolshevykh,Amateur Juniors 20-23,1989,Russia,73.5,,,,,-135,-135,-140,,,,,,,75,M,Алексей Большевых,B,
Yes,Multi-ply,1,Aleksandr Sorokin,Amateur Open,1980,Russia,74.9,,,,,-185,185,190,190,,,,,190,75,M,Александр Сорокин,B,
Yes,Multi-ply,2,Evgeniy Zuev,Amateur Open,1985,Russia,72,,,,,170,182.5,185,185,,,,,185,75,M,Евгений Зуев,B,
Yes,Multi-ply,3,Aleksandr Taranenko,Amateur Open,1987,Russia,74.1,,,,,-170,170,-185,170,,,,,170,75,M,Александр Тараненко,B,
Yes,Multi-ply,DQ,Evgeniy Pikuzo,Amateur Open,1988,Russia,73.4,,,,,-145,-147.5,-147.5,,,,,,,75,M,Евгений Пикузо,B,
Yes,Multi-ply,DQ,Aleksey Bolshevykh,Amateur Open,1989,Russia,73.5,,,,,-135,-135,-140,,,,,,,75,M,Алексей Большевых,B,
Yes,Multi-ply,DQ,Nikolay Naymushin,Amateur Open,1993,Russia,74.5,,,,,-135,-135,-135,,,,,,,75,M,Николай Наймушин,B,
Yes,Multi-ply,1,Nikolay Zamyatin,Amateur Open,1987,Russia,81.7,,,,,172.5,185,-200,185,,,,,185,82.5,M,Николай Замятин,B,
Yes,Multi-ply,2,Aleksandr Golubtsov,Amateur Open,1983,Russia,82.3,,,,,130,140,-145,140,,,,,140,82.5,M,Александр Голубцов,B,
Yes,Multi-ply,DQ,Konstantin Kramarenko,Amateur Open,1983,Russia,79,,,,,-150,-150,-150,,,,,,,82.5,M,Константин Крамаренко,B,
Yes,Multi-ply,1,Aleksandr Rasskazchikov,Amateur Masters 45-49,1963,Russia,79.6,,,,,115,120,-130,120,,,,,120,82.5,M,Александр Рассказчиков,B,
Yes,Multi-ply,1,Dmitriy Baluev,Amateur Teen 16-17,1994,Russia,86.1,,,,,135,145,-150,145,,,,,145,90,M,Дмитрий Балуев,B,
Yes,Multi-ply,1,Evgeniy Barinov,Amateur Juniors 20-23,1990,Russia,86.1,,,,,150,-170,-170,150,,,,,150,90,M,Евгений Баринов,B,
Yes,Multi-ply,1,Evgeniy Svoboda,Amateur Open,1972,Russia,87.5,,,,,165,170,175,175,,,,,175,90,M,Евгений Свобода,B,
Yes,Multi-ply,2,Sergey Galanin,Amateur Open,1984,Russia,88.8,,,,,155,162.5,-175,162.5,,,,,162.5,90,M,Сергей Галанин,B,
Yes,Multi-ply,3,Sergey Vorm,Amateur Open,1984,Russia,87.1,,,,,150,157.5,-162.5,157.5,,,,,157.5,90,M,Сергей Ворм,B,
Yes,Multi-ply,1,Evgeniy Svoboda,Amateur Masters 40-44,1972,Russia,87.5,,,,,165,170,175,175,,,,,175,90,M,Евгений Свобода,B,
Yes,Multi-ply,1,Konstantin Smirnov,Amateur Masters 50-54,1962,Russia,87.3,,,,,-140,140,150,150,,,,,150,90,M,Константин Смирнов,B,
Yes,Multi-ply,1,Aleksandr Andrianov,Amateur Masters 65-69,1944,Russia,89.4,,,,,130,140,150,150,,,,,150,90,M,Александр Андрианов,B,
Yes,Multi-ply,1,Daniil Fomenko,Amateur Juniors 20-23,1992,Russia,96,,,,,170,177.5,-187.5,177.5,,,,,177.5,100,M,Даниил Фоменко,B,
Yes,Multi-ply,2,Anton Epikhin,Amateur Juniors 20-23,1988,Russia,94.3,,,,,160,-165,-165,160,,,,,160,100,M,Антон Епихин,B,
Yes,Multi-ply,1,Vasiliy Synkov,Amateur Open,1972,Russia,95.9,,,,,210,-222.5,230,230,,,,,230,100,M,Василий Сынков,B,
Yes,Multi-ply,2,Konstantin Zakharov,Amateur Open,1981,Russia,100,,,,,210,215,225,225,,,,,225,100,M,Константин Захаров,B,
Yes,Multi-ply,3,Roman Kozhin,Amateur Open,1980,Russia,96.1,,,,,160,165,170,170,,,,,170,100,M,Роман Кожин,B,
Yes,Multi-ply,1,Evgeniy Chigirov,Amateur Open,1974,Russia,109.6,,,,,-197.5,197.5,202.5,202.5,,,,,202.5,110,M,Евгений Чигиров,B,
Yes,Multi-ply,1,Vladimir Kobzev,Amateur Masters 60-64,1950,Russia,110,,,,,110,120,-127.5,120,,,,,120,110,M,Владимир Кобзев,B,
Yes,Multi-ply,1,Mikhail Kekalo,Amateur Open,1983,Russia,125,,,,,240,250,255,255,,,,,255,125,M,Михаил Кекало,B,
Yes,Multi-ply,1,Nikita Kuzmin,Amateur Juniors 20-23,1988,Russia,133.2,,,,,205,216,-220,216,,,,,216,140,M,Никита Кузьмин,B,
Yes,Multi-ply,1,Nikita Kuzmin,Amateur Open,1988,Russia,133.2,,,,,205,215,-220,215,,,,,215,140,M,Никита Кузьмин,B,
Yes,Raw,1,Anna Bibanaeva,Pro Youth,2002,Russia,37.6,,,,,22.5,-25,25,25,,,,,25,44,F,Анна Бибанаева,B,
Yes,Raw,2,Yuliya Medvedeva #3,Pro Youth,2002,Russia,30.4,,,,,20,22.5,,22.5,,,,,22.5,44,F,Юлия Медведева,B,
Yes,Raw,1,Anna Koshkina,Amateur Juniors 20-23,1992,Russia,47.3,,,,,-47.5,47.5,-52.5,47.5,,,,,47.5,48,F,Анна Кошкина,B,
Yes,Raw,1,Tatyana Chechkina,Amateur Open,1986,Russia,47.3,,,,,-52.5,52.5,-55,52.5,,,,,52.5,48,F,Татьяна Чечкина,B,
Yes,Raw,1,Ekaterina Efimova,Amateur Teen 18-19,1992,Russia,50,,,,,62.5,-67.5,,62.5,,,,,62.5,52,F,Екатерина Ефимова,B,
Yes,Raw,1,Elena Vorozhischeva,Amateur Open,1976,Russia,48.85,,,,,52.5,-55,-55,52.5,,,,,52.5,52,F,Елена Ворожищева,B,
Yes,Raw,1,Elena Kushkova,Amateur Masters 45-49,1967,Russia,50.2,,,,,50,52.5,-55,52.5,,,,,52.5,52,F,Елена Кушкова,B,
Yes,Raw,1,Tatyana Telegina,Amateur Masters 50-54,1961,Russia,52,,,,,50,55,,55,,,,,55,52,F,Татьяна Телегина,B,
Yes,Raw,1,Natalya Tolkacheva,Amateur Open,1987,Russia,54.9,,,,,-67.5,70,-72.5,70,,,,,70,56,F,Наталья Толкачева,B,
Yes,Raw,2,Ekaterina Konovalova,Amateur Open,1986,Russia,55.4,,,,,70,-72.5,-72.5,70,,,,,70,56,F,Екатерина Коновалова,B,
Yes,Raw,3,Irina Kiseleva,Amateur Open,1974,Russia,54.8,,,,,55,62.5,65,65,,,,,65,56,F,Ирина Киселева,B,
Yes,Raw,4,Alina Aleksanova,Amateur Open,1988,Russia,55.8,,,,,50,52.5,55,55,,,,,55,56,F,Алина Алексанова,B,
Yes,Raw,1,Natalya Ber,Amateur Open,1981,Russia,58.4,,,,,57.5,62.5,-67.5,62.5,,,,,62.5,60,F,Наталья Бер,B,
Yes,Raw,2,Svetlana Ilyasova,Amateur Open,1975,Russia,59.1,,,,,40,47.5,-52.5,47.5,,,,,47.5,60,F,Светлана Ильясова,B,
Yes,Raw,1,Vera Kazakova,Amateur Open,1979,Russia,65.6,,,,,60,65,-75,65,,,,,65,67.5,F,Вера Казакова,B,
Yes,Raw,1,Evelina Apalkova,Amateur Teen 18-19,1993,Russia,73.5,,,,,65,-72.5,72.5,72.5,,,,,72.5,75,F,Эвелина Апалькова,B,
Yes,Raw,1,Svetlana Yanenko,Amateur Open,1982,Russia,73.3,,,,,80,-85,-85,80,,,,,80,75,F,Светлана Яненко,B,
Yes,Raw,1,Vitaliy Sapegin,Amateur Teen 16-17,1994,Russia,56,,,,,100,105,107.5,107.5,,,,,107.5,56,M,Виталий Сапегин,B,
Yes,Raw,2,Aleksandr Lomatchenko,Amateur Teen 16-17,1995,Russia,55.6,,,,,85,-87.5,-87.5,85,,,,,85,56,M,Александр Ломатченко,B,
Yes,Raw,1,Maksim Ivanov,Amateur Teen 18-19,1994,Russia,54,,,,,-65,65,-70,65,,,,,65,56,M,Максим Иванов,B,
Yes,Raw,1,Vladislav Lavrinenko,Amateur Teen 16-17,1995,Russia,60,,,,,100,-105,-105,100,,,,,100,60,M,Владислав Лавриненко,B,
Yes,Raw,1,Zhora Serobyan,Amateur Teen 18-19,1994,Russia,59.3,,,,,100,112.5,,112.5,,,,,112.5,60,M,Жора Серобян,B,
Yes,Raw,1,Anton Bulatov,Amateur Juniors 20-23,1990,Russia,59.6,,,,,100,105,-110,105,,,,,105,60,M,Антон Булатов,B,
Yes,Raw,1,Dmitriy Kaygorodov,Amateur Open,1983,Russia,60,,,,,130,135,-137.5,135,,,,,135,60,M,Дмитрий Кайгородов,B,
Yes,Raw,2,Nikolay Larionov,Amateur Open,1987,Russia,57.2,,,,,110,115,-117.5,115,,,,,115,60,M,Николай Ларионов,B,
Yes,Raw,3,Vladimir Shnayder,Amateur Open,1982,Russia,59.3,,,,,97.5,107.5,112.5,112.5,,,,,112.5,60,M,Владимир Шнайдер,B,
Yes,Raw,4,Ivan Timchenko,Amateur Open,1986,Russia,58.9,,,,,87.5,-92.5,,87.5,,,,,87.5,60,M,Иван Тимченко,B,
Yes,Raw,1,Dmitriy Komarov,Amateur Teen 13-15,1996,Russia,65.4,,,,,80,85,-87.5,85,,,,,85,67.5,M,Дмитрий Комаров,B,
Yes,Raw,2,Evgeniy Egorchenko,Amateur Teen 13-15,1998,Russia,65.3,,,,,70,75,-80,75,,,,,75,67.5,M,Евгений Егорченко,B,
Yes,Raw,1,Ilya Kurbatov,Amateur Teen 16-17,1994,Russia,64.3,,,,,-107.2,107.5,,107.5,,,,,107.5,67.5,M,Илья Курбатов,B,
Yes,Raw,2,Gevorg Badalyan,Amateur Teen 16-17,1995,Russia,67.4,,,,,105,-110,-115,105,,,,,105,67.5,M,Геворг Бадалян,B,
Yes,Raw,3,Igor Fomenko,Amateur Teen 16-17,1994,Russia,63,,,,,90,95,-97.5,95,,,,,95,67.5,M,Игорь Фоменко,B,
Yes,Raw,1,Viktor Zinin,Amateur Teen 18-19,1993,Russia,65.1,,,,,100,107.5,-115,107.5,,,,,107.5,67.5,M,Виктор Зинин,B,
Yes,Raw,2,Konstantin Sobolev,Amateur Teen 18-19,1994,Russia,65.2,,,,,87.5,90,92.5,92.5,,,,,92.5,67.5,M,Константин Соболев,B,
Yes,Raw,3,Konstantin Timoshin,Amateur Teen 18-19,1993,Russia,64.3,,,,,-82.5,85,-87.5,85,,,,,85,67.5,M,Константин Тимошин,B,
Yes,Raw,1,Sergey Poboykin,Amateur Juniors 20-23,1989,Russia,65.9,,,,,130,135,137.5,137.5,,,,,137.5,67.5,M,Сергей Побойкин,B,
Yes,Raw,2,Valentin Zabortsev,Amateur Juniors 20-23,1992,Russia,66,,,,,100,107.5,112.5,112.5,,,,,112.5,67.5,M,Валентин Заборцев,B,
Yes,Raw,1,Alexander Alexandrov,Amateur Open,1979,Russia,67.5,,,,,147.5,157.5,162.5,162.5,,,,,162.5,67.5,M,Александр Александров,B,-165
Yes,Raw,2,Sergey Poboykin,Amateur Open,1989,Russia,65.9,,,,,130,135,137.5,137.5,,,,,137.5,67.5,M,Сергей Побойкин,B,
Yes,Raw,3,Konstantin Krymko,Amateur Open,1983,Russia,66.3,,,,,125,-132.5,-132.5,125,,,,,125,67.5,M,Константин Крымко,B,
Yes,Raw,4,Ivan Prokudin,Amateur Open,1985,Russia,64.4,,,,,107.5,110,,110,,,,,110,67.5,M,Иван Прокудин,B,
Yes,Raw,5,Igor Ilinykh,Amateur Open,1986,Russia,67.2,,,,,100,107.5,-110,107.5,,,,,107.5,67.5,M,Игорь Ильиных,B,
Yes,Raw,1,Vyacheslav Kravtsov,Amateur Masters 45-49,1967,Russia,66.4,,,,,80,90,-95,90,,,,,90,67.5,M,Вячеслав Кравцов,B,
Yes,Raw,1,Yuriy Vikhorev,Amateur Masters 60-64,1950,Russia,66.7,,,,,90,95,97.5,97.5,,,,,97.5,67.5,M,Юрий Вихорев,B,
Yes,Raw,1,Vladislav Romanov,Amateur Teen 13-15,1996,Russia,74.1,,,,,-77.5,-80,85,85,,,,,85,75,M,Владислав Романов,B,
Yes,Raw,1,Nikita Smirnov,Amateur Teen 16-17,1996,Russia,69.5,,,,,85,-90,90,90,,,,,90,75,M,Никита Смирнов,B,
Yes,Raw,2,Vadim Dityatin,Amateur Teen 16-17,1995,Russia,74.4,,,,,85,-92.5,-92.5,85,,,,,85,75,M,Вадим Дитятин,B,
Yes,Raw,3,Kirill Kozhemyako,Amateur Teen 16-17,1994,Russia,72.9,,,,,-75,75,-80,75,,,,,75,75,M,Кирилл Кожемяко,B,
Yes,Raw,4,Kirill Ryzhikh,Amateur Teen 16-17,1995,Russia,73.8,,,,,65,70,-75,70,,,,,70,75,M,Кирилл Рыжих,B,
Yes,Raw,1,Artem Taylakov,Amateur Teen 18-19,1993,Russia,72.3,,,,,-135,137.5,-142.5,137.5,,,,,137.5,75,M,Артем Тайлаков,B,
Yes,Raw,2,Igor Belovodskiy,Amateur Teen 18-19,1994,Russia,74.7,,,,,125,-135,135,135,,,,,135,75,M,Игорь Беловодский,B,
Yes,Raw,1,Mikhail Lokhmotkin,Amateur Juniors 20-23,1989,Russia,73.9,,,,,150,-155,-155,150,,,,,150,75,M,Михаил Лохмоткин,B,
Yes,Raw,2,Oleg Ovcharenko,Amateur Juniors 20-23,1989,Russia,71.4,,,,,-130,135,-140,135,,,,,135,75,M,Олег Овчаренко,B,
Yes,Raw,3,Ilya Mirvoda,Amateur Juniors 20-23,1989,Russia,71.2,,,,,125,130,-135,130,,,,,130,75,M,Илья Мирвода,B,
Yes,Raw,4,Evgeniy Ikryannikov,Amateur Juniors 20-23,1990,Russia,72.8,,,,,127.5,-135,-135,127.5,,,,,127.5,75,M,Евгений Икрянников,B,
Yes,Raw,5,Andrey Poplavskiy,Amateur Juniors 20-23,1989,Russia,72,,,,,102.5,-107.5,-107.5,102.5,,,,,102.5,75,M,Андрей Поплавский,B,
Yes,Raw,6,Maksim Fedotov,Amateur Juniors 20-23,1989,Russia,72.2,,,,,97.5,100,-105,100,,,,,100,75,M,Максим Федотов,B,
Yes,Raw,DQ,Aleksey Bolshevykh,Amateur Juniors 20-23,1989,Russia,73.5,,,,,-120,-125,-125,,,,,,,75,M,Алексей Большевых,B,
Yes,Raw,1,Aleksandr Scherbin,Amateur Open,1986,Russia,73.2,,,,,-150,160,-170,160,,,,,160,75,M,Александр Щербин,B,
Yes,Raw,2,Khuseyn Ishmatov,Amateur Open,1973,Russia,72.3,,,,,125,135,-137.5,135,,,,,135,75,M,Хусейн Ишматов,B,
Yes,Raw,3,Vladislav Volkov,Amateur Open,1977,Russia,73.6,,,,,130,135,-140,135,,,,,135,75,M,Владислав Волков,B,
Yes,Raw,4,Aleksey Yanchenko,Amateur Open,1985,Russia,73.9,,,,,125,135,,135,,,,,135,75,M,Алексей Янченко,B,
Yes,Raw,5,Danil Saneev,Amateur Open,1984,Russia,74.2,,,,,135,-140,-140,135,,,,,135,75,M,Данил Санеев,B,
Yes,Raw,6,Sergey Berdnikov,Amateur Open,1975,Russia,75,,,,,122.5,130,-135,130,,,,,130,75,M,Сергей Бердников,B,
Yes,Raw,7,Sergey Zhuganenko,Amateur Open,1987,Russia,73.7,,,,,-125,125,-130,125,,,,,125,75,M,Сергей Жуганенко,B,
Yes,Raw,8,Aleksandr Fomin,Amateur Open,1985,Russia,74.2,,,,,125,-135,-135,125,,,,,125,75,M,Александр Фомин,B,
Yes,Raw,9,Aleksandr Moiseev,Amateur Open,1980,Russia,73.4,,,,,117.5,-122.5,122.5,122.5,,,,,122.5,75,M,Александр Моисеев,B,
Yes,Raw,10,Evgeniy Venzel,Amateur Open,1988,Russia,71.3,,,,,110,-117.5,117.5,117.5,,,,,117.5,75,M,Евгений Вензель,B,
Yes,Raw,11,Denis Akhryamkin,Amateur Open,1982,Russia,73.3,,,,,117.5,-122.5,-122.5,117.5,,,,,117.5,75,M,Денис Ахрямкин,B,
Yes,Raw,12,Dmitriy Nikitin,Amateur Open,1987,Russia,73.8,,,,,80,90,95,95,,,,,95,75,M,Дмитрий Никитин,B,
Yes,Raw,DQ,Evgeniy Zuev,Amateur Open,1985,Russia,72,,,,,-150,-155,-155,,,,,,,75,M,Евгений Зуев,B,
Yes,Raw,DQ,Aleksey Palkin,Amateur Open,1986,Russia,74.9,,,,,-140,-145,-145,,,,,,,75,M,Алексей Палкин,B,
Yes,Raw,1,Andrey Ovcharov,Amateur Masters 40-44,1971,Russia,71.5,,,,,-120,120,-135,120,,,,,120,75,M,Андрей Овчаров,B,
Yes,Raw,1,Gennadiy Bardin,Amateur Masters 70-74,1938,Russia,69.6,,,,,80,85,90,90,,,,,90,75,M,Геннадий Бардин,B,
Yes,Raw,1,Andrey Poletaev,Amateur Teen 13-15,1996,Russia,80.2,,,,,100,-112.5,-112.5,100,,,,,100,82.5,M,Андрей Полетаев,B,
Yes,Raw,1,Egor Kornyush,Amateur Teen 18-19,1993,Russia,81.2,,,,,145,150,-155,150,,,,,150,82.5,M,Егор Корнюш,B,
Yes,Raw,1,Nikolay Loskutov,Amateur Juniors 20-23,1992,Russia,80.6,,,,,-170,180,185,185,,,,,185,82.5,M,Николай Лоскутов,B,
Yes,Raw,2,Denis Evseenko,Amateur Juniors 20-23,1990,Russia,80.9,,,,,167.5,-172.5,-172.5,167.5,,,,,167.5,82.5,M,Денис Евсеенко,B,
Yes,Raw,3,Mikhail Shpagin,Amateur Juniors 20-23,1988,Russia,80.6,,,,,150,-157.5,-157.5,150,,,,,150,82.5,M,Михаил Шпагин,B,
Yes,Raw,4,Evgeniy Zhorov,Amateur Juniors 20-23,1991,Russia,79.1,,,,,-135,145,-150,145,,,,,145,82.5,M,Евгений Жоров,B,
Yes,Raw,5,Aleksey Panteleev,Amateur Juniors 20-23,1989,Russia,81.2,,,,,125,135,-145,135,,,,,135,82.5,M,Алексей Пантелеев,B,
Yes,Raw,6,Petr Nesterenko,Amateur Juniors 20-23,1991,Russia,81.6,,,,,-130,130,135,135,,,,,135,82.5,M,Петр Нестеренко,B,
Yes,Raw,7,Aleksey Baryshnikov,Amateur Juniors 20-23,1989,Russia,80.8,,,,,-132.5,132.5,-145,132.5,,,,,132.5,82.5,M,Алексей Барышников,B,
Yes,Raw,8,Vladimir Sviridenko,Amateur Juniors 20-23,1991,Russia,80.9,,,,,117.5,127.5,-132.5,127.5,,,,,127.5,82.5,M,Владимир Свириденко,B,
Yes,Raw,9,Artem Uvarov,Amateur Juniors 20-23,1989,Russia,82.3,,,,,120,-130,-130,120,,,,,120,82.5,M,Артем Уваров,B,
Yes,Raw,1,Aleksey Kozlov #5,Amateur Open,1982,Russia,80.7,,,,,-172.5,172.5,-180.5,172.5,,,,,172.5,82.5,M,Алексей Козлов,B,
Yes,Raw,2,Denis Evseenko,Amateur Open,1990,Russia,80.9,,,,,167.5,-172.5,-172.5,167.5,,,,,167.5,82.5,M,Денис Евсеенко,B,
Yes,Raw,3,Aleksey Rodik-Knyazev,Amateur Open,1981,Russia,78.4,,,,,150,160,-167.5,160,,,,,160,82.5,M,Алексей Родик-Князев,B,
Yes,Raw,4,Mikhail Nikiforov,Amateur Open,1979,Russia,78.8,,,,,135,145,-147.5,145,,,,,145,82.5,M,Михаил Никифоров,B,
Yes,Raw,5,Evgeniy Zhorov,Amateur Open,1991,Russia,79.1,,,,,-135,145,-150,145,,,,,145,82.5,M,Евгений Жоров,B,
Yes,Raw,6,Andrey Lastovskiy,Amateur Open,1987,Russia,82.5,,,,,145,-167.5,-167.5,145,,,,,145,82.5,M,Андрей Ластовский,B,
Yes,Raw,7,Egor Varvarinskiy,Amateur Open,1976,Russia,81.9,,,,,125,135,-145,135,,,,,135,82.5,M,Егор Варваринский,B,
Yes,Raw,DD,Valeriy Skiperskikh,Amateur Open,1975,Russia,81.3,,,,,150,-160,-165,150,,,,,,82.5,M,Валерий Скиперских,B,
Yes,Raw,1,Igor Belskiy,Amateur Masters 40-44,1970,Russia,80,,,,,130,140,-145,140,,,,,140,82.5,M,Игорь Бельский,B,
Yes,Raw,1,Aleksandr Rasskazchikov,Amateur Masters 45-49,1963,Russia,79.6,,,,,100,110,-115,110,,,,,110,82.5,M,Александр Рассказчиков,B,
Yes,Raw,DQ,Viktor Karasev,Amateur Masters 55-59,1952,Russia,81.9,,,,,-80,,,,,,,,,82.5,M,Виктор Карасев,B,
Yes,Raw,1,Nikita Demidenko,Amateur Juniors 20-23,1991,Russia,90,,,,,150,-152.5,-152.5,150,,,,,150,90,M,Никита Демиденко,B,
Yes,Raw,2,Evgeniy Kurochkin,Amateur Juniors 20-23,1988,Russia,88.6,,,,,140,147.5,-150,147.5,,,,,147.5,90,M,Евгений Курочкин,B,
Yes,Raw,1,Vladimir Konchakov,Amateur Open,1973,Russia,89.9,,,,,180,190,-197.5,190,,,,,190,90,M,Владимир Кончаков,B,
Yes,Raw,2,Nikolay Berezovskiy,Amateur Open,1987,Russia,88.8,,,,,170,177.5,182.5,182.5,,,,,182.5,90,M,Николай Березовский,B,
Yes,Raw,3,Sarmen Atanyan,Amateur Open,1986,Russia,87.7,,,,,175,-177.5,177.5,177.5,,,,,177.5,90,M,Сармен Атанян,B,
Yes,Raw,4,Anatoliy Doletskiy,Amateur Open,1984,Russia,89.8,,,,,160,-170,,160,,,,,160,90,M,Анатолий Долецкий,B,
Yes,Raw,5,Maksim Evseenko,Amateur Open,1987,Russia,87.1,,,,,-155,155,-165,155,,,,,155,90,M,Максим Евсеенко,B,
Yes,Raw,6,Anatoliy Medvedev,Amateur Open,1983,Russia,86.6,,,,,-152.5,152.5,-157.5,152.5,,,,,152.5,90,M,Анатолий Медведев,B,
Yes,Raw,7,Pavel Kovalev,Amateur Open,1982,Russia,90,,,,,140,152.5,-157.5,152.5,,,,,152.5,90,M,Павел Ковалев,B,
Yes,Raw,8,Sergey Galanin,Amateur Open,1984,Russia,87.3,,,,,-132.5,132.5,-140,132.5,,,,,132.5,90,M,Сергей Галанин,B,
Yes,Raw,DQ,Petr Mikhaylov,Amateur Open,1975,Russia,85.8,,,,,-175,-175,-175,,,,,,,90,M,Петр Михайлов,B,
Yes,Raw,DQ,Dmitriy Chernolutskiy,Amateur Open,1985,Russia,85.8,,,,,-132.5,-132.5,-132.5,,,,,,,90,M,Дмитрий Чернолуцкий,B,
Yes,Raw,DQ,Nikolay Mikhalchenko,Amateur Open,1985,Russia,89.4,,,,,-145,-152.5,-152.5,,,,,,,90,M,Николай Михальченко,B,
Yes,Raw,1,Evgeniy Svoboda,Amateur Masters 40-44,1972,Russia,88.8,,,,,130,140,145,145,,,,,145,90,M,Евгений Свобода,B,
Yes,Raw,1,Leonid Tikhonov,Amateur Masters 45-49,1963,Russia,89.6,,,,,145,152.5,-157.5,152.5,,,,,152.5,90,M,Леонид Тихонов,B,
Yes,Raw,1,Aleksandr Andrianov,Amateur Masters 65-69,1944,Russia,89.4,,,,,120,132.5,137.5,137.5,,,,,137.5,90,M,Александр Андрианов,B,
Yes,Raw,1,Anton Epikhin,Amateur Juniors 20-23,1988,Russia,95.2,,,,,135,-142.5,,135,,,,,135,100,M,Антон Епихин,B,
Yes,Raw,2,Yan Filonov,Amateur Juniors 20-23,1992,Russia,91.1,,,,,-97.5,-97.5,97.5,97.5,,,,,97.5,100,M,Ян Филонов,B,
Yes,Raw,1,Pavel Cheredov,Amateur Open,1984,Russia,99.5,,,,,205,215,-220,215,,,,,215,100,M,Павел Чередов,B,
Yes,Raw,2,Vasiliy Synkov,Amateur Open,1972,Russia,96.2,,,,,165,175,-182.5,175,,,,,175,100,M,Василий Сынков,B,
Yes,Raw,3,Maksim Vanin,Amateur Open,1980,Russia,99.4,,,,,-157.5,162.5,-165,162.5,,,,,162.5,100,M,Максим Ванин,B,
Yes,Raw,4,Vitaliy Kryzhanovskiy,Amateur Open,1976,Russia,98,,,,,-150,157.5,-162.5,157.5,,,,,157.5,100,M,Виталий Крыжановський,B,
Yes,Raw,5,Roman Vorontsov,Amateur Open,1988,Russia,99.1,,,,,150,-155,-162.5,150,,,,,150,100,M,Роман Воронцов,B,
Yes,Raw,6,Sergey Sharovatov,Amateur Open,1978,Russia,98.8,,,,,-140,140,145,145,,,,,145,100,M,Сергей Шароватов,B,
Yes,Raw,7,Sergey Lavrov,Amateur Open,1981,Russia,93.4,,,,,130,-140,140,140,,,,,140,100,M,Сергей Лавров,B,
Yes,Raw,8,Mikhail Morozov,Amateur Open,1985,Russia,96.6,,,,,130,140,-145,140,,,,,140,100,M,Михаил Морозов,B,
Yes,Raw,9,Anatoliy Sitnikov,Amateur Open,1984,Russia,96.1,,,,,137.5,-142.5,-142.5,137.5,,,,,137.5,100,M,Анатолий Ситников,B,
Yes,Raw,10,Dmitriy Gritsunov,Amateur Open,1977,Russia,100,,,,,-112.5,112.5,-117.5,112.5,,,,,112.5,100,M,Дмитрий Грицунов,B,
Yes,Raw,DQ,Konstantin Zasorin,Amateur Open,1987,Russia,96.2,,,,,-130,-130,-130,,,,,,,100,M,Константин Засорин,B,
Yes,Raw,DQ,Dmitriy Gvozdev,Amateur Open,1986,Russia,96.5,,,,,-162.5,,,,,,,,,100,M,Дмитрий Гвоздев,B,
Yes,Raw,1,Evgeniy Guber,Amateur Masters 40-44,1971,Russia,97.5,,,,,160,-162.5,162.5,162.5,,,,,162.5,100,M,Евгений Губер,B,
Yes,Raw,2,Dmitriy Bibanaev,Amateur Open,1980,Russia,99.8,,,,,-155,155,162.5,162.5,,,,,162.5,100,M,Дмитрий Бибанаев,B,
Yes,Raw,3,Igor Andreev,Amateur Masters 40-44,1971,Russia,94.9,,,,,115,122.5,127.5,127.5,,,,,127.5,100,M,Игорь Андреев,B,
Yes,Raw,4,Aleksandr Kisilev,Amateur Masters 40-44,1968,Russia,92.6,,,,,87.5,100,-105,100,,,,,100,100,M,Александр Кисилев,B,
Yes,Raw,1,Abo Archakov,Amateur Masters 45-49,1966,Russia,98.9,,,,,140,150,-162.5,150,,,,,150,100,M,Або Арчаков,B,
Yes,Raw,2,Gennadiy Dortman,Amateur Masters 45-49,1965,Russia,95.2,,,,,132.5,-137.5,140,140,,,,,140,100,M,Геннадий Дортман,B,
Yes,Raw,1,Igor Karapuzov,Amateur Masters 50-54,1962,Russia,98.8,,,,,145,155,-162.5,155,,,,,155,100,M,Игорь Карапузов,B,
Yes,Raw,2,Vladimir Ryabusov,Amateur Masters 50-54,1961,Russia,98.8,,,,,137.5,140,145,145,,,,,145,100,M,Владимир Рябусов,B,
Yes,Raw,1,Grigoriy Kalinin,Amateur Masters 60-64,1950,Russia,98.5,,,,,145,-150,150,150,,,,,150,100,M,Григорий Калинин,B,
Yes,Raw,1,Ilya Epikhin,Amateur Teen 16-17,1996,Russia,104.1,,,,,80,90,-100,90,,,,,90,110,M,Илья Епихин,B,
Yes,Raw,1,Yuriy Sporykhin,Amateur Teen 18-19,1992,Russia,107.5,,,,,130,140,-147.5,140,,,,,140,110,M,Юрий Спорыхин,B,
Yes,Raw,1,Ilya Gunenko,Amateur Juniors 20-23,1991,Russia,105,,,,,130,140,-147.5,140,,,,,140,110,M,Илья Гуненко,B,
Yes,Raw,2,Aleksandr Okhrimenko,Amateur Juniors 20-23,1992,Russia,107.9,,,,,-130,130,-135,130,,,,,130,110,M,Александр Охрименко,B,
Yes,Raw,1,Evgeniy Chigirov,Amateur Open,1974,Russia,109.6,,,,,160,167.5,-170,167.5,,,,,167.5,110,M,Евгений Чигиров,B,
Yes,Raw,2,Pavel Nadeev,Amateur Open,1974,Russia,108.3,,,,,165,-172.5,-172.5,165,,,,,165,110,M,Павел Надеев,B,
Yes,Raw,3,Aleksandr Filimonov,Amateur Open,1987,Russia,110,,,,,150,160,-167.5,160,,,,,160,110,M,Александр Филимонов,B,
Yes,Raw,4,Ilya Gusev,Amateur Open,1982,Russia,103.2,,,,,147.5,157.5,-167.5,157.5,,,,,157.5,110,M,Илья Гусев,B,
Yes,Raw,1,Vitaliy Gritskevich,Amateur Masters 40-44,1969,Russia,109.6,,,,,175,-182.5,-182.5,175,,,,,175,110,M,Виталий Грицкевич,B,
Yes,Raw,1,Evgeniy Rusakov,Amateur Masters 50-54,1959,Russia,107.9,,,,,-130,135,140,140,,,,,140,110,M,Евгений Русаков,B,
Yes,Raw,DQ,Aleksandr Kolesnichenko,Amateur Masters 55-59,1956,Russia,108.3,,,,,-130,,-130,,,,,,,110,M,Александр Колесниченко,B,
Yes,Raw,1,Aleksandr Logachev,Amateur Open,1985,Russia,116.1,,,,,185,195,-202.5,195,,,,,195,125,M,Александр Логачев,B,
Yes,Raw,2,Grigoriy Shevelev,Amateur Open,1982,Russia,116.6,,,,,170,-177.5,-177.5,170,,,,,170,125,M,Григорий Шевелев,B,
Yes,Raw,DQ,Dmitriy Mikheev,Amateur Open,1976,Russia,125,,,,,-170,-170,-177.5,,,,,,,125,M,Дмитрий Михеев,B,
Yes,Raw,1,Nikita Kuzmin,Amateur Juniors 20-23,1988,Russia,133.2,,,,,160,170,180,180,,,,,180,140,M,Никита Кузьмин,B,
Yes,Raw,1,Nikita Kuzmin,Amateur Open,1988,Russia,133.2,,,,,160,170,180,180,,,,,180,140,M,Никита Кузьмин,B,
Yes,Raw,2,Vadim Simonov,Amateur Open,1977,Russia,134.9,,,,,-175,180,-187.5,180,,,,,180,140,M,Вадим Симонов,B,
Yes,Raw,DQ,Mikhail Kagala,Amateur Open,1973,Russia,129,,,,,-140,-140,-140,,,,,,,140,M,Михаил Кагала,B,
Yes,Raw,1,Kirill Savenkov,Amateur Teen 16-17,1995,Russia,141.4,,,,,95,100,107.5,107.5,,,,,107.5,140+,M,Кирилл Савенков,B,
Yes,Raw,1,Dmitriy Karavan,Amateur Open,1976,Russia,155.5,,,,,210,-217.5,217.5,217.5,,,,,217.5,140+,M,Дмитрий Караван,B,
No,Multi-ply,1,Anna Chubarova,Pro Open,1988,Russia,66.8,,,,,107.5,112.5,115,115,,,,,115,67.5,F,Анна Чубарова,B,
No,Multi-ply,1,Olga Baklykova,Pro Open,1964,Russia,71,,,,,120,127.5,130,130,,,,,130,75,F,Ольга Баклыкова,B,
No,Multi-ply,1,Olga Baklykova,Pro Masters 45-49,1964,Russia,71,,,,,120,127.5,130,130,,,,,130,75,F,Ольга Баклыкова,B,
No,Multi-ply,1,Yevgeny Kozlov,Pro Teen 16-17,1994,Russia,67.5,,,,,-157.5,157.5,-160,157.5,,,,,157.5,67.5,M,,B,
No,Multi-ply,2,Aleksey Krasnov,Pro Teen 16-17,1995,Russia,66.4,,,,,-140,140,-157.5,140,,,,,140,67.5,M,Алексей Краснов,B,
No,Multi-ply,1,Denis Alypov,Pro Teen 18-19,1992,Russia,74.7,,,,,-215,215,230,230,,,,,230,75,M,Денис Алыпов,B,-240
No,Multi-ply,1,Andrey Pshenin,Pro Juniors 20-23,1989,Russia,74,,,,,-190,-190,190,190,,,,,190,75,M,Андрей Пшенин,B,
No,Multi-ply,2,Maxim Schwarts,Pro Juniors 20-23,1989,Russia,74.3,,,,,165,-175,175,175,,,,,175,75,M,Максим Шварц,B,
No,Multi-ply,3,Mikhail Tsvetkov,Pro Juniors 20-23,1990,Russia,74.9,,,,,165,-175,-175,165,,,,,165,75,M,Михаил Цветков,B,
No,Multi-ply,4,Mark Spitsin,Pro Juniors 20-23,1989,Russia,72,,,,,140,150,-157.5,150,,,,,150,75,M,Марк Спицин,B,
No,Multi-ply,1,Andrey Pshenin,Pro Open,1989,Russia,74,,,,,-190,-190,190,190,,,,,190,75,M,Андрей Пшенин,B,
No,Multi-ply,2,Mikhail Tsvetkov,Pro Open,1990,Russia,74.9,,,,,165,-175,-175,165,,,,,165,75,M,Михаил Цветков,B,
No,Multi-ply,3,Dmitriy Savchenko,Pro Open,1981,Russia,74.4,,,,,140,150,-155,150,,,,,150,75,M,Дмитрий Савченко,B,
No,Multi-ply,4,Viktor Shmatkov,Pro Open,1982,Russia,75,,,,,145,-155,-157.5,145,,,,,145,75,M,Виктор Шматков,B,
No,Multi-ply,1,Sergey Kurilov,Pro Teen 16-17,1995,Russia,81.7,,,,,-180,180,195,195,,,,,195,82.5,M,Сергей Курилов,B,
No,Multi-ply,1,Andrey Ivankov,Pro Juniors 20-23,1989,Russia,78.2,,,,,105,125,-145,125,,,,,125,82.5,M,Андрей Иванков,B,
No,Multi-ply,DQ,Ivan Kosyakin,Pro Juniors 20-23,1990,Russia,78.5,,,,,,,,,,,,,,82.5,M,Иван Косякин,B,
No,Multi-ply,1,Dmitriy Khovanskiy,Pro Open,1986,Russia,82.5,,,,,-240,-240,240,240,,,,,240,82.5,M,Дмитрий Хованский,B,
No,Multi-ply,2,Artem Bykhovets,Pro Open,1983,Russia,82.5,,,,,-210,210,-240,210,,,,,210,82.5,M,Артем Быховец,B,
No,Multi-ply,3,Sergey Kurilov,Pro Open,1995,Russia,81.7,,,,,-180,180,195,195,,,,,195,82.5,M,Сергей Курилов,B,
No,Multi-ply,4,Vyacheslav Makarov,Pro Open,1974,Russia,76.1,,,,,160,-170,-170,160,,,,,160,82.5,M,Вячеслав Макаров,B,
No,Multi-ply,5,Andrey Ivankov,Pro Open,1989,Russia,78.2,,,,,105,125,-145,125,,,,,125,82.5,M,Андрей Иванков,B,
No,Multi-ply,1,Nikita Vasilyev,Pro Juniors 20-23,1989,Russia,88,,,,,230,240,-252.5,240,,,,,240,90,M,Никита Васильев,B,
No,Multi-ply,2,Anatoliy Bedarev,Pro Juniors 20-23,1989,Russia,90,,,,,170,-190,-190,170,,,,,170,90,M,Анатолий Бедарев,B,
No,Multi-ply,1,Yuriy Petryakov,Pro Open,1964,Russia,89.4,,,,,-220,230,-242.5,230,,,,,230,90,M,Юрий Петряков,B,
No,Multi-ply,2,Yuriy Korikov,Pro Open,1962,Russia,89.8,,,,,225,-235,-235,225,,,,,225,90,M,Юрий Кориков,B,
No,Multi-ply,3,Mikhail Ryzhkin,Pro Open,1984,Russia,90,,,,,220,-235,-235,220,,,,,220,90,M,Михаил Рыжкин,B,
No,Multi-ply,1,Sergey Boldin,Pro Masters 40-44,1971,Russia,88.2,,,,,145,152.5,-155,152.5,,,,,152.5,90,M,Сергей Болдин,B,
No,Multi-ply,1,Yuriy Petryakov,Pro Masters 45-49,1964,Russia,89.4,,,,,-220,230,-242.5,230,,,,,230,90,M,Юрий Петряков,B,
No,Multi-ply,1,Yuriy Korikov,Pro Masters 50-54,1962,Russia,89.8,,,,,225,-235,-235,225,,,,,225,90,M,Юрий Кориков,B,
No,Multi-ply,1,Anton Lazarevskiy,Pro Juniors 20-23,1989,Russia,99.4,,,,,250,-260,260,260,,,,,260,100,M,Антон Лазаревский,B,
No,Multi-ply,2,Stanislav Shishkin,Pro Juniors 20-23,1991,Russia,94.4,,,,,120,130,135,135,,,,,135,100,M,Станислав Шишкин,B,
No,Multi-ply,1,Anton Lazarevskiy,Pro Open,1989,Russia,99.4,,,,,250,-260,260,260,,,,,260,100,M,Антон Лазаревский,B,
No,Multi-ply,2,Sergey Nasonov,Pro Open,1975,Russia,98.5,,,,,240,250,-255,250,,,,,250,100,M,Сергей Насонов,B,
No,Multi-ply,3,Vadim Alekseev,Pro Open,1977,Russia,94.1,,,,,230,-240,-240,230,,,,,230,100,M,Вадим Алексеев,B,
No,Multi-ply,4,Artem Segov,Pro Open,1988,Russia,96.9,,,,,200,220,230,230,,,,,230,100,M,Артем Сегов,B,
No,Multi-ply,DQ,Yevgeny Leis,Pro Open,1976,Russia,96.6,,,,,-230,-230,,,,,,,,100,M,,B,
No,Multi-ply,1,Valeriy Verkholantsev,Pro Masters 55-59,1953,Russia,97.2,,,,,150,-155,-155,150,,,,,150,100,M,Валерий Верхоланцев,B,
No,Multi-ply,1,Artem Feofilov,Pro Juniors 20-23,1989,Russia,106.2,,,,,215,225,232.5,232.5,,,,,232.5,110,M,Артем Феофилов,B,
No,Multi-ply,1,Andrey Paley,Pro Open,1961,Russia,109,,,,,300,-320,,300,,,,,300,110,M,Андрей Палей,B,
No,Multi-ply,2,Daniil Tarasov,Pro Open,1988,Russia,109,,,,,230,245,-250,245,,,,,245,110,M,Даниил Тарасов,B,
No,Multi-ply,3,Mikhail Glukhov,Pro Open,1988,Russia,107.5,,,,,180,200,-217.5,200,,,,,200,110,M,Михаил Глухов,B,
No,Multi-ply,1,Oleg Solovyev,Pro Masters 45-49,1966,Russia,108.2,,,,,192.5,197.5,-202.5,197.5,,,,,197.5,110,M,Олег Соловьев,B,
No,Multi-ply,1,Andrey Paley,Pro Masters 50-54,1961,Russia,109,,,,,300,-320,,300,,,,,300,110,M,Андрей Палей,B,
No,Multi-ply,1,Nikolay Goryachev,Pro Masters 55-59,1957,Russia,107,,,,,190,200,-210,200,,,,,200,110,M,Николай Горячев,B,
No,Multi-ply,1,Kirill Borodinov,Pro Teen 18-19,1993,Russia,117.6,,,,,-180,190,-200,190,,,,,190,125,M,,B,
No,Multi-ply,1,Mikhail Mikhaylov,Pro Juniors 20-23,1990,Russia,115.5,,,,,-200,200,-210,200,,,,,200,125,M,Михаил Михайлов,B,
No,Multi-ply,1,Yuriy Sufimov,Pro Open,1970,Russia,118.5,,,,,295,305,-325,305,,,,,305,125,M,Юрий Суфимов,B,
No,Multi-ply,2,Oleg Borisov,Pro Open,1971,Russia,113.8,,,,,-280,290,-300,290,,,,,290,125,M,Олег Борисов,B,
No,Multi-ply,1,Yuriy Sufimov,Pro Masters 40-44,1970,Russia,118.5,,,,,295,305,-325,305,,,,,305,125,M,Юрий Суфимов,B,
No,Multi-ply,2,Oleg Borisov,Pro Masters 40-44,1971,Russia,113.8,,,,,-280,290,-300,290,,,,,290,125,M,Олег Борисов,B,
No,Multi-ply,DQ,Georgiy Lopatskiy,Pro Open,1962,Russia,125.8,,,,,-280,-280,-280,,,,,,,140,M,Георгий Лопацкий,B,
No,Multi-ply,DQ,Georgiy Lopatskiy,Pro Masters 50-54,1962,Russia,125.8,,,,,-280,-280,-280,,,,,,,140,M,Георгий Лопацкий,B,
No,Raw,1,Aleksandra Yumanova,Pro Juniors 20-23,1992,Russia,60,,,,,70,77.5,-87.5,77.5,,,,,77.5,60,F,Александра Юманова,B,
No,Raw,1,Aleksandra Yumanova,Pro Open,1992,Russia,60,,,,,70,77.5,-87.5,77.5,,,,,77.5,60,F,Александра Юманова,B,
No,Raw,1,Olga Baklykova,Pro Open,1964,Russia,71,,,,,90,95,100,100,,,,,100,75,F,Ольга Баклыкова,B,
No,Raw,1,Olga Baklykova,Pro Masters 45-49,1964,Russia,71,,,,,90,95,100,100,,,,,100,75,F,Ольга Баклыкова,B,
No,Raw,1,Farid Pikashev,Pro Open,1985,Russia,57.7,,,,,130,135,-140,135,,,,,135,60,M,Фарид Пикашев,B,
No,Raw,1,Yevgeny Kozlov,Pro Teen 16-17,1994,Russia,67.5,,,,,115,-120,-120,115,,,,,115,67.5,M,,B,
No,Raw,1,Aleksey Belskiy,Pro Teen 18-19,1993,Russia,65.3,,,,,90,100,105,105,,,,,105,67.5,M,Алексей Бельский,B,
No,Raw,1,Evgeniy Sinko,Pro Open,1981,Russia,66.5,,,,,135,142.5,147.5,147.5,,,,,147.5,67.5,M,Евгений Синько,B,
No,Raw,1,Vladimir Sviderskiy,Pro Masters 60-64,1951,Russia,66.9,,,,,82.5,-87.5,90,90,,,,,90,67.5,M,Владимир Свидерский,B,
No,Raw,1,Aleksandr Tyurin,Pro Teen 16-17,1995,Russia,70.8,,,,,100,-105,-105,100,,,,,100,75,M,Александр Тюрин,B,
No,Raw,1,Artur Lapshin,Pro Juniors 20-23,1988,Russia,75,,,,,165,-170,170,170,,,,,170,75,M,Артур Лапшин,B,
No,Raw,2,Artem Dyakov,Pro Juniors 20-23,1992,Russia,73.3,,,,,120,-130,-130,120,,,,,120,75,M,Артем Дьяков,B,
No,Raw,1,Artur Lapshin,Pro Open,1988,Russia,75,,,,,165,-170,170,170,,,,,170,75,M,Артур Лапшин,B,
No,Raw,1,Aleksey Gusev,Pro Teen 18-19,1994,Russia,78.3,,,,,120,125,127.5,127.5,,,,,127.5,82.5,M,Алексей Гусев,B,
No,Raw,1,Danil Shagin,Pro Juniors 20-23,1988,Russia,80.5,,,,,165,-172.5,172.5,172.5,,,,,172.5,82.5,M,Данил Шагин,B,
No,Raw,2,Aleksandr Schelkov,Pro Juniors 20-23,1989,Russia,82.2,,,,,160,-170,,160,,,,,160,82.5,M,Александр Щелков,B,
No,Raw,3,Dmitriy Yakovlev,Pro Juniors 20-23,1992,Russia,82.5,,,,,140,150,152.5,152.5,,,,,152.5,82.5,M,Дмитрий Яковлев,B,
No,Raw,4,Nikolay Shekhonin,Pro Juniors 20-23,1992,Russia,82.5,,,,,140,150,,150,,,,,150,82.5,M,Николай Шехонин,B,
No,Raw,5,Andrey Ivankov,Pro Juniors 20-23,1989,Russia,78.1,,,,,100,110,-120,110,,,,,110,82.5,M,Андрей Иванков,B,
No,Raw,1,Igor Ryzhov,Pro Open,1985,Russia,82.5,,,,,190,-197.5,-197.5,190,,,,,190,82.5,M,Игорь Рыжов,B,
No,Raw,2,Aleksey Semenov,Pro Open,1980,Russia,77.3,,,,,-180,180,-190,180,,,,,180,82.5,M,Алексей Семенов,B,
No,Raw,3,Stepan Borovskikh,Pro Open,1986,Russia,82.5,,,,,-180,180,-190,180,,,,,180,82.5,M,Степан Боровских,B,
No,Raw,4,Sergei Shevchenko,Pro Open,1984,Russia,82.5,,,,,170,180,-190,180,,,,,180,82.5,M,,B,
No,Raw,5,Danil Shagin,Pro Open,1988,Russia,80.5,,,,,165,-172.5,172.5,172.5,,,,,172.5,82.5,M,Данил Шагин,B,
No,Raw,6,Andrey Berkovich,Pro Open,1972,Russia,79.3,,,,,160,-165,-165,160,,,,,160,82.5,M,Андрей Беркович,B,
No,Raw,7,Aleksandr Schelkov,Pro Open,1989,Russia,82.2,,,,,160,-170,,160,,,,,160,82.5,M,Александр Щелков,B,
No,Raw,8,Andrey Maslakov,Pro Open,1988,Russia,82.5,,,,,130,-140,,130,,,,,130,82.5,M,Андрей Маслаков,B,
No,Raw,1,Sergey Fedorov #1,Pro Masters 50-54,1962,Russia,80.8,,,,,150,160,-170,160,,,,,160,82.5,M,Сергей Федоров,B,
No,Raw,1,Nikolay Platonov,Pro Masters 60-64,1950,Russia,79.5,,,,,125,130,-135,130,,,,,130,82.5,M,Николай Платонов,B,
No,Raw,1,Aleksandr Smirnov,Pro Juniors 20-23,1991,Russia,90,,,,,170,180,-185,180,,,,,180,90,M,Александр Смирнов,B,
No,Raw,1,Maksim Gornastalev,Pro Open,1983,Russia,90,,,,,205,,,205,,,,,205,90,M,Максим Горнасталев,B,
No,Raw,2,Aleksey Smirnov,Pro Open,1987,Russia,85.4,,,,,170,185,190,190,,,,,190,90,M,Алексей Смирнов,B,
No,Raw,3,Maksim Gornastalev,Pro Open,1983,Russia,86.6,,,,,180,185,-192.5,185,,,,,185,90,M,Максим Горнасталев,B,
No,Raw,4,Oleg Valiev,Pro Open,1985,Russia,88.6,,,,,160,170,180,180,,,,,180,90,M,Олег Валиев,B,
No,Raw,5,Aleksandr Smirnov,Pro Open,1991,Russia,90,,,,,170,180,-185,180,,,,,180,90,M,Александр Смирнов,B,
No,Raw,6,Igor Lyzhin,Pro Open,1959,Russia,89.5,,,,,165,-175,-180,165,,,,,165,90,M,Игорь Лыжин,B,
No,Raw,7,Vadim Pogodin,Pro Open,1987,Russia,87.9,,,,,145,152.5,-157.5,152.5,,,,,152.5,90,M,Вадим Погодин,B,
No,Raw,1,Igor Moroz,Pro Masters 45-49,1965,Russia,85.2,,,,,155,165,-172.5,165,,,,,165,90,M,Игорь Мороз,B,
No,Raw,1,Aleksey Korobov,Pro Masters 50-54,1959,Russia,83.5,,,,,150,155,165,165,,,,,165,90,M,Алексей Коробов,B,
No,Raw,2,Igor Lyzhin,Pro Masters 50-54,1959,Russia,89.5,,,,,165,-175,-180,165,,,,,165,90,M,Игорь Лыжин,B,
No,Raw,1,Vasiliy Mertsalov,Pro Masters 65-69,1946,Russia,88.7,,,,,120,127.5,135,135,,,,,135,90,M,Василий Мерцалов,B,-147.5
No,Raw,1,Denis Zenin,Pro Teen 18-19,1993,Russia,93.8,,,,,190,195,202.5,202.5,,,,,202.5,100,M,Денис Зенин,B,
No,Raw,1,Vadim Ivanov,Pro Juniors 20-23,1988,Russia,99.4,,,,,180,190,-207.5,190,,,,,190,100,M,Вадим Иванов,B,
No,Raw,2,Ivan Bunkov,Pro Juniors 20-23,1990,Russia,93.7,,,,,-150,150,155,155,,,,,155,100,M,Иван Буньков,B,
No,Raw,1,Denis Zenin,Pro Open,1993,Russia,93.8,,,,,190,195,202.5,202.5,,,,,202.5,100,M,Денис Зенин,B,
No,Raw,2,Dmitriy Rudykh,Pro Open,1986,Russia,95.8,,,,,180,190,-195,190,,,,,190,100,M,Дмитрий Рудых,B,
No,Raw,3,Yevgeny Leis,Pro Open,1979,Russia,97,,,,,180,190,-202.5,190,,,,,190,100,M,,B,
No,Raw,4,Andrey Komarov,Pro Open,1973,Russia,98.8,,,,,180,190,-205,190,,,,,190,100,M,Андрей Комаров,B,
No,Raw,5,Vadim Ivanov,Pro Open,1988,Russia,99.4,,,,,180,190,-207.5,190,,,,,190,100,M,Вадим Иванов,B,
No,Raw,6,Ivan Melnik,Pro Open,1986,Russia,96.6,,,,,165,175,-180,175,,,,,175,100,M,Иван Мельник,B,
No,Raw,1,Nikolay Murzakhanov,Pro Masters 55-59,1955,Russia,100,,,,,150,160,-165,160,,,,,160,100,M,Николай Мурзаханов,B,
No,Raw,2,Stanislav Struk,Pro Masters 55-59,1956,Russia,95.1,,,,,150,155,,155,,,,,155,100,M,Станислав Струк,B,
No,Raw,1,Aleksandr Kolesnikov,Pro Masters 60-64,1951,Russia,94,,,,,127.5,135,-140,135,,,,,135,100,M,Александр Колесников,B,
No,Raw,1,Maksimelyan Nechaev,Pro Teen 18-19,1993,Russia,109.4,,,,,165,172.5,180,180,,,,,180,110,M,Максимельян Нечаев,B,
No,Raw,1,Vasiliy Fedyaev,Pro Open,1982,Russia,104.5,,,,,250,255,257.5,257.5,,,,,257.5,110,M,Василий Федяев,B,
No,Raw,2,Konstantin Elshin,Pro Open,1986,Russia,109.6,,,,,210,220,227.5,227.5,,,,,227.5,110,M,Константин Ельшин,B,
No,Raw,3,Petr Shtark,Pro Open,1983,Russia,108.6,,,,,220,-230,-230,220,,,,,220,110,M,Петр Штарк,B,
No,Raw,4,Aleksandr Chupin,Pro Open,1988,Russia,105.8,,,,,-190,195,200,200,,,,,200,110,M,Александр Чупин,B,
No,Raw,5,Vitaliy Lebedev,Pro Open,1986,Russia,108.5,,,,,180,-190,-190,180,,,,,180,110,M,Виталий Лебедев,B,
No,Raw,6,Leonid Shevelkov,Pro Open,1987,Russia,108.1,,,,,-175,175,-187.5,175,,,,,175,110,M,Леонид Шевельков,B,
No,Raw,DQ,Vitaliy Vasilkov,Pro Open,1980,Russia,106.9,,,,,-210,-210,-210,,,,,,,110,M,Виталий Васильков,B,
No,Raw,1,Dmitriy Lalo,Pro Masters 40-44,1970,Russia,103.6,,,,,180,-190,-190,180,,,,,180,110,M,Дмитрий Лало,B,
No,Raw,1,Evgeniy Stuchkov,Pro Masters 50-54,1961,Russia,107.4,,,,,-175,175,-182.5,175,,,,,175,110,M,Евгений Стучков,B,
No,Raw,2,Mikhail Ischechkin,Pro Masters 50-54,1962,Russia,108.4,,,,,150,160,-167.5,160,,,,,160,110,M,Михаил Ищечкин,B,
No,Raw,1,Stanislav Kolachev,Pro Open,1987,Russia,113.7,,,,,222.5,230,235,235,,,,,235,125,M,Станислав Колачев,B,
No,Raw,2,Sergey Blokh,Pro Open,1973,Russia,115.4,,,,,210,220,-225,220,,,,,220,125,M,Сергей Блох,B,
No,Raw,3,Yuriy Romanov #1,Pro Open,1984,Russia,115.1,,,,,200,210,215,215,,,,,215,125,M,Юрий Романов,B,
No,Raw,4,Aleksandr Grekhnev,Pro Open,1980,Russia,113.5,,,,,210,-217.5,-217.5,210,,,,,210,125,M,Александр Грехнев,B,
No,Raw,5,Roman Nikishin,Pro Open,1982,Russia,123,,,,,180,-190,190,190,,,,,190,125,M,Роман Никишин,B,
No,Raw,1,Andrey Karpenkov,Pro Juniors 20-23,1991,Russia,126.4,,,,,180,-190,-190,180,,,,,180,140,M,Андрей Карпенков,B,
No,Raw,1,Maxim Osipov,Pro Open,1982,Russia,135.2,,,,,202.5,217.5,-222.5,217.5,,,,,217.5,140,M,,B,
No,Raw,2,Sergey Grebenkin,Pro Open,1973,Russia,130.2,,,,,200,215,-225,215,,,,,215,140,M,Сергей Гребенкин,B,
No,Raw,3,Aleksey Ermakov,Pro Open,1973,Russia,131.6,,,,,190,200,-205,200,,,,,200,140,M,Алексей Ермаков,B,
No,Raw,1,Sergey Kuschev,Pro Open,1967,Russia,150.6,,,,,240,255,265,265,,,,,265,140+,M,Сергей Кущев,B,
No,Raw,1,Sergey Kuschev,Pro Masters 40-44,1967,Russia,150.6,,,,,240,255,265,265,,,,,265,140+,M,Сергей Кущев,B,
Yes,Raw,DQ,Tatyana Telegina,Amateur Masters 50-54,1961,Russia,52,,,,,,,,,-90,,,,,52,F,Татьяна Телегина,D,
Yes,Raw,1,Svetlana Ilyasova,Amateur Open,1975,Russia,59.1,,,,,,,,,75,90,100,100,100,60,F,Светлана Ильясова,D,
Yes,Raw,1,Daniil Simonov,Amateur Youth,2004,Russia,25.3,,,,,,,,,30,35,40,40,40,52,M,Даниил Симонов,D,
Yes,Raw,1,Maksim Polyakov,Amateur Teen 16-17,1995,Russia,54.9,,,,,,,,,110,125,132.5,132.5,132.5,56,M,Максим Поляков,D,
Yes,Raw,1,Nikolay Larionov,Amateur Open,1987,Russia,57.2,,,,,,,,,190,200,-205,200,200,60,M,Николай Ларионов,D,
Yes,Raw,1,Ilya Kurbatov,Amateur Teen 16-17,1994,Russia,64.3,,,,,,,,,170,175,190,190,190,67.5,M,Илья Курбатов,D,
Yes,Raw,1,Ilya Teplov,Amateur Juniors 20-23,1992,Russia,66.8,,,,,,,,,-165,165,-190,165,165,67.5,M,Илья Теплов,D,
Yes,Raw,DQ,Sergey Korshunov,Amateur Open,1988,Russia,66.6,,,,,,,,,-195,-195,-195,,,67.5,M,Сергей Коршунов,D,
Yes,Raw,1,Aleksey Yanchenko,Amateur Open,1985,Russia,73.9,,,,,,,,,180,-202.5,202.5,202.5,202.5,75,M,Алексей Янченко,D,
Yes,Raw,2,Aleksey Vinyukov,Amateur Open,1973,Russia,74.9,,,,,,,,,185,195,202.5,202.5,202.5,75,M,Алексей Винюков,D,
Yes,Raw,1,Valeriy Khomenko,Amateur Masters 60-64,1951,Russia,73.2,,,,,,,,,180,-190,-190,180,180,75,M,Валерий Хоменко,D,
Yes,Raw,1,Anton Belosvetov,Amateur Teen 16-17,1995,Russia,78.4,,,,,,,,,170,180,185,185,185,82.5,M,Антон Белосветов,D,
Yes,Raw,1,Aleksey Geraskin,Amateur Juniors 20-23,1989,Russia,79.9,,,,,,,,,185,195,200,200,200,82.5,M,Алексей Гераськин,D,
Yes,Raw,1,Pavel Berezentsev,Amateur Open,1983,Russia,81.5,,,,,,,,,230,245,,245,245,82.5,M,Павел Березенцев,D,
Yes,Raw,1,Anatoliy Doletskiy,Amateur Open,1984,Russia,89.8,,,,,,,,,240,247.5,255,255,255,90,M,Анатолий Долецкий,D,
Yes,Raw,2,Andrey Vereschagin,Amateur Open,1985,Russia,88.4,,,,,,,,,195,205,212.5,212.5,212.5,90,M,Андрей Верещагин,D,
Yes,Raw,3,Sergey Galanin,Amateur Open,1984,Russia,87.3,,,,,,,,,200,-222.5,-222.5,200,200,90,M,Сергей Галанин,D,
Yes,Raw,1,Evgeniy Svoboda,Amateur Masters 40-44,1972,Russia,88.8,,,,,,,,,170,190,205,205,205,90,M,Евгений Свобода,D,
Yes,Raw,1,Aleksandr Obukhovich,Amateur Open,1987,Russia,96.7,,,,,,,,,290,310,325,325,325,100,M,Александр Обухович,D,
Yes,Raw,2,Dmitriy Gvozdev,Amateur Open,1986,Russia,96.5,,,,,,,,,232.5,-250,,232.5,232.5,100,M,Дмитрий Гвоздев,D,
Yes,Raw,3,Aleksandr Kalinin,Amateur Open,1975,Russia,97.6,,,,,,,,,202.5,-210,,202.5,202.5,100,M,Александр Калинин,D,
Yes,Raw,4,Sergey Sharovatov,Amateur Open,1978,Russia,98.8,,,,,,,,,202.5,-232.5,,202.5,202.5,100,M,Сергей Шароватов,D,
Yes,Raw,1,Aleksandr Kiselev,Amateur Masters 40-44,1968,Russia,92.6,,,,,,,,,130,150,,150,150,100,M,Александр Киселев,D,
Yes,Raw,1,Sergey Mazanov,Amateur Open,1975,Russia,109,,,,,,,,,260,270,280,280,280,110,M,Сергей Мазанов,D,
Yes,Raw,2,Aleksandr Filimonov,Amateur Open,1987,Russia,110,,,,,,,,,240,-260,-260,240,240,110,M,Александр Филимонов,D,
Yes,Raw,3,Ilya Gusev,Amateur Open,1982,Russia,103.2,,,,,,,,,207.5,220,-240,220,220,110,M,Илья Гусев,D,
Yes,Raw,4,Aleksandr Abramov,Amateur Open,1987,Russia,107.3,,,,,,,,,190,207.5,-220,207.5,207.5,110,M,Александр Абрамов,D,
Yes,Raw,1,Vadim Simonov,Amateur Open,1977,Russia,134.9,,,,,,,,,255,-270,270,270,270,140,M,Вадим Симонов,D,
No,Raw,1,Veronika Dyakova,Pro Youth,2002,Russia,23.6,,,,,,,,,-35,35,52.5,52.5,52.5,44,F,Вероника Дьякова,D,
No,Raw,2,Dinara Shpeyter,Pro Youth,2002,Russia,23.5,,,,,,,,,40,45,50,50,50,44,F,Динара Шпейтер,D,
No,Raw,1,Yuliya Medvedeva #1,Pro Open,1979,Russia,74.8,,,,,,,,,185,200,,200,200,75,F,Юлия Медведева,D,
No,Raw,1,Vladimir Sviderskiy,Pro Masters 60-64,1951,Russia,66.9,,,,,,,,,130,137.5,142.5,142.5,142.5,67.5,M,Владимир Свидерский,D,
No,Raw,1,Gennadiy Chuldenko,Pro Masters 60-64,1948,Russia,75,,,,,,,,,190,200,210,210,210,75,M,Геннадий Чулденко,D,
No,Raw,1,Andrey Ivankov,Pro Juniors 20-23,1989,Russia,78.2,,,,,,,,,170,180,-187.5,180,180,82.5,M,Андрей Иванков,D,
No,Raw,1,Igor Ryzhov,Pro Open,1985,Russia,82.5,,,,,,,,,230,260,-280,260,260,82.5,M,Игорь Рыжов,D,
No,Raw,2,Artem Onokhin,Pro Open,1987,Russia,76.7,,,,,,,,,150,175,185,185,185,82.5,M,Артем Онохин,D,
No,Raw,3,Andrey Ivankov,Pro Open,1989,Russia,78.2,,,,,,,,,170,180,-187.5,180,180,82.5,M,Андрей Иванков,D,
No,Raw,1,Nikolay Platonov,Pro Masters 60-64,1950,Russia,79.5,,,,,,,,,205,220,225,225,225,82.5,M,Николай Платонов,D,
No,Raw,1,Pavel Gavrilenko,Pro Open,1980,Russia,89.2,,,,,,,,,250,270,290,290,290,90,M,,D,
No,Raw,1,Igor Moroz,Pro Masters 45-49,1965,Russia,85.5,,,,,,,,,200,220,-240,220,220,90,M,Игорь Мороз,D,
No,Raw,1,Roman Grischenko,Pro Open,1985,Russia,94.4,,,,,,,,,280,290,,290,290,100,M,Роман Грищенко,D,
No,Raw,2,Mikhail Makarov,Pro Open,1985,Russia,99.9,,,,,,,,,250,270,277.5,277.5,277.5,100,M,Михаил Макаров,D,
No,Raw,3,Aleksandr Merkuryev,Pro Open,1985,Russia,99.5,,,,,,,,,260,265,-272.5,265,265,100,M,Александр Меркурьев,D,
No,Raw,1,Maxim Pyatnitskiy,Pro Open,1984,Russia,107.4,,,,,,,,,260,275,-282.5,275,275,110,M,Максим Пятницкий,D,
No,Raw,1,Vadim Kulikov,Pro Masters 45-49,1967,Russia,104.3,,,,,,,,,280,-290,290,290,290,110,M,Вадим Куликов,D,
No,Raw,1,Sergey Blokh,Pro Open,1973,Russia,115.4,,,,,,,,,300,-320,320,320,320,125,M,Сергей Блох,D,
No,Raw,2,Vladimir Polivanov,Pro Open,1963,Russia,116.5,,,,,,,,,200,220,240,240,240,125,M,Владимир Поливанов,D,
No,Raw,1,Vladimir Polivanov,Pro Masters 45-49,1963,Russia,116.5,,,,,,,,,200,220,240,240,240,125,M,Владимир Поливанов,D,
No,Raw,1,Aleksey Ermakov,Pro Open,1973,Russia,131.1,,,,,,,,,230,260,-270,260,260,140,M,Алексей Ермаков,D,
