Division,WeightClassKg,Place,Name,Team,BodyweightKg,Best3SquatKg,Best3BenchKg,Best3DeadliftKg,TotalKg,Equipment,Event,Sex
Junior Varsity,59.87,1,Brandon Edmonds,Texas City,59.87,113.4,52.16,113.4,278.96,Single-ply,SBD,M
Junior Varsity,67.13,1,Marshall Surovik,Texas City,63.5,102.06,74.84,156.49,333.39,Single-ply,SBD,M
Junior Varsity,67.13,2,Elezar Pena,Hitchcock,67.13,111.13,63.5,122.47,297.1,Single-ply,SBD,M
Junior Varsity,67.13,3,Aaron Jordan,Pasadena Dobie,62.14,102.06,70.31,106.59,278.96,Single-ply,SBD,M
Junior Varsity,67.13,4,Noah Zavala,Texas City,66.68,83.91,70.31,113.4,267.62,Single-ply,SBD,M
Junior Varsity,74.84,1,Zach Schafer,Santa Fe,74.84,147.42,97.52,174.63,419.57,Single-ply,SBD,M
Junior Varsity,74.84,2,Drew Lowery,Clute Brazoswood,74.84,131.54,97.52,181.44,410.5,Single-ply,SBD,M
Junior Varsity,74.84,3,Josh McKinney,Santa Fe,74.84,120.2,92.99,174.63,387.82,Single-ply,SBD,M
Junior Varsity,74.84,4,Timothy Alcala,Santa Fe,74.84,127.01,97.52,147.42,371.95,Single-ply,SBD,M
Junior Varsity,74.84,5,Josh Kiff,Santa Fe,74.84,102.06,111.13,142.88,356.07,Single-ply,SBD,M
Junior Varsity,74.84,6,Terry Godoy,Clute Brazoswood,74.84,127.01,83.91,133.81,344.73,Single-ply,SBD,M
Junior Varsity,74.84,7,Jayci Thomas,Freeport Brazosport,74.84,102.06,74.84,158.76,335.66,Single-ply,SBD,M
Junior Varsity,74.84,8,Joseph Guiterrez,Pasadena Dobie,73.03,117.93,83.91,131.54,333.39,Single-ply,SBD,M
Junior Varsity,74.84,9,Melvin Senegal,Texas City,72.57,102.06,77.11,124.74,303.91,Single-ply,SBD,M
Junior Varsity,82.1,1,Malik Campbell,Freeport Brazosport,82.1,161.03,106.59,154.22,421.84,Single-ply,SBD,M
Junior Varsity,82.1,2,Tyler Perry,Texas City,79.38,140.61,92.99,165.56,399.16,Single-ply,SBD,M
Junior Varsity,82.1,3,Aaron Villanueva,Freeport Brazosport,82.1,145.15,81.65,172.37,399.16,Single-ply,SBD,M
Junior Varsity,82.1,4,Chad Cruse,Santa Fe,82.1,129.27,95.25,156.49,381.02,Single-ply,SBD,M
Junior Varsity,82.1,5,Vincent Guiterrez,Pasadena Dobie,82.1,115.67,79.38,131.54,326.59,Single-ply,SBD,M
Junior Varsity,82.1,6,Johnathon Anderson,Texas City,79.83,102.06,70.31,124.74,297.1,Single-ply,SBD,M
Junior Varsity,89.81,1,Alejandro Montano,Texas City,86.18,154.22,102.06,188.24,444.52,Single-ply,SBD,M
Junior Varsity,89.81,2,Stan Hamilton,Clute Brazoswood,89.81,151.95,92.99,183.7,428.64,Single-ply,SBD,M
Junior Varsity,89.81,3,Jimmy Butler,Texas City,83.01,127.01,92.99,183.7,403.7,Single-ply,SBD,M
Junior Varsity,89.81,4,James Ash,Clute Brazoswood,89.81,149.69,90.72,158.76,399.16,Single-ply,SBD,M
Junior Varsity,89.81,5,Nathan Weaver,Clute Brazoswood,89.81,127.01,92.99,154.22,374.21,Single-ply,SBD,M
Junior Varsity,89.81,6,Orlando Logan,Pasadena Dobie,89.81,102.06,68.04,149.69,319.78,Single-ply,SBD,M
Junior Varsity,89.81,7,Dedrick Simpson,Pasadena Dobie,87.09,102.06,68.04,145.15,315.25,Single-ply,SBD,M
Junior Varsity,89.81,8,Tyler Redmond,Pasadena Dobie,84.37,74.84,52.16,113.4,240.4,Single-ply,SBD,M
Junior Varsity,89.81,DQ,Robert Hurta,Freeport Brazosport,89.81,,,,,Single-ply,SBD,M
Junior Varsity,99.79,1,Ruben Garcia,Freeport Brazosport,99.79,161.03,92.99,163.29,417.3,Single-ply,SBD,M
Junior Varsity,99.79,2,Brandon Mosley,Texas City,90.72,151.95,81.65,156.49,390.09,Single-ply,SBD,M
Junior Varsity,99.79,3,Sam Spicer,Clute Brazoswood,99.79,113.4,90.72,158.76,362.87,Single-ply,SBD,M
Junior Varsity,99.79,4,Josh Guilder,Hitchcock,99.79,145.15,70.31,142.88,358.34,Single-ply,SBD,M
Junior Varsity,99.79,5,Chris Garcia,Texas City,90.72,111.13,61.23,124.74,297.1,Single-ply,SBD,M
Junior Varsity,99.79,DQ,Daniel Martinez #15,Freeport Brazosport,99.79,,,,,Single-ply,SBD,M
Junior Varsity,109.77,1,David Chapa,Texas City,108.86,183.7,115.67,188.24,487.61,Single-ply,SBD,M
Junior Varsity,109.77,2,Jimmy LaFata,Clute Brazoswood,109.77,174.63,106.59,206.38,487.61,Single-ply,SBD,M
Junior Varsity,109.77,3,Dante Hayes,Texas City,102.06,158.76,86.18,188.24,433.18,Single-ply,SBD,M
Junior Varsity,109.77,4,Justin Vardeman,Clute Brazoswood,109.77,176.9,104.33,151.95,433.18,Single-ply,SBD,M
Junior Varsity,109.77,5,Caleb James,Clute Brazoswood,109.77,147.42,88.45,192.78,428.64,Single-ply,SBD,M
Junior Varsity,109.77,6,Blaize Franklin,Clute Brazoswood,109.77,124.74,97.52,161.03,383.29,Single-ply,SBD,M
Junior Varsity,109.77,DQ,Zach McDonald,Santa Fe,109.77,174.63,,,,Single-ply,SBD,M
Junior Varsity,124.74,1,Alex Pina,Clute Brazoswood,124.74,183.7,102.06,185.97,471.74,Single-ply,SBD,M
Junior Varsity,124.74,2,Johnathon Miller,Clute Brazoswood,124.74,136.08,81.65,142.88,360.61,Single-ply,SBD,M
Junior Varsity,124.74,3,Brandon Williams #8,Texas City,113.4,124.74,63.5,104.33,292.57,Single-ply,SBD,M
Junior Varsity,124.74+,1,Cameron Duhon,Freeport Brazosport,136.08,188.24,102.06,226.8,517.1,Single-ply,SBD,M
Junior Varsity,124.74+,2,Alan Powell,Clute Brazoswood,136.08,142.88,95.25,174.63,412.77,Single-ply,SBD,M
Boys,51.71,1,Taylor Riley,La Porte,50.8,124.74,68.04,127.01,319.78,Single-ply,SBD,M
Boys,51.71,2,Eric Covarrubias,Freeport Brazosport,49.8,90.72,49.9,106.59,247.21,Single-ply,SBD,M
Boys,51.71,3,Micheal Avelleneda,Stafford,46.81,83.91,45.36,90.72,219.99,Single-ply,SBD,M
Boys,55.79,1,George Bankhead,Freeport Brazosport,54.61,163.29,83.91,190.51,437.72,Single-ply,SBD,M
Boys,55.79,2,Randy Holland,Clute Brazoswood,53.71,163.29,102.06,167.83,433.18,Single-ply,SBD,M
Boys,55.79,3,Justin Rios,Clute Brazoswood,55.7,124.74,58.97,142.88,326.59,Single-ply,SBD,M
Boys,55.79,4,Anthony Scarborough,Hitchcock,55.52,124.74,56.7,127.01,308.44,Single-ply,SBD,M
Boys,55.79,5,Caminade Zac,Santa Fe,54.79,97.52,52.16,124.74,274.42,Single-ply,SBD,M
Boys,59.87,1,Eduardo Trevino,Clute Brazoswood,59.15,133.81,79.38,183.7,396.89,Single-ply,SBD,M
Boys,59.87,2,Jakob Rios,Clute Brazoswood,59.78,142.88,83.91,154.22,381.02,Single-ply,SBD,M
Boys,59.87,3,Genaro Rangel,Santa Fe,59.6,145.15,72.57,142.88,360.61,Single-ply,SBD,M
Boys,59.87,4,Brandon Ginyard,Pasadena Dobie,59.15,115.67,72.57,142.88,331.12,Single-ply,SBD,M
Boys,67.13,1,Bryston Braziel,Stafford,60.42,165.56,86.18,172.37,424.11,Single-ply,SBD,M
Boys,67.13,2,Nefi Hernandez,Texas City,65.68,151.95,102.06,158.76,412.77,Single-ply,SBD,M
Boys,67.13,3,Jordan Aguilar,Clute Brazoswood,65.95,165.56,81.65,138.35,385.55,Single-ply,SBD,M
Boys,67.13,4,Brandon Lozano,Galveston Ball,62.14,138.35,92.99,149.69,381.02,Single-ply,SBD,M
Boys,67.13,5,Xavier Walker,Galveston Ball,65.5,111.13,74.84,120.2,306.17,Single-ply,SBD,M
Boys,74.84,1,Dj Bell,La Porte,74.84,183.7,147.42,192.78,523.9,Single-ply,SBD,M
Boys,74.84,2,Josh George,Hitchcock,73.03,188.24,111.13,190.51,489.88,Single-ply,SBD,M
Boys,74.84,3,Cole White,Freeport Brazosport,74.57,163.29,111.13,204.12,478.54,Single-ply,SBD,M
Boys,74.84,4,Tahj Edwards,Freeport Brazosport,72.03,181.44,92.99,199.58,474,Single-ply,SBD,M
Boys,74.84,5,Justin Sanders,Santa Fe,72.12,181.44,120.2,170.1,471.74,Single-ply,SBD,M
Boys,82.1,6,Ralph Anderson,Texas City,74.93,170.1,108.86,174.63,453.59,Single-ply,SBD,M
Boys,74.84,7,Michael Briones,Pasadena Dobie,70.31,170.1,102.06,174.63,446.79,Single-ply,SBD,M
Boys,74.84,8,Jesse Canell,Stafford,69.04,154.22,117.93,167.83,439.98,Single-ply,SBD,M
Boys,74.84,9,Edward Speaker,Galveston Ball,73.39,167.83,97.52,172.37,437.72,Single-ply,SBD,M
Boys,74.84,10,Taylor Givens,Stafford,73.21,165.56,95.25,163.29,424.11,Single-ply,SBD,M
Boys,74.84,11,Josh Troup,La Porte,71.21,154.22,92.99,163.29,410.5,Single-ply,SBD,M
Boys,74.84,12,Eric Hembling,Clute Brazoswood,74.84,149.69,79.38,179.17,408.23,Single-ply,SBD,M
Boys,82.1,1,Joseph Valdez,Texas City,80.83,251.74,138.35,192.78,582.87,Single-ply,SBD,M
Boys,82.1,2,Jonathan Saenz,Clute Brazoswood,81.19,249.48,124.74,201.85,576.06,Single-ply,SBD,M
Boys,82.1,3,Tj Combs,Hitchcock,80.92,213.19,129.27,229.06,571.53,Single-ply,SBD,M
Boys,82.1,4,Blane Creppon,Santa Fe,79.29,197.31,111.13,199.58,508.02,Single-ply,SBD,M
Boys,82.1,5,Matt Walton,Santa Fe,78.56,188.24,111.13,183.7,483.08,Single-ply,SBD,M
Boys,82.1,6,Earl Montalvo,Clute Brazoswood,80.29,192.78,113.4,172.37,478.54,Single-ply,SBD,M
Boys,82.1,7,Andrew Stokes,Galveston Ball,80.74,172.37,102.06,181.44,455.86,Single-ply,SBD,M
Boys,82.1,8,Nathan Quintinilla,Hitchcock,80.29,170.1,92.99,156.49,419.57,Single-ply,SBD,M
Boys,82.1,9,Josh Thompson,La Porte,81.37,147.42,113.4,156.49,417.3,Single-ply,SBD,M
Boys,82.1,10,Isaac Hernandez,Pasadena Dobie,76.38,124.74,106.59,165.56,396.89,Single-ply,SBD,M
Boys,82.1,11,Sean Peace,Pasadena Dobie,80.47,124.74,92.99,170.1,387.82,Single-ply,SBD,M
Boys,89.81,1,D'Vonta Hinton,Texas City,87.91,192.78,124.74,199.58,517.1,Single-ply,SBD,M
Boys,89.81,2,Fred Rodriguez,Santa Fe,87.27,185.97,145.15,181.44,512.56,Single-ply,SBD,M
Boys,89.81,3,Jordan Milburn,Galveston Ball,87.63,174.63,106.59,226.8,508.02,Single-ply,SBD,M
Boys,89.81,4,Zac Love,La Porte,89.18,170.1,102.06,179.17,451.32,Single-ply,SBD,M
Boys,99.79,5,Allen Hopkins,Galveston Ball,89.9,156.49,111.13,172.37,439.98,Single-ply,SBD,M
Boys,89.81,6,Aaron Sollock,Clute Brazoswood,83.01,170.1,108.86,156.49,435.45,Single-ply,SBD,M
Boys,89.81,7,Logan Holt,Hitchcock,85.55,174.63,90.72,158.76,424.11,Single-ply,SBD,M
Boys,89.81,8,Angel Garcia #8,Pasadena Dobie,89.81,142.88,113.4,154.22,410.5,Single-ply,SBD,M
Boys,89.81,9,Chase Yates,Santa Fe,87.82,172.37,120.2,,292.57,Single-ply,SB,M
Boys,89.81,DQ,Johny Reyes,Stafford,83.37,181.44,,,,Single-ply,SB,M
Boys,109.77,1,Daniel Lema,Clute Brazoswood,99.97,254.01,142.88,254.01,650.91,Single-ply,SBD,M
Boys,99.79,2,Francois Bonilla,Texas City,95.07,249.48,151.95,226.8,628.23,Single-ply,SBD,M
Boys,99.79,3,Cedric Edwards,Galveston Ball,92.26,226.8,124.74,240.4,591.94,Single-ply,SBD,M
Boys,99.79,4,Marcus Escobedo,Hitchcock,96.8,244.94,131.54,201.85,578.33,Single-ply,SBD,M
Boys,99.79,5,Marco Flores,Stafford,94.62,226.8,133.81,215.46,576.06,Single-ply,SBD,M
Boys,99.79,6,Hunter Caldwell,Freeport Brazosport,95.16,199.58,149.69,226.8,576.06,Single-ply,SBD,M
Boys,99.79,7,Jayson Kline,La Porte,96.16,215.46,127.01,226.8,569.26,Single-ply,SBD,M
Boys,99.79,8,Colton Davis,Santa Fe,93.98,204.12,136.08,204.12,544.31,Single-ply,SBD,M
Boys,99.79,9,Carlos Alvarez,Hitchcock,92.9,204.12,133.81,199.58,537.51,Single-ply,SBD,M
Boys,99.79,10,Curtis Moore,Santa Fe,95.44,204.12,102.06,174.63,480.81,Single-ply,SBD,M
Boys,99.79,11,Nick Silva,Pasadena Dobie,93.08,170.1,124.74,181.44,476.27,Single-ply,SBD,M
Boys,99.79,12,Anthony Cantu,Pasadena Dobie,95.71,179.17,115.67,176.9,471.74,Single-ply,SBD,M
Boys,109.77,1,Mike Alviar,Freeport Brazosport,107.5,265.35,163.29,219.99,648.64,Single-ply,SBD,M
Boys,109.77,2,Korey Robinson,Texas City,105.32,251.74,154.22,233.6,639.57,Single-ply,SBD,M
Boys,109.77,3,Nestor Mendez,Freeport Brazosport,109.77,240.4,138.35,233.6,612.35,Single-ply,SBD,M
Boys,109.77,4,Tate Smith,Texas City,103.06,206.38,113.4,226.8,546.58,Single-ply,SBD,M
Boys,109.77,5,Nathan Flores,Pasadena Dobie,101.15,204.12,136.08,204.12,544.31,Single-ply,SBD,M
Boys,124.74,1,Ray Madrigal,Freeport Brazosport,124.01,254.01,185.97,238.14,678.12,Single-ply,SBD,M
Boys,124.74,2,Chris Gomez,Freeport Brazosport,110.95,251.74,142.88,226.8,621.42,Single-ply,SBD,M
Boys,124.74,3,Gabe Garza,Texas City,118.39,229.06,140.61,231.33,601.01,Single-ply,SBD,M
Boys,124.74,4,Danius Ferguson,La Porte,118.84,215.46,136.08,226.8,578.33,Single-ply,SBD,M
Boys,124.74,5,Keithon Herring,Texas City,119.11,226.8,138.35,190.51,555.65,Single-ply,SBD,M
Boys,124.74,6,Markel Perry,La Porte,116.75,201.85,124.74,192.78,519.36,Single-ply,SBD,M
Boys,124.74,7,Travis Doolittle,Santa Fe,116.39,183.7,102.06,208.65,494.42,Single-ply,SBD,M
Boys,124.74,8,Jarvis Johnson,Pasadena Dobie,119.39,185.97,102.06,179.17,467.2,Single-ply,SBD,M
Boys,124.74,9,Victor Sanchez,Hitchcock,122.65,167.83,97.52,172.37,437.72,Single-ply,SBD,M
Boys,124.74,DQ,Glen Ritter,Hitchcock,122.92,149.69,,,,Single-ply,SBD,M
Boys,124.74+,1,Devon Miles #2,Clute Brazoswood,155.13,249.48,138.35,242.67,630.49,Single-ply,SBD,M
Boys,124.74+,2,Adolfo Gomez,Pasadena Dobie,163.47,229.06,151.95,226.8,607.81,Single-ply,SBD,M
Boys,124.74+,3,Kris Kannaway,La Porte,137.8,260.82,136.08,181.44,578.33,Single-ply,SBD,M
Boys,124.74+,4,Gray Laskoskie,Hitchcock,155.4,208.65,142.88,210.92,562.45,Single-ply,SBD,M
Boys,124.74+,5,Richard Arellano,Galveston Ball,146.15,215.46,129.27,183.7,528.44,Single-ply,SBD,M
Boys,124.74+,6,Eric Mills,Hitchcock,139.25,208.65,124.74,190.51,523.9,Single-ply,SBD,M
Boys,124.74+,7,Anthony Galindo,Santa Fe,136.62,204.12,120.2,174.63,498.95,Single-ply,SBD,M
