Sex,Name,Place,BodyweightKg,Team,Deadlift1Kg,Deadlift2Kg,Deadlift3Kg,Best3DeadliftKg,Deadlift4Kg,TotalKg,WeightClassKg,Event,Equipment,Tested,Bench1Kg,Bench2Kg,Bench3Kg,Best3BenchKg,Bench4Kg,Squat1Kg,Squat2Kg,Squat3Kg,Best3SquatKg,Squat4Kg,Division,Age,BirthDate
M,Kostas Telidis,1,74.9,Steel Brother,257.5,270,,270,,270,75,D,Multi-ply,No,,,,,,,,,,,Pro Open,29,1989-04-18
M,Arbi Israilov,1,105.9,,150,,,150,,150,110,D,Multi-ply,No,,,,,,,,,,,Pro Masters 50-54,50,1968-07-19
F,Olga Blinova,1,55.3,,105,110,-115,110,,110,56,D,Single-ply,No,,,,,,,,,,,Pro Open,27,1990-08-16
M,Aleksey Kotov,1,74.6,,220,-230,230,230,,230,75,D,Single-ply,No,,,,,,,,,,,Pro Open,30,1987-09-19
M,Sergey Kozhevnikov,1,95.9,,150,165,-175,165,,165,100,D,Single-ply,No,,,,,,,,,,,Pro Open,47,1970-12-30
M,Sergey Kozhevnikov,1,95.9,,150,165,-175,165,,165,100,D,Single-ply,No,,,,,,,,,,,Pro Masters 45-49,47,1970-12-30
F,Lyudmila Litovchenko,1,43.3,,75,85,87.5,87.5,,87.5,44,D,Raw,No,,,,,,,,,,,Pro Teen 16-17,16,2001-08-26
F,Yelena Malysheva,1,52,Atlant,115,122.5,127.5,127.5,,127.5,52,D,Raw,No,,,,,,,,,,,Pro Open,37,1981-03-18
F,Svetlana Tolstova,2,51,,115,-120,-125,115,,115,52,D,Raw,No,,,,,,,,,,,Pro Open,31,1986-09-04
F,Valeriya Podoynitsyna,1,53.8,,100,110,-112.5,110,,110,56,D,Raw,No,,,,,,,,,,,Pro Teen 16-17,16,2002-03-30
F,Yuliya Kruglova,1,57.8,Painkiller,80,95,-105,95,,95,60,D,Raw,No,,,,,,,,,,,Pro Open,31,1987-07-04
F,Svetlana Saburova,1,67.5,,150,157.5,-160,157.5,,157.5,67.5,D,Raw,No,,,,,,,,,,,Pro Open,46,1972-02-20
F,Yelena Soynikova,2,63.1,,85,100,117.5,117.5,,117.5,67.5,D,Raw,No,,,,,,,,,,,Pro Open,35,1982-12-11
F,Oksana Kitakhina,1,65.1,,115,125,-132.5,125,,125,67.5,D,Raw,No,,,,,,,,,,,Pro Masters 40-44,41,1977-05-18
F,Svetlana Saburova,1,67.5,,150,157.5,-160,157.5,,157.5,67.5,D,Raw,No,,,,,,,,,,,Pro Masters 45-49,46,1972-02-20
F,Kseniya Krivoshchekova,1,70.2,,80,90,100,100,,100,75,D,Raw,No,,,,,,,,,,,Pro Open,29,1988-07-28
M,Dmitriy Kabakov,1,66.6,,180,190,-200,190,,190,67.5,D,Raw,No,,,,,,,,,,,Pro Teen 13-15,15,2002-12-04
M,Danil Vatutin,1,65.8,,170,180,190,190,,190,67.5,D,Raw,No,,,,,,,,,,,Pro Teen 16-17,16,2001-12-06
M,Dmitriy Kabakov,1,66.6,,180,190,-200,190,,190,67.5,D,Raw,No,,,,,,,,,,,Pro Open,15,2002-12-04
M,Vladislav Ivashchenko,2,67.5,,150,-190,-190,150,,150,67.5,D,Raw,No,,,,,,,,,,,Pro Open,24,1993-10-22
M,Elyar Bragin,1,74.6,,175,185,-202.5,185,,185,75,D,Raw,No,,,,,,,,,,,Pro Teen 16-17,16,2001-10-30
M,Vigen Arutyunyan,1,74.1,,200,220,-235,220,,220,75,D,Raw,No,,,,,,,,,,,Pro Juniors 20-23,22,1995-12-15
M,Ivan Kovalskiy #1,1,72.4,,210,225,235,235,,235,75,D,Raw,No,,,,,,,,,,,Pro Open,27,1990-10-03
M,Aleksey Kotov,2,74.6,,-220,220,-232.5,220,,220,75,D,Raw,No,,,,,,,,,,,Pro Open,30,1987-09-19
M,Maksim Frolkin,3,74.5,Faust,190,202.5,205,205,,205,75,D,Raw,No,,,,,,,,,,,Pro Open,32,1986-05-19
M,Aleksandr Mamedov,4,73,,170,-200,200,200,,200,75,D,Raw,No,,,,,,,,,,,Pro Open,29,1988-11-25
M,Aleksandr Yakushev,5,72.3,,175,185,-192.5,185,,185,75,D,Raw,No,,,,,,,,,,,Pro Open,28,1990-04-27
M,Aleksandr Izgagin,1,74.6,,160,-170,,160,,160,75,D,Raw,No,,,,,,,,,,,Pro Masters 65-69,65,1953-06-21
M,Eduard Dolgopolov,1,81.2,,217.5,227.5,-237.5,227.5,,227.5,82.5,D,Raw,No,,,,,,,,,,,Pro Open,41,1977-04-22
M,Eduard Dolgopolov,1,81.2,,217.5,227.5,-237.5,227.5,,227.5,82.5,D,Raw,No,,,,,,,,,,,Pro Masters 40-44,41,1977-04-22
M,Anatoliy Kabanchenko,1,81.9,,160,172.5,180,180,,180,82.5,D,Raw,No,,,,,,,,,,,Pro Masters 65-69,65,1953-01-01
M,Maksim Vedishchev,1,88.4,,-280,290,305,305,,305,90,D,Raw,No,,,,,,,,,,,Pro Open,40,1978-05-17
M,Andrey Kolyukhov,2,84.8,,202.5,-215,-215,202.5,,202.5,90,D,Raw,No,,,,,,,,,,,Pro Open,39,1979-04-25
M,Maksim Vedishchev,1,88.4,,-280,290,305,305,,305,90,D,Raw,No,,,,,,,,,,,Pro Masters 40-44,40,1978-05-17
M,Viktor Malyshkin,1,99.2,,150,165,-170,165,,165,100,D,Raw,No,,,,,,,,,,,Pro Masters 70-74,70,1947-09-11
M,Dmitriy Kozinets,1,102.6,,280,-290,-290,280,,280,110,D,Raw,No,,,,,,,,,,,Pro Open,26,1991-08-10
M,Dmitriy Golubev,2,108,,260,275,-282.5,275,,275,110,D,Raw,No,,,,,,,,,,,Pro Open,28,1990-01-31
M,Rafik Ogannisyan,3,104.3,Atlant,250,-260,,250,,250,110,D,Raw,No,,,,,,,,,,,Pro Open,37,1980-12-06
M,Sergey Svechnikov,4,106.6,,220,225,,225,,225,110,D,Raw,No,,,,,,,,,,,Pro Open,54,1963-11-08
M,Malik Abdullayev,1,104.9,,210,-217.5,217.5,217.5,,217.5,110,D,Raw,No,,,,,,,,,,,Pro Masters 40-44,40,1977-09-29
M,Sergey Svechnikov,1,106.6,,220,225,,225,,225,110,D,Raw,No,,,,,,,,,,,Pro Masters 50-54,54,1963-11-08
M,Dmitriy Gritsayenko,1,98.7,,225,240,250,250,,250,100,D,Multi-ply,No,,,,,,,,,,,Pro Open,39,1979-07-17
M,Igor Umerenkov,1,109.8,,300,-315,,300,,300,110,D,Multi-ply,No,,,,,,,,,,,Pro Open,37,1980-09-13
M,Ilya Maltsev,2,104.5,Atlant,260,,,260,,260,110,D,Multi-ply,No,,,,,,,,,,,Pro Open,39,1978-08-02
F,Violetta Kruk,1,51.9,,165,182.5,-187.5,182.5,,182.5,52,D,Single-ply,No,,,,,,,,,,,Pro Open,28,1989-07-26
M,Konstantin Semenov,1,73.9,,205,215,220,220,,220,75,D,Single-ply,No,,,,,,,,,,,Pro Open,53,1964-08-24
M,Konstantin Semenov,1,73.9,,205,215,220,220,,220,75,D,Single-ply,No,,,,,,,,,,,Pro Masters 50-54,53,1964-08-24
M,Andrey Reketchuk,1,88.6,,200,215,225,225,,225,90,D,Single-ply,No,,,,,,,,,,,Pro Open,35,1983-01-24
M,Aleksandr Kozyura,1,97.7,,260,280,300,300,,300,100,D,Single-ply,No,,,,,,,,,,,Pro Open,36,1982-01-26
M,Yuriy Katanov,1,101,Bodi,300,310,320,320,,320,110,D,Single-ply,No,,,,,,,,,,,Pro Open,37,1981-01-14
M,Denis Basko,2,103.3,,280,300,310,310,,310,110,D,Single-ply,No,,,,,,,,,,,Pro Open,36,1981-07-29
M,Valentin Dedyulia,1,104.7,,250,-290,-290,250,,250,110,D,Single-ply,No,,,,,,,,,,,Pro Masters 40-44,40,1977-07-27
F,Marina Belomestnova,1,51.5,,100,105,115,115,,115,52,D,Raw,No,,,,,,,,,,,Pro Open,36,1981-08-02
F,Ketevan Namoradze,1,58.1,,127.5,150,,150,,150,60,D,Raw,No,,,,,,,,,,,Pro Masters 55-59,57,1961-07-17
F,Tatyana Garacheva,1,66,,160,-182.5,-182.5,160,,160,67.5,D,Raw,No,,,,,,,,,,,Pro Open,32,1986-06-07
F,Kseniya Plakhuta,2,66.5,,140,160,-182.5,160,,160,67.5,D,Raw,No,,,,,,,,,,,Pro Open,30,1987-11-11
F,Olga Timireva,1,61.1,,-80,90,100,100,,100,67.5,D,Raw,No,,,,,,,,,,,Pro Masters 45-49,46,1971-10-11
F,Yelena Martynenko,1,69.7,samostoyatelno,175,185,-192.5,185,,185,75,D,Raw,No,,,,,,,,,,,Pro Open,36,1981-07-21
M,Sergey Spiridonov,1,72.3,,190,205,215,215,,215,75,D,Raw,No,,,,,,,,,,,Pro Open,32,1985-08-11
M,Oleg Solonenko,2,72.8,,190,200,-210,200,,200,75,D,Raw,No,,,,,,,,,,,Pro Open,47,1970-09-26
M,Aleksandr Petruk,3,71.9,,160,180,190,190,,190,75,D,Raw,No,,,,,,,,,,,Pro Open,39,1978-09-18
M,Oleg Solonenko,1,72.8,,190,200,-210,200,,200,75,D,Raw,No,,,,,,,,,,,Pro Masters 45-49,47,1970-09-26
M,Yaroslav Radashkevich,1,87.4,Flex,305,315,-320,315,,315,90,D,Raw,No,,,,,,,,,,,Pro Juniors 20-23,20,1998-06-27
M,Maksim Utenkov,1,97.2,,270,290,305,305,,305,100,D,Raw,No,,,,,,,,,,,Pro Open,26,1992-04-11
M,Mikhail Rostovtsev,1,91.7,,215,225,,225,,225,100,D,Raw,No,,,,,,,,,,,Pro Masters 60-64,60,1958-05-28
M,Mikhail Shirokov,1,107.6,,300,310,315,315,,315,110,D,Raw,No,,,,,,,,,,,Pro Teen 18-19,19,1999-06-06
M,Ivan Bodyagin,1,105,,300,320,350,350,,350,110,D,Raw,No,,,,,,,,,,,Pro Open,31,1987-02-26
M,Vyacheslav Ten,2,105.1,Atlant,300,310,-322.5,310,,310,110,D,Raw,No,,,,,,,,,,,Pro Open,31,1987-02-21
M,Denis Tretyakov,3,109.4,,200,240,-250,240,,240,110,D,Raw,No,,,,,,,,,,,Pro Open,31,1986-12-18
M,Yevgeniy Ivanov,1,138.6,,305,310,-320.5,310,,310,140,D,Raw,No,,,,,,,,,,,Pro Open,45,1973-06-13
M,Yevgeniy Ivanov,1,138.6,,305,310,-320.5,310,,310,140,D,Raw,No,,,,,,,,,,,Pro Masters 45-49,45,1973-06-13
F,Viktoriya Blotskaya,1,67.4,Faust,,,,,,125,67.5,B,Unlimited,No,120,125,-130,125,,,,,,,Pro Open,32,1985-10-14
M,Danila Moseyev,1,81.2,Painkiller,,,,,,180,82.5,B,Unlimited,No,180,-195,-200,180,,,,,,,Pro Teen 16-17,17,2000-10-10
M,Nikita Sokolenko,1,87,,,,,,,135,90,B,Unlimited,No,120,-135,135,135,,,,,,,Pro Teen 16-17,17,2001-04-13
M,Vladimir Kustov,1,90,Flex,,,,,,190,90,B,Unlimited,No,190,-205,,190,,,,,,,Pro Open,41,1977-06-25
M,Vladimir Kustov,1,90,Flex,,,,,,190,90,B,Unlimited,No,190,-205,,190,,,,,,,Pro Masters 40-44,41,1977-06-25
M,Timur Radzhabov,1,99.7,,,,,,,200,100,B,Unlimited,No,200,-210,-217.5,200,,,,,,,Pro Open,37,1981-04-11
M,Denis Posazhennikov,1,99.5,Bodi,,,,,,230,100,B,Unlimited,No,215,230,-245,230,,,,,,,Pro Masters 40-44,40,1977-11-20
M,Aleksandr Khromov,1,105.5,,,,,,,242.5,110,B,Unlimited,No,230,-242.5,242.5,242.5,,,,,,,Pro Open,36,1982-04-13
M,Vyacheslav Kirgizov,DQ,109,Flex,,,,,,,110,B,Unlimited,No,-290,-290,-290,,,,,,,,Pro Open,29,1989-05-14
M,Andrey Samodelkin,1,109.4,,,,,,,225,110,B,Unlimited,No,210,217.5,225,225,,,,,,,Pro Masters 40-44,44,1974-01-26
M,Arbi Israilov,1,105.9,,,,,,,150,110,B,Unlimited,No,140,150,,150,,,,,,,Pro Masters 50-54,50,1968-07-19
M,Kostas Telidis,1,74.9,Steel Brother,,,,,,262.5,75,B,Multi-ply,No,240,252.5,262.5,262.5,-270,,,,,,Pro Open,29,1989-04-18
M,Rodion Romashko,1,74.7,,,,,,,147.5,75,B,Single-ply,No,135,147.5,-155,147.5,,,,,,,Pro Juniors 20-23,21,1996-08-24
M,Mikhail Modlin,1,99,,,,,,,190,100,B,Single-ply,No,170,190,-195,190,,,,,,,Pro Open,36,1982-02-21
F,Tatyana Voytikhovich,1,47.2,Faust,,,,,,57.5,48,B,Raw,No,52.5,55,57.5,57.5,,,,,,,Pro Open,30,1988-05-25
F,Yekaterina Kosykh,2,47,,,,,,,42.5,48,B,Raw,No,40,42.5,-45,42.5,,,,,,,Pro Open,24,1994-03-08
F,Irina Zemskova,1,50,,,,,,,50,52,B,Raw,No,-50,50,-57.5,50,,,,,,,Pro Teen 16-17,17,2001-01-27
F,Yelena Vorotnikova,1,51.9,Atlant,,,,,,57.5,52,B,Raw,No,50,55,57.5,57.5,,,,,,,Pro Open,35,1982-09-21
F,Tatyana Baranova,1,54.9,,,,,,,47.5,56,B,Raw,No,45,47.5,-50,47.5,,,,,,,Pro Juniors 20-23,22,1995-09-01
F,Mariya Romanchenko,1,55.5,,,,,,,65,56,B,Raw,No,60,-65,65,65,,,,,,,Pro Open,29,1988-10-21
F,Darya Trautman,1,57.1,,,,,,,60,60,B,Raw,No,55,57.5,60,60,,,,,,,Pro Teen 18-19,19,1999-01-27
F,Natalya Tsivileva,1,59.5,,,,,,,65,60,B,Raw,No,-65,65,-67.5,65,,,,,,,Pro Open,25,1992-12-24
F,Diana Genchik,2,58.6,,,,,,,57.5,60,B,Raw,No,47.5,52.5,57.5,57.5,,,,,,,Pro Open,35,1983-04-09
F,Karina Kirnos,3,59.9,Atlant,,,,,,55,60,B,Raw,No,52.5,-55,55,55,,,,,,,Pro Open,27,1990-10-23
F,Anastasiya Privaltseva,1,66.5,,,,,,,72.5,67.5,B,Raw,No,-72.5,-72.5,72.5,72.5,,,,,,,Pro Open,30,1987-11-21
F,Oksana Korneva,2,67.5,Flex,,,,,,60,67.5,B,Raw,No,55,60,-62.5,60,,,,,,,Pro Open,34,1983-10-10
F,Olga Kirgizova,1,77.6,Flex,,,,,,62.5,82.5,B,Raw,No,57.5,-62.5,62.5,62.5,,,,,,,Pro Open,27,1991-04-04
M,Aleksey Kolisnichenko,1,50.4,,,,,,,112.5,52,B,Raw,No,107.5,110,112.5,112.5,,,,,,,Pro Open,24,1994-07-14
M,Yuriy Murzin,1,59.5,,,,,,,130,60,B,Raw,No,125,130,,130,,,,,,,Pro Teen 18-19,18,2000-06-15
M,Yuriy Murzin,1,59.5,,,,,,,130,60,B,Raw,No,125,130,,130,,,,,,,Pro Open,18,2000-06-15
M,Anton Belyayev,2,59.8,,,,,,,112.5,60,B,Raw,No,100,112.5,-115,112.5,,,,,,,Pro Open,28,1989-10-24
M,Aleksandr Kotlyarskiy,1,75,,,,,,,170,75,B,Raw,No,150,160,170,170,,,,,,,Pro Teen 16-17,16,2001-11-24
M,Mikhail Vyunov,2,75,Flex,,,,,,105,75,B,Raw,No,-100,-105,105,105,,,,,,,Pro Teen 16-17,16,2002-06-22
M,Vigen Arutyunyan,1,74.1,,,,,,,135,75,B,Raw,No,120,127.5,135,135,,,,,,,Pro Juniors 20-23,22,1995-12-15
M,Sergey Sosnin,1,74,,,,,,,130,75,B,Raw,No,125,-130,130,130,,,,,,,Pro Open,35,1982-10-16
M,Ivan Kovalskiy #1,2,72.4,,,,,,,125,75,B,Raw,No,115,120,125,125,,,,,,,Pro Open,27,1990-10-03
M,Yuriy Amosov,3,74.8,,,,,,,105,75,B,Raw,No,100,-105,105,105,,,,,,,Pro Open,26,1991-11-25
M,Semen Ushnitskiy,1,70.7,,,,,,,110,75,B,Raw,No,100,105,110,110,,,,,,,Pro Masters 55-59,55,1962-09-06
M,Danila Moseyev,1,81.2,Painkiller,,,,,,145,82.5,B,Raw,No,-135,145,-150,145,,,,,,,Pro Teen 16-17,17,2000-10-10
M,Kirill Akushevich,2,78.6,Flex,,,,,,105,82.5,B,Raw,No,105,-110,-110,105,,,,,,,Pro Teen 16-17,17,2000-12-23
M,Denis Loparev,1,81.1,,,,,,,147.5,82.5,B,Raw,No,140,145,147.5,147.5,,,,,,,Pro Open,31,1986-07-24
M,Sunat Kutuzov,2,81.8,,,,,,,130,82.5,B,Raw,No,122.5,127.5,130,130,,,,,,,Pro Open,29,1989-06-04
M,Nikita Minenkov,3,77.3,,,,,,,120,82.5,B,Raw,No,-120,120,-127.5,120,,,,,,,Pro Open,29,1989-04-28
M,Sergey Rebrov,4,82.1,,,,,,,115,82.5,B,Raw,No,110,115,-120,115,,,,,,,Pro Open,38,1979-08-09
M,Aleksey Zhukov,1,81.4,,,,,,,115,82.5,B,Raw,No,110,115,-120,115,,,,,,,Pro Masters 40-44,42,1975-11-01
M,Anatoliy Kabanchenko,1,81.9,,,,,,,122.5,82.5,B,Raw,No,-115,117.5,122.5,122.5,,,,,,,Pro Masters 65-69,65,1953-01-01
M,Artem Vanty,1,86.6,Atlant,,,,,,90,90,B,Raw,No,80,85,90,90,,,,,,,Pro Teen 13-15,15,2003-02-13
M,Vladimir Kustov,1,90,Flex,,,,,,157.5,90,B,Raw,No,152.5,157.5,,157.5,,,,,,,Pro Open,41,1977-06-25
M,Sergey Valov,2,89.6,,,,,,,142.5,90,B,Raw,No,142.5,-152.5,-152.5,142.5,,,,,,,Pro Open,39,1979-05-30
M,Anton Kamorskiy,3,85.3,,,,,,,117.5,90,B,Raw,No,110,117.5,-125,117.5,,,,,,,Pro Open,33,1985-03-17
M,Vladimir Kustov,1,90,Flex,,,,,,157.5,90,B,Raw,No,152.5,157.5,,157.5,,,,,,,Pro Masters 40-44,41,1977-06-25
M,Andrey Yelenskiy,1,87,,,,,,,145,90,B,Raw,No,127.5,132.5,145,145,,,,,,,Pro Masters 45-49,45,1972-10-29
M,Nikolay Androsov,1,97.7,,,,,,,167.5,100,B,Raw,No,155,162.5,167.5,167.5,,,,,,,Pro Open,29,1989-05-16
M,Arutyun Manushyan,2,97.9,,,,,,,162.5,100,B,Raw,No,155,162.5,-165,162.5,,,,,,,Pro Open,35,1982-12-18
M,Maksim Govorkov,3,98.8,,,,,,,162.5,100,B,Raw,No,-155,162.5,-165,162.5,,,,,,,Pro Open,31,1987-06-25
M,Pavel Yevseyenko,4,99.2,Painkiller,,,,,,157.5,100,B,Raw,No,-157.5,-157.5,157.5,157.5,,,,,,,Pro Open,47,1970-12-27
M,Yevgeniy Putnin,5,96.2,,,,,,,150,100,B,Raw,No,150,-162.5,-162.5,150,,,,,,,Pro Open,35,1982-10-21
M,Yuriy Tarnovetskiy,6,96.7,,,,,,,140,100,B,Raw,No,130,140,-142.5,140,,,,,,,Pro Open,27,1991-04-14
M,Pavel Yevseyenko,1,99.2,Painkiller,,,,,,157.5,100,B,Raw,No,-157.5,-157.5,157.5,157.5,,,,,,,Pro Masters 45-49,47,1970-12-27
M,Petr Babin,1,96.2,,,,,,,150,100,B,Raw,No,150,-162.5,-162.5,150,,,,,,,Pro Masters 60-64,60,1958-03-25
M,Viktor Malyshkin,1,99.2,,,,,,,127.5,100,B,Raw,No,120,127.5,-130,127.5,,,,,,,Pro Masters 70-74,70,1947-09-11
M,Rafik Ogannisyan,1,104.3,Atlant,,,,,,205,110,B,Raw,No,195,200,205,205,,,,,,,Pro Open,37,1980-12-06
M,Malik Abdullayev,1,104.9,,,,,,,147.5,110,B,Raw,No,140,147.5,-152.5,147.5,,,,,,,Pro Masters 40-44,40,1977-09-29
M,Andrey Rogozin,1,112,,,,,,,210,125,B,Raw,No,195,205,210,210,,,,,,,Pro Masters 45-49,49,1969-04-25
M,Sergey Shishkov,1,122,,,,,,,105,125,B,Raw,No,100,105,-110,105,,,,,,,Pro Masters 60-64,62,1956-04-30
M,Dmitriy Makarov,1,145.6,,,,,,,220,140+,B,Raw,No,200,210,220,220,,,,,,,Pro Open,37,1981-05-15
F,Yelena Paneva,1,51.7,Flex,100,115,-127.5,115,,275,52,SBD,Single-ply,No,55,-57.5,-57.5,55,,105,-112.5,-112.5,105,,Pro Open,26,1992-02-05
F,Lyubov Marochenko,1,59.2,Flex,150,160,-170,160,,400,60,SBD,Single-ply,No,75,77.5,80,80,,-155,155,160,160,,Pro Open,22,1996-02-11
M,Kostas Telidis,1,74.9,Steel Brother,255,270,275,275,,830,75,SBD,Single-ply,No,240,250,255,255,-260,290,300,-307.5,300,,Pro Open,29,1989-04-18
M,Vadim Bogdanov,1,79.5,,150,-155,,150,,480,82.5,SBD,Single-ply,No,170,-190,-190,170,,150,155,160,160,,Pro Open,25,1993-05-26
M,Nikita Sokolenko,1,87,,170,180,-190,180,,495,90,SBD,Single-ply,No,110,120,-130,120,,175,195,-205,195,,Pro Open,17,2001-04-13
M,Arbi Israilov,1,107,,170,190,-205,190,,480,110,SBD,Single-ply,No,105,110,,110,,-170,170,180,180,,Pro Masters 50-54,50,1968-07-19
F,Lyubov An-Khichu,1,49.55,,70,80,90,90,,210,52,SBD,Raw,No,-40,40,-42.5,40,,-70,75,80,80,,Pro Open,30,1987-07-25
F,Yelena Malysheva,DQ,52,Atlant,-120,,,,,,52,SBD,Raw,No,-55,-55,-55,,,95,-102.5,-102.5,95,,Pro Open,37,1981-03-18
F,Yuliya Marchenko,1,55.4,Faust,80,90,-105,90,,232.5,56,SBD,Raw,No,45,47.5,-50,47.5,,87.5,95,-102.5,95,,Pro Teen 16-17,17,2001-05-16
F,Tatyana Kashtanova,1,56,,115,125,135,135,,325,56,SBD,Raw,No,60,62.5,-65,62.5,,127.5,-140,-140,127.5,,Pro Open,33,1985-03-27
F,Olga Gileva,2,55.5,,130,140,-150,140,,317.5,56,SBD,Raw,No,50,55,57.5,57.5,,-120,120,-132.5,120,,Pro Open,24,1994-06-06
F,Yuliya Kukhareva,3,56,,130,135,-142.5,135,,310,56,SBD,Raw,No,50,55,-57.5,55,,-120,-120,120,120,,Pro Open,25,1992-12-25
F,Yevgeniya Panova,4,56,,100,105,-115,105,,292.5,56,SBD,Raw,No,57.5,-62.5,62.5,62.5,,115,-125,125,125,,Pro Open,30,1987-10-14
F,Olga Sologubova,5,54.2,,105,-115,115,115,,280,56,SBD,Raw,No,50,52.5,55,55,,100,-110,110,110,,Pro Open,34,1983-11-06
F,Yuliya Tkacheva,6,56,,80,90,100,100,,242.5,56,SBD,Raw,No,50,52.5,-55,52.5,,-80,85,90,90,,Pro Open,34,1983-11-11
F,Lyudmila Pavlova,1,55.4,Faust,80,90,-100,90,,240,56,SBD,Raw,No,50,52.5,55,55,,80,-87.5,95,95,,Pro Masters 40-44,42,1976-06-04
F,Karina Kirnos,1,59.9,Atlant,100,105,-110,105,,285,60,SBD,Raw,No,-52.5,52.5,55,55,,-125,125,-130,125,,Pro Open,27,1990-10-23
F,Svetlana Saburova,1,67.5,,150,157.5,160,160,,327.5,67.5,SBD,Raw,No,55,-57.5,57.5,57.5,,-110,110,-120,110,,Pro Open,46,1972-02-20
F,Svetlana Saburova,1,67.5,,150,157.5,160,160,,327.5,67.5,SBD,Raw,No,55,-57.5,57.5,57.5,,-110,110,-120,110,,Pro Masters 45-49,46,1972-02-20
F,Kseniya Suslova,1,75,,120,-130,-130,120,,295,75,SBD,Raw,No,57.5,60,-62.5,60,,115,-125,-125,115,,Pro Open,25,1993-06-08
F,Yelena Ageyenko,1,73,Faust,-100,102.5,110,110,,240,75,SBD,Raw,No,45,-50,-50,45,,-80,-85,85,85,,Pro Masters 45-49,49,1969-02-17
M,Andrey Petukhov,1,60,,150,165,167.5,167.5,,410,60,SBD,Raw,No,92.5,100,102.5,102.5,,130,-140,140,140,,Pro Teen 16-17,17,2001-03-23
M,Konstantin Misyuk,1,67.3,Painkiller,-170,170,175,175,,477.5,67.5,SBD,Raw,No,110,115,117.5,117.5,,175,185,-190.5,185,,Pro Teen 18-19,19,1999-03-28
M,Kostas Telidis,1,74.9,Steel Brother,220,240,,240,,672.5,75,SBD,Raw,No,155,162.5,-167.5,162.5,,245,260,270,270,,Pro Open,29,1989-04-18
M,Anton Gladkov,2,73.8,,170,180,190,190,,470,75,SBD,Raw,No,100,110,-115,110,,-165,165,170,170,,Pro Open,30,1988-06-01
M,Vitaliy Anichkin,1,78.8,Painkiller,210,222.5,230,230,,592.5,82.5,SBD,Raw,No,135,142.5,-145,142.5,,205,215,220,220,,Pro Open,41,1976-11-04
M,Vitaliy Anichkin,1,78.8,Painkiller,210,222.5,230,230,,592.5,82.5,SBD,Raw,No,135,142.5,-145,142.5,,205,215,220,220,,Pro Masters 40-44,41,1976-11-04
M,Dmitriy Marchenko,1,88.7,Faust,190,-200,200,200,,505,90,SBD,Raw,No,125,130,135,135,,170,-185,-187.5,170,,Pro Masters 45-49,46,1971-11-06
M,Ilya Kozak,1,99.4,,180,192.5,200,200,,502.5,100,SBD,Raw,No,110,-115,-115,110,,-180,180,192.5,192.5,,Pro Open,27,1991-06-08
M,Danil Pozdnyakov,2,95.9,,170,187.5,195,195,,500,100,SBD,Raw,No,110,120,-122.5,120,,165,175,185,185,,Pro Open,27,1991-02-26
M,Arbi Israilov,1,107,,160,180,200,200,,490,110,SBD,Raw,No,100,,,100,,160,-180,190,190,,Pro Masters 50-54,50,1968-07-19
F,Yekaterina Gaskarova,1,55.1,,65,75,80,80,,190,56,SBD,Raw,No,32.5,35,-40,35,,-65,65,75,75,,Pro Teen 16-17,17,2001-01-17
F,Yelizaveta Litvintseva,DQ,60,,-65,,,,,,60,SBD,Raw,No,-35,,,,,-75,-75,-75,,,Pro Teen 18-19,19,1998-09-02
F,Yelena Yachnaya,1,69.9,,65,75,82.5,82.5,,172.5,75,SBD,Raw,No,27.5,30,35,35,,40,50,55,55,,Pro Open,31,1987-03-29
M,Vyacheslav Tebenkov,1,55.9,,-150,150,-162.5,150,,340,56,SBD,Raw,No,70,75,80,80,,95,105,110,110,,Pro Teen 16-17,16,2001-11-20
M,Nikita Kulik,1,57.9,,90,100,110,110,,265,60,SBD,Raw,No,60,-62.5,-65,60,,-90,-95,95,95,,Pro Teen 13-15,15,2003-05-07
M,Zakhar Korshunov,1,63.3,,160,170,180,180,,395,67.5,SBD,Raw,No,75,85,90,90,,110,120,125,125,,Pro Teen 16-17,17,2000-07-28
M,Maksim Sigida,2,65.4,Flex,-110,125,135,135,,315,67.5,SBD,Raw,No,65,-70,70,70,,110,-120,-120,110,,Pro Teen 16-17,16,2001-10-12
M,Dmitriy Beketov,1,75,,115,130,140,140,,335,75,SBD,Raw,No,80,85,-90,85,,110,-115,-115,110,,Pro Teen 16-17,16,2002-04-26
M,Aleksandr Zubkov,1,73.6,,180,190,-200,190,,480,75,SBD,Raw,No,115,120,125,125,,150,160,165,165,,Pro Masters 45-49,49,1969-01-02
M,Aleksandr Izgagin,1,74.6,,160,170,-180,170,,380,75,SBD,Raw,No,80,-90,,80,,110,120,130,130,,Pro Masters 65-69,65,1953-06-21
M,Denis Loparev,1,81.1,,190,195,200,200,,525,82.5,SBD,Raw,No,140,-145,,140,,170,180,185,185,,Pro Open,31,1986-07-24
M,Aleksandr Poluektov,2,82.1,,-180,190,200,200,,495,82.5,SBD,Raw,No,117.5,125,-130,125,,-150,160,170,170,,Pro Open,23,1994-08-09
M,Aleksandr Kovalskiy,1,89.5,,200,215,222.5,222.5,,492.5,90,SBD,Raw,No,100,105,-110,105,,145,155,165,165,,Pro Open,56,1962-07-15
M,Aleksandr Kovalskiy,1,89.5,,200,215,222.5,222.5,,492.5,90,SBD,Raw,No,100,105,-110,105,,145,155,165,165,,Pro Masters 55-59,56,1962-07-15
M,Maksim Stavitskiy,1,95.8,,200,212.5,217.5,217.5,,577.5,100,SBD,Raw,No,135,-145,150,150,,185,200,210,210,,Pro Teen 18-19,19,1999-02-15
M,Sergey Svechnikov,1,106.6,,220,230,235,235,,520,110,SBD,Raw,No,100,105,107.5,107.5,,160,170,177.5,177.5,,Pro Open,54,1963-11-08
M,Sergey Svechnikov,1,106.6,,220,230,235,235,,520,110,SBD,Raw,No,100,105,107.5,107.5,,160,170,177.5,177.5,,Pro Masters 50-54,54,1963-11-08
F,Kseniya Burchenkova,1,54.5,Atlant,,,,,,85,56,B,Unlimited,No,85,-95,-102.5,85,,,,,,,Pro Open,26,1992-03-01
F,Alena Vasyukhno,1,107,Faust,,,,,,160,90+,B,Unlimited,No,-155,155,160,160,,,,,,,Pro Open,27,1990-08-21
M,Konstantin Semenov,1,73.9,,,,,,,185,75,B,Unlimited,No,175,185,-190,185,,,,,,,Pro Open,53,1964-08-24
M,Konstantin Semenov,1,73.9,,,,,,,185,75,B,Unlimited,No,175,185,-190,185,,,,,,,Pro Masters 50-54,53,1964-08-24
M,Andrey Shchur,1,79.4,,,,,,,260,82.5,B,Unlimited,No,-250,260,-272.5,260,,,,,,,Pro Open,45,1973-06-03
M,Aleksandr Tsmyg,2,82.2,,,,,,,185,82.5,B,Unlimited,No,175,185,-190,185,,,,,,,Pro Open,54,1963-10-20
M,Andrey Shchur,DQ,79.4,,,,,,,,82.5,B,Unlimited,No,-250,,,,,,,,,,Pro Open,45,1973-06-04
M,Andrey Shchur,1,79.4,,,,,,,260,82.5,B,Unlimited,No,-250,260,-272.5,260,,,,,,,Pro Masters 45-49,45,1973-06-03
M,Aleksandr Tsmyg,1,82.2,,,,,,,185,82.5,B,Unlimited,No,175,185,-190,185,,,,,,,Pro Masters 50-54,54,1963-10-20
M,Pavel Ivanichev,1,86,,,,,,,235,90,B,Unlimited,No,-235,235,-252.5,235,,,,,,,Pro Open,34,1984-06-09
M,Leonid Tikhonov,2,89.8,,,,,,,230,90,B,Unlimited,No,200,220,230,230,,,,,,,Pro Open,55,1963-03-25
M,Maksim Volkov,3,89.5,,,,,,,225,90,B,Unlimited,No,210,225,-235,225,,,,,,,Pro Open,29,1989-01-12
M,Leonid Tikhonov,1,89.8,,,,,,,230,90,B,Unlimited,No,200,220,230,230,,,,,,,Pro Masters 55-59,55,1963-03-25
M,Vasiliy Mertsalov,1,84.9,,,,,,,130,90,B,Unlimited,No,-120,120,130,130,,,,,,,Pro Masters 70-74,71,1946-10-27
M,Boris Lunkin,1,98.5,Bodi,,,,,,270,100,B,Unlimited,No,-265,270,-280,270,,,,,,,Pro Open,37,1980-11-25
M,Andrey Mozharov,2,98.7,,,,,,,250,100,B,Unlimited,No,-250,250,-270,250,,,,,,,Pro Open,39,1979-01-23
M,Ivan Klimenko,3,100,,,,,,,245,100,B,Unlimited,No,-245,245,-255,245,,,,,,,Pro Open,37,1980-11-20
M,Roman Svinarchuk,4,98.7,,,,,,,235,100,B,Unlimited,No,225,235,-250,235,,,,,,,Pro Open,35,1982-08-03
M,Denis Tretyakov,1,109.4,,,,,,,250,110,B,Unlimited,No,-230,230,250,250,,,,,,,Pro Open,31,1986-12-18
M,Aleksey Pavlikov,1,112.5,,,,,,,335,125,B,Unlimited,No,325,335,-352.5,335,,,,,,,Pro Open,35,1982-07-21
M,Denis Murin,2,113.1,,,,,,,305,125,B,Unlimited,No,-305,305,-315,305,,,,,,,Pro Open,38,1979-09-17
M,Vyacheslav Romanenko,3,123.7,Flex,,,,,,305,125,B,Unlimited,No,265,285,305,305,,,,,,,Pro Open,41,1977-05-27
M,Andrey Vorontsov,1,114.8,,,,,,,300,125,B,Unlimited,No,-300,-300,300,300,,,,,,,Pro Masters 45-49,49,1969-06-06
F,Violetta Kruk,1,51.9,,,,,,,80,52,B,Single-ply,No,75,80,-85,80,,,,,,,Pro Open,28,1989-07-26
F,Natalya Razloma,1,54.2,,,,,,,37.5,56,B,Raw,No,35,-37.5,37.5,37.5,,,,,,,Pro Open,28,1990-02-04
F,Aleksandra Nedorchuk,1,67.5,Painkiller,,,,,,105,67.5,B,Raw,No,95,102.5,105,105,,,,,,,Pro Open,28,1990-03-05
F,Yelena Martynenko,1,69.7,samostoyatelno,,,,,,115,75,B,Raw,No,107.5,112.5,115,115,,,,,,,Pro Open,36,1981-07-21
M,Roman Degtyarenko,1,65.1,,,,,,,132.5,67.5,B,Raw,No,115,127.5,132.5,132.5,,,,,,,Pro Open,33,1985-07-14
M,Oleg Solonenko,1,72.8,,,,,,,125,75,B,Raw,No,-120,125,-130,125,,,,,,,Pro Open,47,1970-09-26
M,Aleksandr Petruk,2,71.9,,,,,,,120,75,B,Raw,No,115,120,-125,120,,,,,,,Pro Open,39,1978-09-18
M,Ivan Konyakhin,1,72.8,,,,,,,145,75,B,Raw,No,125,135,145,145,,,,,,,Pro Masters 40-44,44,1974-04-13
M,Oleg Solonenko,1,72.8,,,,,,,125,75,B,Raw,No,-120,125,-130,125,,,,,,,Pro Masters 45-49,47,1970-09-26
M,Nail Faizov,1,73.7,,,,,,,72.5,75,B,Raw,No,62.5,67.5,72.5,72.5,,,,,,,Pro Masters 75-79,77,1941-06-19
M,Yegor Kolesnikov,1,81.3,,,,,,,190,82.5,B,Raw,No,190,-197.5,-197.5,190,,,,,,,Pro Juniors 20-23,23,1994-09-06
M,Yegor Kolesnikov,1,81.3,,,,,,,190,82.5,B,Raw,No,190,-197.5,-197.5,190,,,,,,,Pro Open,23,1994-09-06
M,Aleksey Pimakhov,2,78.9,,,,,,,157.5,82.5,B,Raw,No,147.5,157.5,-170,157.5,,,,,,,Pro Open,37,1980-08-21
M,Ruslan Sharinov,3,81.7,,,,,,,155,82.5,B,Raw,No,140,150,155,155,,,,,,,Pro Open,27,1990-08-05
M,Aleksandr Tsmyg,1,82.2,,,,,,,155,82.5,B,Raw,No,145,150,155,155,,,,,,,Pro Masters 50-54,54,1963-10-20
M,Sergey Yefremenko,1,88.2,,,,,,,200,90,B,Raw,No,188,-195,200,200,-207.5,,,,,,Pro Teen 18-19,19,1999-03-28
M,Albert Archvava,1,88.3,,,,,,,190,90,B,Raw,No,-190,190,-200,190,,,,,,,Pro Open,28,1989-07-21
M,Leonid Tikhonov,1,89.8,,,,,,,172.5,90,B,Raw,No,160,172.5,-177.5,172.5,,,,,,,Pro Masters 55-59,55,1963-03-25
M,Pavel Prikhodko,1,99.8,,,,,,,227.5,100,B,Raw,No,215,222.5,227.5,227.5,,,,,,,Pro Open,38,1980-05-23
M,Igor Anikin,2,91.5,,,,,,,190,100,B,Raw,No,175,185,190,190,,,,,,,Pro Open,51,1967-06-30
M,Maksim Utenkov,3,97.2,,,,,,,180,100,B,Raw,No,-165,180,-190,180,,,,,,,Pro Open,26,1992-04-11
M,Dmitriy Gritsayenko,4,98.7,,,,,,,177.5,100,B,Raw,No,167.5,175,177.5,177.5,,,,,,,Pro Open,39,1979-07-17
M,Konstantin Melyanovskiy,1,97.7,,,,,,,170,100,B,Raw,No,155,-165,170,170,,,,,,,Pro Masters 40-44,42,1975-11-13
M,Igor Anikin,1,91.5,,,,,,,190,100,B,Raw,No,175,185,190,190,,,,,,,Pro Masters 50-54,51,1967-06-30
M,Vyacheslav Ten,1,105.1,Atlant,,,,,,215,110,B,Raw,No,200,207.5,215,215,,,,,,,Pro Open,31,1987-02-21
M,Viktor Artemyev,2,106.4,Painkiller,,,,,,200,110,B,Raw,No,190,-200,200,200,,,,,,,Pro Open,28,1989-11-22
M,Maksim Bezlepkin,3,107.3,Steel Brother,,,,,,190,110,B,Raw,No,-190,190,-197.5,190,,,,,,,Pro Open,32,1985-12-12
M,Yuriy Kukshin,4,107.6,,,,,,,185,110,B,Raw,No,-180,180,185,185,,,,,,,Pro Open,31,1987-02-07
M,German Veledeyev,1,107.5,Steel Brother,,,,,,210,110,B,Raw,No,205,210,-215,210,,,,,,,Pro Masters 45-49,49,1969-04-27
M,Vadim Portnyagin,1,123.4,,,,,,,230,125,B,Raw,No,-220,230,-235,230,,,,,,,Pro Open,33,1985-04-03
M,Vladimir Rudi,2,120.2,,,,,,,225,125,B,Raw,No,215,225,-232.5,225,,,,,,,Pro Open,43,1975-02-23
M,Vyacheslav Romanenko,3,123.7,Flex,,,,,,215,125,B,Raw,No,200,210,215,215,,,,,,,Pro Open,41,1977-05-27
M,Grigoriy Primak,DQ,122.7,Painkiller,,,,,,,125,B,Raw,No,-220,,,,,,,,,,Pro Open,39,1978-12-04
M,Vladimir Rudi,1,120.2,,,,,,,225,125,B,Raw,No,215,225,-232.5,225,,,,,,,Pro Masters 40-44,43,1975-02-23
M,Andrey Vorontsov,1,114.8,,,,,,,215,125,B,Raw,No,200,210,215,215,,,,,,,Pro Masters 45-49,49,1969-06-06
M,Aleksandr Kovalevskiy,1,136.9,,,,,,,215,140,B,Raw,No,210,-215,215,215,,,,,,,Pro Open,55,1963-03-13
M,Vasiliy Ostanin,DQ,127.5,Steel Brother,,,,,,,140,B,Raw,No,-190,-200,-205,,,,,,,,Pro Masters 40-44,44,1974-05-18
M,Aleksandr Kovalevskiy,1,136.9,,,,,,,215,140,B,Raw,No,210,-215,215,215,,,,,,,Pro Masters 55-59,55,1963-03-13
F,Violetta Kruk,1,51.9,,147.5,,,147.5,,387.5,52,SBD,Single-ply,No,75,-85,-85,75,,165,-180,-180,165,,Pro Open,28,1989-07-26
M,Mikhail Shirokov,1,107.6,,320,327.5,-332.5,327.5,,920,110,SBD,Single-ply,No,240,247.5,-252.5,247.5,,-325,335,345,345,,Pro Teen 18-19,19,1999-06-06
M,Mikhail Shirokov,1,107.6,,320,327.5,-332.5,327.5,,920,110,SBD,Single-ply,No,240,247.5,-252.5,247.5,,-325,335,345,345,,Pro Open,19,1999-06-06
F,Kseniya Burchenkova,1,54.5,Atlant,120,130,140,140,,365,56,SBD,Raw,No,65,70,75,75,,140,-150,150,150,,Pro Open,26,1992-03-01
F,Irina Shishkovskaya,1,59.6,,120,130,140,140,,330,60,SBD,Raw,No,65,70,-72.5,70,,-110,110,120,120,,Pro Masters 45-49,45,1973-05-12
F,Ketevan Namoradze,1,58.1,,-120,120,,120,,290,60,SBD,Raw,No,55,-60,-60,55,,-110,110,115,115,,Pro Masters 55-59,57,1961-07-17
F,Aleksandra Nedorchuk,1,67.5,Painkiller,150,160,-165,160,,440,67.5,SBD,Raw,No,-95,100,-105,100,,160,170,180,180,,Pro Open,28,1990-03-05
F,Tatyana Garacheva,2,66,,150,170,,170,,405,67.5,SBD,Raw,No,67.5,75,-77.5,75,,140,155,160,160,,Pro Open,32,1986-06-07
F,Kseniya Plakhuta,3,66.5,,120,,,120,,305,67.5,SBD,Raw,No,65,-72.5,-72.5,65,,-120,-120,120,120,,Pro Open,30,1987-11-11
M,Oleg Solonenko,1,72.8,,180,190,200,200,,520,75,SBD,Raw,No,120,130,,130,,170,180,190,190,,Pro Open,47,1970-09-26
M,Oleg Solonenko,1,72.8,,180,190,200,200,,520,75,SBD,Raw,No,120,130,,130,,170,180,190,190,,Pro Masters 45-49,47,1970-09-26
M,Ivan Troyanov,1,88.3,Bodi,275,-290,-290,275,,750,90,SBD,Raw,No,185,-200,-200,185,,-280,290,-300,290,,Pro Open,31,1987-01-14
M,Aleksandr Kozyura,1,97.7,,270,285,-295,285,,745,100,SBD,Raw,No,155,-160,-160,155,,285,295,305,305,,Pro Open,36,1982-01-26
M,Maksim Frey,2,97.4,,252.5,262.5,,262.5,,687.5,100,SBD,Raw,No,160,167.5,172.5,172.5,,252.5,-260,,252.5,,Pro Open,28,1990-06-21
M,Petr Zolotuyev,3,97.6,,260,-280,-282.5,260,,627.5,100,SBD,Raw,No,125,132.5,-140,132.5,,220,235,-245,235,,Pro Open,25,1992-08-01
M,Aleksey Vanyashev,1,108.4,Faust,260,-270,-270,260,,750,110,SBD,Raw,No,175,185,190,190,,275,290,300,300,,Pro Open,37,1981-01-10
M,Andrey Demekhov,2,109,,265,287.5,,287.5,,737.5,110,SBD,Raw,No,160,-165,165,165,,265,-285,285,285,,Pro Open,34,1984-04-30
M,Boris Borisov,3,108.3,,240,250,-255,250,,675,110,SBD,Raw,No,155,-165,170,170,,240,255,-260,255,,Pro Open,29,1989-03-11
M,Igor Luzin,1,97.5,Medved,210,220,230,230,,615,100,SBD,Raw,No,145,152.5,155,155,,200,220,230,230,,Pro Masters 45-49,48,1969-11-04
M,Mikhail Rostovtsev,1,91.7,,215,225,235,235,,602.5,100,SBD,Raw,No,137.5,142.5,147.5,147.5,,200,210,220,220,,Pro Masters 60-64,60,1958-05-28
M,Anton Demekhov,1,100.9,,230,250,-260,250,,577.5,110,SBD,Raw,No,120,127.5,-132.5,127.5,,170,185,200,200,,Pro Open,27,1991-06-15
M,Oleg Barashev,1,137.3,Steel Brother,280,285,-295,285,,767.5,140,SBD,Raw,No,190,200,202.5,202.5,,265,280,-282.5,280,,Pro Masters 40-44,42,1975-10-31
