Tested,Equipment,Place,Name,Division,BirthYear,BodyweightKg,Bench1Kg,Bench2Kg,Bench3Kg,Best3BenchKg,Bench4Kg,WeightClassKg,Sex,CyrillicName,Squat1Kg,Squat2Kg,Squat3Kg,Best3SquatKg,Deadlift1Kg,Deadlift2Kg,Deadlift3Kg,Best3DeadliftKg,TotalKg,Event
Yes,Raw,1,Mariya Lapshova,Amateur Teen 18-19,1991,43.2,30,35,-40,35,,,F,Мария Лапшова,,,,,,,,,35,B
Yes,Raw,2,Anna Ryblova,Amateur Juniors 20-23,1987,65.7,40,-45,45,45,,,F,Анна Рыблова,,,,,,,,,45,B
Yes,Raw,3,Darya Golomazova,Amateur Juniors 20-23,1988,54.5,45,-50,-52.5,45,,,F,Дарья Голомазова,,,,,,,,,45,B
Yes,Raw,4,Ekaterina Obrazumova,Amateur Juniors 20-23,1987,43.2,42.5,45,-47.5,45,,,F,Екатерина Образумова,,,,,,,,,45,B
Yes,Raw,5,Vera Komarova,Amateur Juniors 20-23,1988,64.3,35,37.5,,37.5,,,F,Вера Комарова,,,,,,,,,37.5,B
Yes,Raw,DD,Irina Kochetkova,Amateur Juniors 20-23,1986,58.9,67.5,-72.5,72.5,72.5,,,F,Ирина Кочеткова,,,,,,,,,,B
Yes,Raw,1,Anastasiya Yablonskaya,Amateur Open,1981,59.4,62.5,72.5,75,75,,,F,Анастасия Яблонская,,,,,,,,,75,B
Yes,Raw,2,Natalya Demyanenko,Amateur Open,1971,63,55,60,-62.5,60,,,F,Наталья Демьяненко,,,,,,,,,60,B
Yes,Raw,3,Elena Tkacheva,Amateur Open,1984,49.2,-37.5,37.5,42.5,42.5,,,F,Елена Ткачева,,,,,,,,,42.5,B
Yes,Raw,DQ,Dmitriy Arkhipov,Amateur Teen 13-15,1994,59.3,-80,,,,,60,M,Дмитрий Архипов,,,,,,,,,,B
Yes,Raw,1,Sergey Kievskiy,Amateur Teen 16-17,1992,63.9,95,-100,-100,95,,67.5,M,Сергей Киевский,,,,,,,,,95,B
Yes,Raw,1,Yaroslav Gorin,Amateur Teen 18-19,1989,65.2,100,115,120,120,,67.5,M,Ярослав Горин,,,,,,,,,120,B
Yes,Raw,2,Denis Korolev,Amateur Teen 18-19,1990,65.3,-100,105,-115,105,,67.5,M,Денис Королев,,,,,,,,,105,B
Yes,Raw,1,Sergei Karaziya,Amateur Juniors 20-23,1987,62.7,130,140,-145,140,,67.5,M,Сергей Каразия,,,,,,,,,140,B
Yes,Raw,2,Andrey Kraykov,Amateur Juniors 20-23,1987,64.7,115,125,-130,125,,67.5,M,Андрей Крайков,,,,,,,,,125,B
Yes,Raw,3,Vitaliy Skripkin,Amateur Juniors 20-23,1988,66.6,100,115,-117.5,115,,67.5,M,Виталий Скрипкин,,,,,,,,,115,B
Yes,Raw,DQ,Aleksandr Kukharenko,Amateur Open,1981,67.2,-115,-115,-115,,,67.5,M,Александр Кухаренко,,,,,,,,,,B
Yes,Raw,DQ,Andrey Priselkov,Amateur Open,1990,63.7,-95,,,,,67.5,M,Андрей Приселков,,,,,,,,,,B
Yes,Raw,1,Aleksey Vistorobskiy,Amateur Teen 16-17,1992,69.3,90,-105,-105,90,,75,M,Алексей Висторобский,,,,,,,,,90,B
Yes,Raw,1,Vyacheslav Schekin,Amateur Juniors 20-23,1988,70.1,130,135,140,140,,75,M,Вячеслав Щекин,,,,,,,,,140,B
Yes,Raw,DQ,Andrey Savelyev,Amateur Juniors 20-23,1989,72,-85,-85,-85,,,75,M,Андрей Савельев,,,,,,,,,,B
Yes,Raw,1,Pavel Arkhipenko,Amateur Open,1985,74.2,130,140,145,145,,75,M,Павел Архипенко,,,,,,,,,145,B
Yes,Raw,2,Artem Larionov,Amateur Open,1978,74,125,130,140,140,,75,M,Артем Ларионов,,,,,,,,,140,B
Yes,Raw,3,Sergey Gurkovskiy,Amateur Open,1990,72.2,120,125,130,130,,75,M,Сергей Гурковский,,,,,,,,,130,B
Yes,Raw,4,Ruslan Shlykov,Amateur Open,1974,72.5,125,-130,,125,,75,M,Руслан Шлыков,,,,,,,,,125,B
Yes,Raw,5,Semen Lobov,Amateur Open,1985,73.7,125,-130,-130,125,,75,M,Семен Лобов,,,,,,,,,125,B
Yes,Raw,6,Shomusa Saidibragimov,Amateur Open,1978,70.3,105,-115,115,115,,75,M,Шомуса Саидибрагимов,,,,,,,,,115,B
Yes,Raw,1,Yuriy Tarbonov,Amateur Juniors 20-23,1987,78.8,140,-150,-150,140,,82.5,M,Юрий Тарбонов,,,,,,,,,140,B
Yes,Raw,2,Nikolay Balugin,Amateur Juniors 20-23,1987,75.4,115,120,125,125,,82.5,M,Николай Балугин,,,,,,,,,125,B
Yes,Raw,3,Aleksey Trofimov,Amateur Juniors 20-23,1989,78.8,90,-95,,90,,82.5,M,Алексей Трофимов,,,,,,,,,90,B
Yes,Raw,1,Andrey Kamyshov,Amateur Open,1975,80.5,-150,155,-160,155,,82.5,M,Андрей Камышов,,,,,,,,,155,B
Yes,Raw,2,Stanislav Rozanov,Amateur Open,1985,80.5,140,-145,-145,140,,82.5,M,Станислав Розанов,,,,,,,,,140,B
Yes,Raw,3,Denis Tonkikh,Amateur Open,1976,82.1,140,-145,-150,140,,82.5,M,Денис Тонких,,,,,,,,,140,B
Yes,Raw,4,Sergey Folomeev,Amateur Open,1978,81.8,-125,130,-135,130,,82.5,M,Сергей Фоломеев,,,,,,,,,130,B
Yes,Raw,5,Mikhail Dorofeev,Amateur Open,1984,81.9,115,-132.5,-132.5,115,,82.5,M,Михаил Дорофеев,,,,,,,,,115,B
Yes,Raw,6,Stanislav Lebedev,Amateur Open,1983,76.9,110,-115,115,115,,82.5,M,Станислав Лебедев,,,,,,,,,115,B
Yes,Raw,DQ,Roman Kudryavtsev,Amateur Open,1980,81.1,-140,-140,-150,,,82.5,M,Роман Кудрявцев,,,,,,,,,,B
Yes,Raw,1,Alexander Vorobyev,Amateur Masters 40-44,1967,80.5,140,145,150,150,,82.5,M,Александр Воробьев,,,,,,,,,150,B
Yes,Raw,1,Vladimir Kornishin,Amateur Masters 55-59,1952,76.9,100,105,-107.5,105,,82.5,M,Владимир Корнишин,,,,,,,,,105,B
Yes,Raw,1,Sergey Saidov,Amateur Teen 18-19,1990,85.6,152.5,157.5,-160,157.5,,90,M,Сергей Саидов,,,,,,,,,157.5,B
Yes,Raw,1,Vladimir Ponasenkov,Amateur Juniors 20-23,1985,85.3,155,160,-162.5,160,,90,M,Владимир Понасенков,,,,,,,,,160,B
Yes,Raw,2,Dmitriy Nikolaevskiy,Amateur Juniors 20-23,1989,87.7,140,145,150,150,,90,M,Дмитрий Николаевский,,,,,,,,,150,B
Yes,Raw,3,Valeriy Siukhin,Amateur Juniors 20-23,1988,86.5,130,-137.5,137.5,137.5,,90,M,Валерий Сиухин,,,,,,,,,137.5,B
Yes,Raw,DQ,Andrey Surovikov,Amateur Juniors 20-23,1986,86.5,-150,,,,,90,M,Андрей Суровиков,,,,,,,,,,B
Yes,Raw,1,Aleksey Ladyko,Amateur Open,1977,87.9,160,175,185,185,,90,M,Алексей Ладыко,,,,,,,,,185,B
Yes,Raw,2,Denis Popov,Amateur Open,1982,88.9,160,167.5,172.5,172.5,,90,M,Денис Попов,,,,,,,,,172.5,B
Yes,Raw,3,Nikolay Karakcheev,Amateur Open,1974,85.8,160,-170,170,170,,90,M,Николай Каракчеев,,,,,,,,,170,B
Yes,Raw,4,Sergey Romanov,Amateur Open,1981,88.7,155,160,165,165,,90,M,Сергей Романов,,,,,,,,,165,B
Yes,Raw,5,Roman Artamonov,Amateur Open,1974,88.7,150,155,-160,155,,90,M,Роман Артамонов,,,,,,,,,155,B
Yes,Raw,6,Dmitriy Nosov,Amateur Open,1971,88.3,-152.5,155,-157.5,155,,90,M,Дмитрий Носов,,,,,,,,,155,B
Yes,Raw,7,Aleksey Kocheshkov,Amateur Open,1976,85.3,137.5,140,142.5,142.5,,90,M,Алексей Кочешков,,,,,,,,,142.5,B
Yes,Raw,8,Oleg Paramonov,Amateur Open,1973,89.7,125,137.5,-142.5,137.5,,90,M,Олег Парамонов,,,,,,,,,137.5,B
Yes,Raw,9,Evgeniy Chirkov,Amateur Open,1983,85.8,137.5,-145,-145,137.5,,90,M,Евгений Чирков,,,,,,,,,137.5,B
Yes,Raw,DQ,Maksim Safin,Amateur Open,1983,89.3,-137.5,-140,-140,,,90,M,Максим Сафин,,,,,,,,,,B
Yes,Raw,1,Konstantin Arkhangelskiy,Amateur Masters 45-49,1964,90,155,160,165,165,,90,M,Константин Архангельский,,,,,,,,,165,B
Yes,Raw,2,Sergey Anosov,Amateur Masters 45-49,1964,86.6,-160,160,-162.5,160,,90,M,Сергей Аносов,,,,,,,,,160,B
Yes,Raw,DQ,Igor Khrustalev,Amateur Masters 45-49,1964,89,-120,-130,,,,90,M,Игорь Хрусталев,,,,,,,,,,B
Yes,Raw,1,Anatoliy Zaguskin,Amateur Masters 55-59,1949,90,100,110,-115,110,,90,M,Анатолий Загускин,,,,,,,,,110,B
Yes,Raw,1,Stanislav Moskalenko,Amateur Teen 16-17,1992,99.6,162.5,170,-172.5,170,,100,M,Станислав Москаленко,,,,,,,,,170,B
Yes,Raw,1,Ivan Sukin,Amateur Teen 18-19,1990,99.9,160,170,-180,170,,100,M,Иван Сукин,,,,,,,,,170,B
Yes,Raw,2,Dmitriy Mukozobov,Amateur Teen 18-19,1991,91.5,130,-135,-137.5,130,,100,M,Дмитрий Мукозобов,,,,,,,,,130,B
Yes,Raw,1,Dmitriy Kuleshov,Amateur Juniors 20-23,1988,100,147.5,165,180,180,,100,M,Дмитрий Кулешов,,,,,,,,,180,B
Yes,Raw,2,Artem Garagulya,Amateur Juniors 20-23,1988,99.3,135,142.5,-145,142.5,,100,M,Артем Гарагуля,,,,,,,,,142.5,B
Yes,Raw,DQ,Sergey Kalinin,Amateur Juniors 20-23,1989,97.3,-155,,,,,100,M,Сергей Калинин,,,,,,,,,,B
Yes,Raw,1,Maksim Koteshkov,Amateur Open,1980,96.1,162.5,180,-190,180,,100,M,Максим Котешков,,,,,,,,,180,B
Yes,Raw,2,Aleksandr Kuznetsov #1,Amateur Open,1979,97.9,175,180,-185,180,,100,M,Александр Кузнецов,,,,,,,,,180,B
Yes,Raw,3,Andrey Zinovyev,Amateur Open,1975,97.2,150,162.5,170,170,,100,M,Андрей Зиновьев,,,,,,,,,170,B
Yes,Raw,4,Vasiliy Lisitsyn,Amateur Open,1973,91.7,155,165,-170,165,,100,M,Василий Лисицын,,,,,,,,,165,B
Yes,Raw,5,Aleksandr Bykov,Amateur Open,1974,100,165,-170,-170,165,,100,M,Александр Быков,,,,,,,,,165,B
Yes,Raw,6,Nikolay Alyshev,Amateur Open,1985,97.5,150,162.5,-165,162.5,,100,M,Николай Алышев,,,,,,,,,162.5,B
Yes,Raw,7,Samat Aytmagambetov,Amateur Open,1984,97.6,152.5,162.5,-172.5,162.5,,100,M,Самат Айтмагамбетов,,,,,,,,,162.5,B
Yes,Raw,8,Alexei Smorkalov,Amateur Open,1979,99.9,150,155,-162.5,155,,100,M,Алексей Сморкалов,,,,,,,,,155,B
Yes,Raw,9,Aleksey Mishanenkov,Amateur Open,1978,96.2,142.5,-150,150,150,,100,M,Алексей Мишаненков,,,,,,,,,150,B
Yes,Raw,10,Igor Allenov,Amateur Open,1977,98.4,150,-155,-155,150,,100,M,Игорь Алленов,,,,,,,,,150,B
Yes,Raw,11,Andrey Myakshin,Amateur Open,1971,98.8,130,142.5,150,150,,100,M,Андрей Мякшин,,,,,,,,,150,B
Yes,Raw,12,Sergey Chigarikhin,Amateur Open,1978,95.9,142.5,-147.5,147.5,147.5,,100,M,Сергей Чигарихин,,,,,,,,,147.5,B
Yes,Raw,13,Sergey Ivanchikov,Amateur Open,1977,99.1,147.5,-150,-155,147.5,,100,M,Сергей Иванчиков,,,,,,,,,147.5,B
Yes,Raw,14,Dmitriy Gusev,Amateur Open,1985,93.3,135,142.5,-145,142.5,,100,M,Дмитрий Гусев,,,,,,,,,142.5,B
Yes,Raw,15,Sergey Kucher,Amateur Open,1985,97.9,-142.5,142.5,-145,142.5,,100,M,Сергей Кучер,,,,,,,,,142.5,B
Yes,Raw,16,Dmitriy Yurinov,Amateur Open,1986,93.6,142.5,-162.5,,142.5,,100,M,Дмитрий Юринов,,,,,,,,,142.5,B
Yes,Raw,17,Evgeniy Filonov,Amateur Open,1984,98.6,142.5,-162.5,-162.5,142.5,,100,M,Евгений Филонов,,,,,,,,,142.5,B
Yes,Raw,18,Andrey Ivanov,Amateur Open,1972,97.3,135,142.5,-147.5,142.5,,100,M,Андрей Иванов,,,,,,,,,142.5,B
Yes,Raw,DQ,Andrey Galochka,Amateur Open,1980,97.7,-142.5,,,,,100,M,Андрей Галочка,,,,,,,,,,B
Yes,Raw,DQ,Denis Ryzhiy,Amateur Open,1977,99.5,-162.5,-162.5,-162.5,,,100,M,Денис Рыжий,,,,,,,,,,B
Yes,Raw,DQ,Roman Shulenin,Amateur Open,1975,99.7,-145,-145,-145,,,100,M,Роман Шуленин,,,,,,,,,,B
Yes,Raw,1,Andrey Anurin,Amateur Masters 40-44,1965,97.5,170,180,-185,180,,100,M,Андрей Анурин,,,,,,,,,180,B
Yes,Raw,2,Aleksandr Goryunov,Amateur Masters 40-44,1966,97.2,-160,160,162.5,162.5,,100,M,Александр Горюнов,,,,,,,,,162.5,B
Yes,Raw,3,Aleksandr Kropin,Amateur Masters 40-44,1968,93.4,150,-155,160,160,,100,M,Александр Кропин,,,,,,,,,160,B
Yes,Raw,1,Sergey Kalinkin,Amateur Masters 45-49,1963,97.3,-155,155,-162.5,155,,100,M,Сергей Калинкин,,,,,,,,,155,B
Yes,Raw,2,Aleksey Gorkov,Amateur Masters 45-49,1960,98.7,135,142.5,-150,142.5,,100,M,Алексей Горьков,,,,,,,,,142.5,B
Yes,Raw,3,Andrei Sukin,Amateur Masters 45-49,1963,97.6,115,120,125,125,,100,M,Андрей Сукин,,,,,,,,,125,B
Yes,Raw,1,Denis Grebnev,Amateur Juniors 20-23,1986,101.5,200,-220,-225,200,,110,M,Денис Гребнев,,,,,,,,,200,B
Yes,Raw,2,Ruslan Muravyev,Amateur Juniors 20-23,1985,103.4,140,150,,150,,110,M,Руслан Муравьев,,,,,,,,,150,B
Yes,Raw,1,Aleksandr Petrov,Amateur Open,1979,106.6,180,190,197.5,197.5,,110,M,Александр Петров,,,,,,,,,197.5,B
Yes,Raw,2,Maksim Lykov,Amateur Open,1980,106.4,185,195,-200,195,,110,M,Максим Лыков,,,,,,,,,195,B
Yes,Raw,3,Evgeniy Zorin,Amateur Open,1979,101.4,175,180,185,185,,110,M,Евгений Зорин,,,,,,,,,185,B
Yes,Raw,4,Denis Plotnikov,Amateur Open,1978,107.1,167.5,175,-180,175,,110,M,Денис Плотников,,,,,,,,,175,B
Yes,Raw,5,Valentin Chekrenev,Amateur Open,1984,109.1,167.5,-175,-175,167.5,,110,M,Валентин Чекренев,,,,,,,,,167.5,B
Yes,Raw,6,Andrey Semenov,Amateur Open,1974,108.1,160,167.5,-180,167.5,,110,M,Андрей Семенов,,,,,,,,,167.5,B
Yes,Raw,7,Vladimir Salkov,Amateur Open,1971,103.2,160,-167.5,,160,,110,M,Владимир Сальков,,,,,,,,,160,B
Yes,Raw,8,Vasiliy Myachin,Amateur Open,1980,101.8,147.5,-167.5,-167.5,147.5,,110,M,Василий Мячин,,,,,,,,,147.5,B
Yes,Raw,DQ,Yuriy Romanov #1,Amateur Open,1983,107.9,-155,,,,,110,M,Юрий Романов,,,,,,,,,,B
Yes,Raw,1,Aleksey Scherbachev,Amateur Masters 40-44,1968,100.9,175,185,190,190,,110,M,Алексей Щербачев,,,,,,,,,190,B
Yes,Raw,2,Igor Simanovskiy,Amateur Masters 40-44,1965,109.3,175,185,-190.5,185,,110,M,Игорь Симановский,,,,,,,,,185,B
Yes,Raw,3,Aleksandr Scherbak,Amateur Masters 40-44,1966,109.1,147.5,152.5,155,155,,110,M,Александр Щербак,,,,,,,,,155,B
Yes,Raw,1,Igor Ivchenkov,Amateur Open,1980,121.1,185,-195,195,195,,125,M,Игорь Ивченков,,,,,,,,,195,B
Yes,Raw,2,Dmitriy Smirnov,Amateur Open,1973,112.2,-175,180,185,185,,125,M,Дмитрий Смирнов,,,,,,,,,185,B
Yes,Raw,3,Filipp Buravlev,Amateur Open,1979,123.9,175,180,-185,180,,125,M,Филипп Буравлев,,,,,,,,,180,B
Yes,Raw,5,Evgeniy Rogozhnikov,Amateur Open,1979,114.2,-160,165,-172.5,165,,125,M,Евгений Рогожников,,,,,,,,,165,B
Yes,Raw,6,Evgeniy Povtarev,Amateur Open,1976,117.2,130,145,155,155,,125,M,Евгений Повтарев,,,,,,,,,155,B
Yes,Raw,DQ,Vladimir Seleznev,Amateur Open,1977,116.9,-155,-155,,,,125,M,Владимир Селезнев,,,,,,,,,,B
Yes,Raw,DQ,Dmitry Smirnov,Amateur Open,1978,112.9,-175,-175,-175,,,125,M,Дмитрий Смирнов,,,,,,,,,,B
Yes,Raw,DD,Ilya Borzykin,Amateur Open,1982,118.3,165,175,-180,175,,125,M,Илья Борзыкин,,,,,,,,,,B
Yes,Raw,2,Igor Shulpin,Amateur Masters 45-49,1964,115.3,165,-170,-175,165,,125,M,Игорь Шульпин,,,,,,,,,165,B
Yes,Raw,3,Igor Dmitriev,Amateur Masters 45-49,1964,118.6,175,180,-185,180,,125,M,Игорь Дмитриев,,,,,,,,,180,B
Yes,Raw,DD,Vyacheslav Vanifantyev,Amateur Masters 45-49,1962,116,185,195,-205,195,,125,M,Вячеслав Ванифантьев,,,,,,,,,,B
Yes,Raw,DQ,Igor Plekhov,Amateur Masters 50-54,1959,115.2,-155,-155,-155,,,125,M,Игорь Плехов,,,,,,,,,,B
Yes,Raw,1,Denis Kondyakov,Amateur Open,1978,128.9,170,180,-190,180,,140,M,Денис Кондяков,,,,,,,,,180,B
Yes,Raw,2,Igor Zavadskiy,Amateur Open,1982,131.2,145,-150,-150,145,,140,M,Игорь Завадский,,,,,,,,,145,B
Yes,Raw,DQ,Roman Mishurenkov,Amateur Open,1982,133.2,-165,-165,,,,140,M,Роман Мишуренков,,,,,,,,,,B
Yes,Raw,1,Aleksey Starshov-Klementyev,Amateur Open,1978,150,182.5,200,205,205,,140+,M,Алексей Старшов-Клементьев,,,,,,,,,205,B
Yes,Raw,2,Aleksandr Naumov,Amateur Open,1975,148.7,190,202.5,-205,202.5,,140+,M,Александр Наумов,,,,,,,,,202.5,B
Yes,Multi-ply,1,Tatyana Melnikova,Amateur Juniors 20-23,1988,43.9,-42.5,42.5,-47.5,42.5,,,F,Татьяна Мельникова,,,,,,,,,42.5,B
Yes,Multi-ply,1,Aleksandr Dobrokhodov,Amateur Open,1981,58.3,117.5,122.5,-127.5,122.5,,60,M,Александр Доброходов,,,,,,,,,122.5,B
Yes,Multi-ply,1,Roman Tushin,Amateur Teen 18-19,1991,60.9,115,125,-130,125,,67.5,M,Роман Тушин,,,,,,,,,125,B
Yes,Multi-ply,1,Vladimir Kuvanov,Amateur Juniors 20-23,1989,81.2,145,-150,-150,145,,82.5,M,Владимир Куванов,,,,,,,,,145,B
Yes,Multi-ply,1,Vladislav Kharkov,Amateur Open,1975,81.8,-180,-180,180,180,,82.5,M,Владислав Харьков,,,,,,,,,180,B
Yes,Multi-ply,DQ,Stanislav Rozanov,Amateur Open,1985,80.5,-165,-165,-170,,,82.5,M,Станислав Розанов,,,,,,,,,,B
Yes,Multi-ply,1,Boris Koloskov,Amateur Juniors 20-23,1986,89.2,-165,-165,165,165,,90,M,Борис Колосков,,,,,,,,,165,B
Yes,Multi-ply,1,Denis Popov,Amateur Open,1982,88.9,210,220,225,225,,90,M,Денис Попов,,,,,,,,,225,B
Yes,Multi-ply,2,Vladimir Yaroshetskiy,Amateur Open,1982,86,-150,-150,150,150,,90,M,Владимир Ярошецкий,,,,,,,,,150,B
Yes,Multi-ply,DQ,Artem Sbitnev,Amateur Open,1984,86.6,-190,-190,-190,,,90,M,Артём Сбитнев,,,,,,,,,,B
Yes,Multi-ply,1,Ivan Sukin,Amateur Teen 18-19,1990,99.1,190,205,-215,205,,100,M,Иван Сукин,,,,,,,,,205,B
Yes,Multi-ply,2,Evgeniy Filonov,Amateur Open,1984,98.6,170,-192.5,-192.5,170,,100,M,Евгений Филонов,,,,,,,,,170,B
Yes,Multi-ply,DQ,Pavel Chidingov,Amateur Masters 40-44,1969,99.5,-200,-200,-200,,,100,M,Павел Чидингов,,,,,,,,,,B
Yes,Multi-ply,DQ,Aleksey Voronkov,Amateur Juniors 20-23,1989,113.7,-215,-215,-215,,,125,M,Алексей Воронков,,,,,,,,,,B
No,Raw,1,Aleksandr Kolodko,Pro Open,1983,67.4,140,-152.5,-152.5,140,,67.5,M,Александр Колодько,,,,,,,,,140,B
No,Raw,1,Ilya Pankratov,Pro Juniors 20-23,1986,71.9,155,-165,-165,155,,75,M,Илья Панкратов,,,,,,,,,155,B
No,Raw,1,Ruslan Bayramov,Pro Juniors 20-23,1986,77.1,132.5,-140,-140,132.5,,82.5,M,Руслан Байрамов,,,,,,,,,132.5,B
No,Raw,1,Igor Bogachev,Pro Open,1977,76.7,140,-155,-155,140,,82.5,M,Игорь Богачев,,,,,,,,,140,B
No,Raw,1,Dmitriy Kukharenko,Pro Masters 40-44,1969,81.4,162.5,167.5,172.5,172.5,-175,82.5,M,,,,,,,,,,172.5,B
No,Raw,1,Vladimir Fateev,Pro Masters 45-49,1964,82.3,-150,150,-155,150,,82.5,M,Владимир Фатеев,,,,,,,,,150,B
No,Raw,1,Aleksey Senatorov,Pro Juniors 20-23,1986,85.2,157.5,162.5,-167.5,162.5,,90,M,Алексей Сенаторов,,,,,,,,,162.5,B
No,Raw,2,Ilya Konkov,Pro Juniors 20-23,1989,89.8,125,130,-137.5,130,,90,M,Илья Коньков,,,,,,,,,130,B
No,Raw,DQ,Aleksandr Utkin,Pro Juniors 20-23,1989,88.9,-162.5,-162.5,,,,90,M,Александр Уткин,,,,,,,,,,B
No,Raw,1,Aleksandr Drosin,Pro Open,1982,87.9,195,-202.5,-202.5,195,,90,M,Александр Дросин,,,,,,,,,195,B
No,Raw,2,Aleksandr Vasilevskiy,Pro Open,1982,90,-162.5,165,-170,165,,90,M,Александр Василевский,,,,,,,,,165,B
No,Raw,3,Mikhail Solomatin,Pro Open,1970,86.8,155,162.5,-167.5,162.5,,90,M,Михаил Соломатин,,,,,,,,,162.5,B
No,Raw,4,Ivan Vakhromeev,Pro Open,1983,89.8,-160,162.5,-170,162.5,,90,M,Иван Вахромеев,,,,,,,,,162.5,B
No,Raw,5,Ruslan Savostyanov,Pro Open,1985,83.3,150,-165,-167.5,150,,90,M,Руслан Савостьянов,,,,,,,,,150,B
No,Raw,6,Denis Polyanskiy,Pro Open,1984,87.8,120,132.5,142.5,142.5,,90,M,Денис Полянский,,,,,,,,,142.5,B
No,Raw,DQ,Denis Rode,Pro Juniors 20-23,1986,90.7,-152.5,-152.5,-152.5,,,100,M,Денис Родэ,,,,,,,,,,B
No,Raw,1,Vitaly Mashkevich,Pro Juniors 20-23,1989,106.4,170,180,190,190,-195,110,M,Виталий Машкевич,,,,,,,,,190,B
No,Raw,1,Dmitriy Tenetko,Pro Open,1975,107.3,210,227.5,235,235,,110,M,Дмитрий Тенетко,,,,,,,,,235,B
No,Raw,2,Sergey Galkin,Pro Open,1981,109.6,185,192.5,195,195,,110,M,Сергей Галкин,,,,,,,,,195,B
No,Raw,3,Eduard Vinogradov,Pro Open,1974,106.3,155,170,187.5,187.5,,110,M,Эдуард Виноградов,,,,,,,,,187.5,B
No,Raw,4,Andrey Buryy,Pro Open,1983,107.5,177.5,187.5,-192.5,187.5,,110,M,Андрей Бурый,,,,,,,,,187.5,B
No,Raw,5,Aleksey Sankov,Pro Open,1981,105.2,165,177.5,-185,177.5,,110,M,Алексей Санков,,,,,,,,,177.5,B
No,Raw,DQ,Aleksandr Kononok,Pro Open,1981,101.9,-170,,,,,110,M,Александр Кононок,,,,,,,,,,B
No,Raw,DQ,Anton Matveev,Pro Open,1971,106.2,-192.5,-202.5,-202.5,,,110,M,Антон Матвеев,,,,,,,,,,B
No,Raw,DQ,Vadim Shamkov,Pro Open,1967,106.9,-170,-170,-170,,,110,M,Вадим Шамков,,,,,,,,,,B
No,Raw,1,Vyacheslav Filin,Pro Masters 45-49,1961,108.5,207.5,215,-220,215,,110,M,Вячеслав Филин,,,,,,,,,215,B
No,Raw,1,Andrey Luchkov,Pro Open,1965,112.7,227.5,,,227.5,,125,M,Андрей Лучков,,,,,,,,,227.5,B
No,Raw,2,Sergey Vorobyev,Pro Open,1979,117.2,200,-210,-210,200,,125,M,Сергей Воробьев,,,,,,,,,200,B
No,Raw,3,Aleksandr Borodin,Pro Open,1976,115.2,170,180,190,190,,125,M,Александр Бородин,,,,,,,,,190,B
No,Raw,1,Andrey Luchkov,Pro Masters 40-44,1965,112.7,220,-227.5,227.5,227.5,,125,M,Андрей Лучков,,,,,,,,,227.5,B
No,Raw,1,Viktor Kozlov,Pro Masters 45-49,1963,114.3,200,210,-217.5,210,,125,M,Виктор Козлов,,,,,,,,,210,B
No,Multi-ply,1,Dmitriy Osipov,Pro Juniors 20-23,1987,81.2,155,165,-175,165,,82.5,M,Дмитрий Осипов,,,,,,,,,165,B
No,Multi-ply,1,Dmitriy Osipov,Pro Open,1987,81.2,165,,,165,,82.5,M,Дмитрий Осипов,,,,,,,,,165,B
No,Multi-ply,DQ,Aleksandr Utkin,Pro Juniors 20-23,1989,88.9,-177.5,-177.5,-177.5,,,90,M,Александр Уткин,,,,,,,,,,B
No,Multi-ply,1,Sergey Kirilin,Pro Open,1985,89.8,180,-190,-190,180,,90,M,Сергей Кирилин,,,,,,,,,180,B
No,Multi-ply,1,Ilya Kirsanov,Pro Juniors 20-23,1987,93.7,230,240,250,250,,100,M,Илья Кирсанов,,,,,,,,,250,B
No,Multi-ply,DQ,Sergey Milovanov,Pro Juniors 20-23,1986,96.9,-185,-185,-185,,,100,M,Сергей Милованов,,,,,,,,,,B
No,Multi-ply,1,Grigoriy Lysov,Pro Open,1976,98,210,-220,-220,210,,100,M,Григорий Лысов,,,,,,,,,210,B
No,Multi-ply,2,Aleksey Kurochkin,Pro Open,1973,99.3,210,-220,-220,210,,100,M,Алексей Курочкин,,,,,,,,,210,B
No,Multi-ply,3,Mikhail Schegol'kov,Pro Open,1972,94,-175,185,195,195,,100,M,Михаил Щегольков,,,,,,,,,195,B
No,Multi-ply,DQ,Aleksey Zyuzin,Pro Open,1981,93.4,-240,-240,,,,100,M,Алексей Зюзин,,,,,,,,,,B
No,Multi-ply,1,Viktor Naydenov,Pro Juniors 20-23,1987,106.3,300,310,-315,310,,110,M,Виктор Найденов,,,,,,,,,310,B
No,Multi-ply,2,Sergey Starykh,Pro Juniors 20-23,1988,107.9,-190,-190,190,190,,110,M,Сергей Старых,,,,,,,,,190,B
No,Multi-ply,3,Igor Poryadin,Pro Juniors 20-23,1986,106.8,165,175,180,180,,110,M,Игорь Порядин,,,,,,,,,180,B
No,Multi-ply,1,Viktor Naydenov,Pro Open,1987,106.3,310,,,310,,110,M,Виктор Найденов,,,,,,,,,310,B
No,Multi-ply,2,Sergey Gromov,Pro Open,1966,103.7,270,,,270,,110,M,Сергей Громов,,,,,,,,,270,B
No,Multi-ply,3,Roman Koryabkin,Pro Open,1979,102.3,235,250,-260,250,,110,M,Роман Корябкин,,,,,,,,,250,B
No,Multi-ply,4,Aleksey Rudko,Pro Open,1973,106.4,240,-250,250,250,,110,M,Алексей Рудько,,,,,,,,,250,B
No,Multi-ply,5,Viktor Fursov,Pro Open,1974,107.6,235,-250,-260,235,,110,M,Виктор Фурсов,,,,,,,,,235,B
No,Multi-ply,DQ,Dmitry Gorbachev,Pro Open,1970,110,-305,-305,-305,,,110,M,Дмитрий Горбачев,,,,,,,,,,B
No,Multi-ply,1,Sergey Gromov,Pro Masters 40-44,1966,103.7,250,260,270,270,,110,M,Сергей Громов,,,,,,,,,270,B
No,Multi-ply,1,Dmitriy Permyakov,Pro Open,1975,118,300,-310,-310,300,,125,M,Дмитрий Пермяков,,,,,,,,,300,B
No,Multi-ply,2,Roman Zalutskiy,Pro Open,1979,117.4,290,-300,-302.5,290,,125,M,Роман Залуцкий,,,,,,,,,290,B
No,Multi-ply,3,Vadim Kiryushkin,Pro Open,1976,120.7,260,275,-282.5,275,,125,M,Вадим Кирюшкин,,,,,,,,,275,B
No,Multi-ply,4,Mikhail Slezkin,Pro Open,1975,114.8,-250,250,270,270,,125,M,Михаил Слезкин,,,,,,,,,270,B
No,Multi-ply,5,Roman Marychev,Pro Open,1988,122.3,-235,-235,235,235,,125,M,Роман Марачев,,,,,,,,,235,B
No,Multi-ply,DQ,Alexey Neklyudov,Pro Open,1964,112,-330,-330,-330,,,125,M,Алексей Неклюдов,,,,,,,,,,B
No,Multi-ply,DQ,Maksim Klepakov,Pro Open,1985,120,-260,-270,-270,,,125,M,Максим Клепаков,,,,,,,,,,B
No,Multi-ply,1,Dmitry Shvedov-Viardo,Pro Masters 40-44,1968,113.5,190,-200,,190,,125,M,Дмитрий Шведов-Виардо,,,,,,,,,190,B
No,Multi-ply,2,Oleg Zaytsev,Pro Masters 40-44,1969,115,-185,185,-190,185,,125,M,Олег Зайцев,,,,,,,,,185,B
No,Multi-ply,1,Evgeniy Arapov,Pro Masters 45-49,1963,111.7,250,262.5,270,270,,125,M,Евгений Арапов,,,,,,,,,270,B
No,Multi-ply,2,Viktor Kozlov,Pro Masters 45-49,1963,114.3,200,210,-217.5,210,,125,M,Виктор Козлов,,,,,,,,,210,B
No,Multi-ply,DQ,Alexey Neklyudov,Pro Masters 45-49,1964,112,-330,,,,,125,M,Алексей Неклюдов,,,,,,,,,,B
Yes,Multi-ply,1,Roman Tushin,Amateur Teen 18-19,1991,60,-115,115,122.5,122.5,,60,M,Роман Тушин,150,160,165,165,-152.5,152.5,,152.5,440,SBD
Yes,Multi-ply,2,Aleksandr Shmelev,Amateur Juniors 20-23,1986,60,62.5,70,-75,70,,60,M,Александр Шмелев,120,-130,130,130,150,157.5,-162.5,157.5,357.5,SBD
Yes,Multi-ply,1,Igor Filippov,Amateur Open,1984,65.2,95,102.5,-107.5,102.5,,67.5,M,Игорь Филиппов,152.5,160,165,165,180,190,-200,190,457.5,SBD
Yes,Multi-ply,1,Vladimir Kuvanov,Amateur Juniors 20-23,1989,80.4,145,150,-157.5,150,,82.5,M,Владимир Куванов,225,235,-245,235,-240,240,250,250,635,SBD
Yes,Multi-ply,DQ,Sergey Rasskazov,Amateur Juniors 20-23,1986,82.1,,,,,,82.5,M,Сергей Рассказов,-240,-240,-240,,,,,,,SBD
Yes,Multi-ply,DD,Aleksey Lazarev,Amateur Juniors 20-23,1987,98.5,90,140,-150,140,,100,M,Алексей Лазарев,220,240,-260,240,200,222.5,-252.5,222.5,,SBD
Yes,Multi-ply,1,Dmitriy Solovyev #3,Amateur Open,1983,97.6,180,-187.5,-190,180,,100,M,Дмитрий Соловьёв,-260,-270,275,275,-262.5,262.5,-275,262.5,717.5,SBD
Yes,Multi-ply,2,Dmitriy Kurinov,Amateur Open,1974,95,147.5,152.5,157.5,157.5,,100,M,Дмитрий Куринов,245,260,270,270,240,250,260,260,687.5,SBD
Yes,Multi-ply,1,Konstantin Belyaev,Amateur Open,1975,117.7,155,-162.5,-162.5,155,,125,M,Константин Беляев,280,290,300,300,230,250,260,260,715,SBD
Yes,Multi-ply,1,Denis Makeev,Amateur Open,1983,126.1,-145,145,150,150,,140,M,Денис Макеев,220,235,245,245,260,275,-282.5,275,670,SBD
Yes,Raw,1,Marina Savenkova,Amateur Open,1979,47.5,30,35,-37.5,35,,48,F,Марина Савенкова,62.5,67.5,-72.5,67.5,100,107.5,-117.5,107.5,210,SBD
Yes,Raw,1,Evgeniya Chelysheva,Amateur Juniors 20-23,1989,50.1,-35,-35,35,35,,52,F,Евгения Челышева,55,-62.5,-65,55,65,75,82.5,82.5,172.5,SBD
Yes,Raw,1,Yelena Klimenko,Amateur Open,1979,50.7,32.5,35,-37.5,35,,52,F,Елена Клименко,65,-70,-70,65,-102.5,102.5,110,110,210,SBD
Yes,Raw,2,Elena Tkacheva,Amateur Open,1984,50,35,-45,-45,35,,52,F,Елена Ткачева,50,60,70,70,60,70,80,80,185,SBD
Yes,Raw,1,Olga Andreeva,Amateur Juniors 20-23,1988,86.9,40,45,-50,45,,90,F,Ольга Андреева,80,90,97.5,97.5,85,100,107.5,107.5,250,SBD
Yes,Raw,1,Vasiliy Gordienko,Amateur Open,1972,56,85,90,-95,90,,56,M,Василий Гордиенко,110,117.5,-125,117.5,130,140,150,150,357.5,SBD
Yes,Raw,1,Pavel Kuleshov,Amateur Juniors 20-23,1986,59.9,80,85,-90,85,,60,M,Павел Кулешов,-100,110,-120,110,140,150,155,155,350,SBD
Yes,Raw,1,Vladislav Kantarzhi,Amateur Teen 16-17,1993,65.5,87.5,92.5,-97.5,92.5,,67.5,M,Владислав Кантаржи,-120,120,-127.5,120,165,170,175,175,387.5,SBD
Yes,Raw,2,Dmitriy Shavrin,Amateur Teen 16-17,1991,66.1,80,87.5,-92.5,87.5,,67.5,M,Дмитрий Шаврин,105,112.5,117.5,117.5,150,162.5,-170,162.5,367.5,SBD
Yes,Raw,3,Andrey Shavrin,Amateur Teen 16-17,1991,67.5,80,85,-90,85,,67.5,M,Андрей Шаврин,105,-112.5,-115,105,150,162.5,170,170,360,SBD
Yes,Raw,1,Mikhail Korolev,Amateur Juniors 20-23,1988,64.9,90,95,-100,95,,67.5,M,Михаил Королев,130,-140,-140,130,190,-200,-200,190,415,SBD
Yes,Raw,2,Valeriy Kuleshov,Amateur Juniors 20-23,1988,65.1,85,90,95,95,,67.5,M,Валерий Кулешов,100,110,120,120,135,140,145,145,360,SBD
Yes,Raw,3,Oleksandr Rudenok,Amateur Juniors 20-23,1987,66.7,70,-80,-80,70,,67.5,M,Олександр Руденок,120,-130,-130,120,140,-150,-150,140,330,SBD
Yes,Raw,1,Aleksandr Korchagin,Amateur Teen 16-17,1992,68.9,95,100,-102.5,100,,75,M,Александр Корчагин,-130,130,-137.5,130,-185,-192.5,192.5,192.5,422.5,SBD
Yes,Raw,2,Mikhail Kornachev,Amateur Teen 16-17,1992,74.3,70,-75,-75,70,,75,M,Михаил Корначев,110,-115,-115,110,-150,155,-165,155,335,SBD
Yes,Raw,1,Nikolay Balugin,Amateur Juniors 20-23,1987,73.8,115,120,-122.5,120,,75,M,Николай Балугин,170,-180,-180,170,165,170,172.5,172.5,462.5,SBD
Yes,Raw,2,Semen Vasyukov,Amateur Juniors 20-23,1986,71.3,102.5,107.5,-110,107.5,,75,M,Семен Васюков,140,-155,-155,140,-170,175,185,185,432.5,SBD
Yes,Raw,3,Sergey Alekhin,Amateur Juniors 20-23,1989,68.4,102.5,110,-112.5,110,,75,M,Сергей Алехин,-140,140,-145,140,-170,170,-180,170,420,SBD
Yes,Raw,1,Yuriy Knyazev,Amateur Open,1983,70.6,115,125,-130,125,,75,M,Юрий Князев,155,-160,-160,155,180,195,210,210,490,SBD
Yes,Raw,2,Vladimir Kudinov,Amateur Open,1970,72,95,100,-105,100,,75,M,Владимир Кудинов,110,120,130,130,150,162.5,175,175,405,SBD
Yes,Raw,1,Nikita Sumenkov,Amateur Teen 16-17,1991,81.3,90,-100,-100,90,,82.5,M,Никита Суменков,155,165,-172.5,165,-200,200,210,210,465,SBD
Yes,Raw,1,Yuriy Tarbonov,Amateur Juniors 20-23,1987,77.8,135,140,-145,140,,82.5,M,Юрий Тарбонов,170,175,180,180,220,230,235,235,555,SBD
Yes,Raw,2,Nikita Ryabchenko,Amateur Juniors 20-23,1989,78.8,115,117.5,120,120,,82.5,M,Никита Рябченко,152.5,162.5,-167.5,162.5,205,215,225,225,507.5,SBD
Yes,Raw,3,Aleksandr Kurtsaev,Amateur Juniors 20-23,1989,78,-110,110,-120,110,,82.5,M,Александр Курцаев,-155,-155,160,160,185,195,-205,195,465,SBD
Yes,Raw,4,Aleksey Voronin,Amateur Juniors 20-23,1986,76.6,80,-85,-85,80,,82.5,M,Алексей Воронин,-140,-155,155,155,190,200,-225,200,435,SBD
Yes,Raw,1,Vasiliy Perov,Amateur Open,1979,80.1,140,-150,-150,140,,82.5,M,Василий Перов,-200,200,210,210,220,230,242.5,242.5,592.5,SBD
Yes,Raw,2,Aleksandr Leonidov,Amateur Open,1981,80.1,125,130,-135,130,,82.5,M,Александр Леонидов,170,185,195,195,190,205,220,220,545,SBD
Yes,Raw,3,Viktor Mishunin,Amateur Open,1984,81.5,-130,-130,130,130,,82.5,M,Виктор Мишунин,140,-145,-145,140,190,-200,200,200,470,SBD
Yes,Raw,1,Mikhail Feklin,Amateur Open,1982,88.9,160,170,-180,170,,90,M,Михаил Феклин,220,230,-240,230,220,230,240,240,640,SBD
Yes,Raw,2,Aleksandr Gubanov,Amateur Open,1982,85.7,100,110,115,115,,90,M,Александр Губанов,140,-150,-160,140,180,200,210,210,465,SBD
Yes,Raw,3,Pavel Lavrentyev,Amateur Open,1982,85.8,125,-130,-130,125,,90,M,Павел Лаврентьев,145,155,-170,155,160,170,-177.5,170,450,SBD
Yes,Raw,1,Sergey Puchkov,Amateur Masters 45-49,1962,87.9,145,-150,150,150,,90,M,Сергей Пучков,180,190,195,195,185,195,202.5,202.5,547.5,SBD
Yes,Raw,1,Stanislav Moskalenko,Amateur Teen 16-17,1992,99.5,150,160,165,165,,100,M,Станислав Москаленко,200,210,220,220,200,225,250,250,635,SBD
Yes,Raw,DQ,Denis Filippov,Amateur Teen 18-19,1990,95.6,,,,,,100,M,Денис Филиппов,-170,-185,-190,,,,,,,SBD
Yes,Raw,1,Nafal Dadashov,Amateur Open,1982,92.9,-137.5,-140,140,140,,100,M,Нафал Дадашов,170,180,190,190,210,230,245,245,575,SBD
Yes,Raw,1,Roman Vyryvaev,Amateur Open,1983,106.5,160,-177.5,-177.5,160,,110,M,Роман Вырываев,-220,230,-240,230,230,240,247.5,247.5,637.5,SBD
Yes,Raw,2,Aleksandr Bit-Yukhan,Amateur Open,1969,103.3,170,,,170,,110,M,Александр Бит-Юхан,215,,,215,220,,,220,605,SBD
Yes,Raw,3,Igor Zarubov,Amateur Open,1971,106.7,150,-155,,150,,110,M,Игорь Зарубов,190,200,210,210,210,-220,-220,210,570,SBD
Yes,Raw,1,Aleksandr Bit-Yukhan,Amateur Masters 40-44,1969,103.3,150,160,170,170,,110,M,Александр Бит-Юхан,190,210,215,215,190,220,,220,605,SBD
Yes,Raw,1,Sergey Shuvalov,Amateur Open,1972,116,135,-145,-145,135,,125,M,Сергей Шувалов,195,205,210,210,240,255,-265,255,600,SBD
No,Multi-ply,1,Roksolana Ostapenko,Pro Open,1975,54.9,47.5,52.5,-55,52.5,,56,F,Роксолана Остапенко,-105,105,110,110,100,110,115,115,277.5,SBD
No,Multi-ply,1,Nadezhda Talikova,Pro Masters 45-49,1960,59.1,57.5,-62.5,-62.5,57.5,,60,F,Надежда Таликова,120,127.5,-132.5,127.5,145,-155,-155,145,330,SBD
No,Multi-ply,1,Vladimir Akatyev,Pro Open,1985,58.5,100,110,-115,110,,60,M,Владимир Акатьев,160,180,190,190,160,-170,170,170,470,SBD
No,Multi-ply,1,Vasiliy Tsvetkov,Pro Open,1981,73.8,165,175,-185,175,,75,M,Василий Цветков,-300,315,-330,315,240,260,-270,260,750,SBD
No,Multi-ply,1,Dmitriy Osipov,Pro Juniors 20-23,1987,80.4,150,160,170,170,,82.5,M,Дмитрий Осипов,230,245,-255,245,215,-230,,215,630,SBD
No,Multi-ply,1,Andrey Darbinyan,Pro Open,1977,81.1,135,-145,147.5,147.5,,82.5,M,Андрей Дарбинян,225,242.5,255,255,240,257.5,-265,257.5,660,SBD
No,Multi-ply,2,Dmitriy Osipov,Pro Open,1987,80.4,170,,,170,,82.5,M,Дмитрий Осипов,245,,,245,215,,,215,630,SBD
No,Multi-ply,3,Sergey Ivanov,Pro Open,1971,79.4,140,145,-150,145,,82.5,M,Сергей Иванов,-190,-200,200,200,-220,-220,220,220,565,SBD
No,Multi-ply,1,Nikita Morozov,Pro Masters 40-44,1968,82.2,170,-180,,170,,82.5,M,Никита Морозов,-255,255,-280,255,230,240,245,245,670,SBD
No,Multi-ply,1,Vladimir Tarbonov,Pro Masters 50-54,1954,77.4,-80,85,-95,85,,82.5,M,Владимир Тарбонов,160,-175,175,175,-160,170,190,190,450,SBD
No,Multi-ply,1,Georgiy Lazaridi,Pro Masters 75-79,1933,81,90,95,100,100,,82.5,M,Георгий Лазариди,185,195,200,200,-190,190,200,200,500,SBD
No,Multi-ply,1,Evgeniy Shigin,Pro Juniors 20-23,1988,85.2,130,137.5,140,140,,90,M,Евгений Шигин,-245,245,260,260,-220,220,230,230,630,SBD
No,Multi-ply,1,Klimentiy Bondarenko,Pro Open,1985,87,110,120,-125,120,,90,M,Климентий Бондаренко,-210,215,230,230,-200,220,-235,220,570,SBD
No,Multi-ply,DQ,Aleksey Yakovlev,Pro Open,1978,92.9,,,,,,100,M,Алексей Яковлев,-270,-270,-270,,,,,,,SBD
No,Multi-ply,DQ,Artem Savelyev,Pro Juniors 20-23,1988,106,,,,,,110,M,Артем Савельев,-350,-350,-350,,,,,,,SBD
No,Multi-ply,1,Yuri Marchenko,Pro Open,1995,104.7,120,145,-155,145,,110,M,Юрий Марченко,220,250,-270,250,200,-240,-260,200,595,SBD
No,Multi-ply,DQ,Aleksey Milovanov,Pro Open,1976,123.8,,,,,,125,M,Алексей Милованов,-370,-370,-370,,,,,,,SBD
No,Multi-ply,1,Vladimir Shmyrin,Pro Open,1984,131.4,210,220,230,230,,140,M,Владимир Шмырин,310,-330,330,330,-300,-320,-320,,560,SBD
No,Raw,1,Oxana Luzhina,Pro Open,1983,67.7,45,50,-55,50,,75,F,Оксана Лужина,100,110,-120,110,120,130,135,135,295,SBD
No,Raw,1,Olga Mironova,Pro Teen 18-19,1990,82.5,40,50,52.5,52.5,,82.5,F,Ольга Миронова,110,120,130,130,110,125,-140,125,307.5,SBD
No,Raw,1,Olga Mironova,Pro Open,1990,82.5,40,50,52.5,52.5,,82.5,F,Ольга Миронова,130,,,130,110,125,-140,125,307.5,SBD
No,Raw,1,Aleksey Kolenkin,Pro Open,1983,78.7,135,145,150,150,,82.5,M,Алексей Коленкин,165,175,-190,175,200,210,220,220,545,SBD
No,Raw,1,Konstantin Klinyushin,Pro Teen 18-19,1990,88.8,135,140,-145,140,,90,M,Константин Клинюшин,185,195,-205,195,230,245,-250,245,580,SBD
No,Raw,2,Andrey Suslov,Pro Teen 18-19,1990,85.4,110,115,120,120,,90,M,Андрей Суслов,160,-170,-170,160,200,220,-230,220,500,SBD
No,Raw,1,Vadim Rezvykh,Pro Juniors 20-23,1987,87.2,160,-170,170,170,,90,M,Вадим Резвых,240,250,-255,250,240,250,,250,670,SBD
No,Raw,2,Mikhail Bochkov,Pro Juniors 20-23,1988,88.6,140,150,-155,150,,90,M,Михаил Бочков,170,180,185,185,240,250,-255,250,585,SBD
No,Raw,DQ,Nikita Orlov,Pro Juniors 20-23,1987,89.6,-160,-170,-170,,,90,M,Никита Орлов,215,-225,-225,215,,,,,,SBD
No,Raw,1,Dmitry Gorelikov,Pro Masters 40-44,1968,87.4,120,127.5,132.5,132.5,,90,M,Дмитрий Гореликов,180,187.5,192.5,192.5,250,-260,,250,575,SBD
No,Raw,2,Andrey Zakhartsev,Pro Masters 40-44,1966,87.2,-135,140,150,150,,90,M,Андрей Захарцев,170,180,190,190,180,190,200,200,540,SBD
No,Raw,1,Aleksandr Evsyutkin,Pro Juniors 20-23,1988,92.4,110,-120,120,120,,100,M,Александр Евсюткин,150,160,-180,160,170,190,-200,190,470,SBD
No,Raw,1,Viktor Kalugin,Pro Open,1978,97.8,160,170,,170,,100,M,Виктор Калугин,-225,225,235,235,250,285,300,300,705,SBD
No,Raw,2,Aleksey Samburov,Pro Open,1975,98.5,140,-150,150,150,,100,M,Алексей Самбуров,212.5,-222.5,-222.5,212.5,230,-250,-250,230,592.5,SBD
No,Raw,3,Dmitriy Melikhov,Pro Open,1979,97.8,135,145,150,150,,100,M,Дмитрий Мелихов,185,-195,200,200,-200,205,-215,205,555,SBD
No,Raw,1,Aleksandr Volkov,Pro Open,1975,121.4,-175,175,180,180,,125,M,Александр Волков,220,235,250,250,270,-280,280,280,710,SBD
No,Raw,1,Igor Lomov,Pro Open,1970,134.3,210,230,-240,230,,140,M,Игорь Ломов,280,-300,,280,300,310,,310,820,SBD
